<?xml version="1.0" encoding="UTF-8" standalone="no"?>
<!-- Created with Inkscape (http://www.inkscape.org/) -->

<svg
   xmlns:dc="http://purl.org/dc/elements/1.1/"
   xmlns:cc="http://creativecommons.org/ns#"
   xmlns:rdf="http://www.w3.org/1999/02/22-rdf-syntax-ns#"
   xmlns:svg="http://www.w3.org/2000/svg"
   xmlns="http://www.w3.org/2000/svg"
   xmlns:sodipodi="http://sodipodi.sourceforge.net/DTD/sodipodi-0.dtd"
   xmlns:inkscape="http://www.inkscape.org/namespaces/inkscape"
   width="744.09448819"
   height="1052.3622047"
   id="svg2"
   version="1.1"
   inkscape:version="0.48.4 r9939"
   sodipodi:docname="circos_ideogram.svg"
   inkscape:export-filename="/home/paul/Workshops/circos_workshop/handout/images/circos_ideogram.png"
   inkscape:export-xdpi="300"
   inkscape:export-ydpi="300">
  <defs
     id="defs4" />
  <sodipodi:namedview
     id="base"
     pagecolor="#ffffff"
     bordercolor="#666666"
     borderopacity="1.0"
     inkscape:pageopacity="0.0"
     inkscape:pageshadow="2"
     inkscape:zoom="1.4"
     inkscape:cx="335.80088"
     inkscape:cy="767.14942"
     inkscape:document-units="px"
     inkscape:current-layer="layer1"
     showgrid="false"
     inkscape:window-width="1826"
     inkscape:window-height="1426"
     inkscape:window-x="204"
     inkscape:window-y="149"
     inkscape:window-maximized="0" />
  <metadata
     id="metadata7">
    <rdf:RDF>
      <cc:Work
         rdf:about="">
        <dc:format>image/svg+xml</dc:format>
        <dc:type
           rdf:resource="http://purl.org/dc/dcmitype/StillImage" />
        <dc:title></dc:title>
      </cc:Work>
    </rdf:RDF>
  </metadata>
  <g
     inkscape:label="Layer 1"
     inkscape:groupmode="layer"
     id="layer1">
    <text
       xml:space="preserve"
       style="font-size:12px;font-style:normal;font-variant:normal;font-weight:normal;font-stretch:normal;line-height:125%;letter-spacing:0px;word-spacing:0px;fill:#000000;fill-opacity:1;stroke:none;font-family:Symbol;-inkscape-font-specification:Symbol"
       x="29.29443"
       y="49.280701"
       id="text2985"
       sodipodi:linespacing="125%"><tspan
         sodipodi:role="line"
         id="tspan2987"
         x="29.29443"
         y="49.280701"
         style="font-size:8px;font-style:normal;font-variant:normal;font-weight:bold;font-stretch:normal;font-family:Courier;-inkscape-font-specification:Courier">&lt;ideogram&gt;</tspan><tspan
         sodipodi:role="line"
         x="29.29443"
         y="59.230701"
         style="font-size:8px;font-style:normal;font-variant:normal;font-weight:normal;font-stretch:normal;font-family:Courier;-inkscape-font-specification:Courier"
         id="tspan3879">    show            = yes</tspan><tspan
         sodipodi:role="line"
         x="29.29443"
         y="69.230698"
         id="tspan2989"
         style="font-size:8px;font-style:normal;font-variant:normal;font-weight:normal;font-stretch:normal;font-family:Courier;-inkscape-font-specification:Courier">    radius           = 0.80r</tspan><tspan
         sodipodi:role="line"
         x="29.29443"
         y="79.230698"
         id="tspan2991"
         style="font-size:8px;font-style:normal;font-variant:normal;font-weight:normal;font-stretch:normal;font-family:Courier;-inkscape-font-specification:Courier">    thickness        = 10p</tspan><tspan
         sodipodi:role="line"
         x="29.29443"
         y="89.230698"
         id="tspan2993"
         style="font-size:8px;font-style:normal;font-variant:normal;font-weight:normal;font-stretch:normal;font-family:Courier;-inkscape-font-specification:Courier">    fill             = yes</tspan><tspan
         sodipodi:role="line"
         x="29.29443"
         y="99.230698"
         id="tspan2995"
         style="font-size:8px;font-style:italic;font-variant:normal;font-weight:normal;font-stretch:normal;fill:#0000ff;fill-opacity:1;font-family:Courier;-inkscape-font-specification:Courier">#   stroke_color     = dgrey</tspan><tspan
         sodipodi:role="line"
         x="29.29443"
         y="109.2307"
         id="tspan2997"
         style="font-size:8px;font-style:italic;font-variant:normal;font-weight:normal;font-stretch:normal;fill:#0000ff;fill-opacity:1;font-family:Courier;-inkscape-font-specification:Courier">#   stroke_thickness = 2p</tspan><tspan
         sodipodi:role="line"
         x="29.29443"
         y="119.2307"
         id="tspan2999"
         style="font-size:8px;font-style:normal;font-variant:normal;font-weight:normal;font-stretch:normal;fill:#0000ff;fill-opacity:1;font-family:Courier;-inkscape-font-specification:Courier" /><tspan
         sodipodi:role="line"
         x="29.29443"
         y="129.2307"
         style="font-size:8px;font-style:normal;font-variant:normal;font-weight:normal;font-stretch:normal;font-family:Courier;-inkscape-font-specification:Courier"
         id="tspan3067">    show_label       = yes</tspan><tspan
         sodipodi:role="line"
         x="29.29443"
         y="139.2307"
         id="tspan3001"
         style="font-size:8px;font-style:normal;font-variant:normal;font-weight:normal;font-stretch:normal;font-family:Courier;-inkscape-font-specification:Courier">    label_radius     = dims(ideogram,radius) + 0.15r</tspan><tspan
         sodipodi:role="line"
         x="29.29443"
         y="149.2307"
         id="tspan3003"
         style="font-size:8px;font-style:normal;font-variant:normal;font-weight:normal;font-stretch:normal;font-family:Courier;-inkscape-font-specification:Courier">    label_size       = 35</tspan><tspan
         sodipodi:role="line"
         x="29.29443"
         y="159.2307"
         id="tspan3005"
         style="font-size:8px;font-style:normal;font-variant:normal;font-weight:normal;font-stretch:normal;font-family:Courier;-inkscape-font-specification:Courier">    label_parallel   = no</tspan><tspan
         sodipodi:role="line"
         x="29.29443"
         y="169.2307"
         id="tspan3007"
         style="font-size:8px;font-style:normal;font-variant:normal;font-weight:normal;font-stretch:normal;font-family:Courier;-inkscape-font-specification:Courier" /><tspan
         sodipodi:role="line"
         x="29.29443"
         y="179.2807"
         id="tspan3009"
         style="font-size:8px;font-style:normal;font-variant:normal;font-weight:bold;font-stretch:normal;font-family:Courier;-inkscape-font-specification:Courier">    # cytogenetic bands</tspan><tspan
         sodipodi:role="line"
         x="29.29443"
         y="189.2307"
         id="tspan3011"
         style="font-size:8px;font-style:normal;font-variant:normal;font-weight:normal;font-stretch:normal;font-family:Courier;-inkscape-font-specification:Courier">    show_bands            = no</tspan><tspan
         sodipodi:role="line"
         x="29.29443"
         y="199.2307"
         id="tspan3013"
         style="font-size:8px;font-style:normal;font-variant:normal;font-weight:normal;font-stretch:normal;font-family:Courier;-inkscape-font-specification:Courier">    fill_bands            = yes</tspan><tspan
         sodipodi:role="line"
         x="29.29443"
         y="209.2307"
         id="tspan3015"
         style="font-size:8px;font-style:normal;font-variant:normal;font-weight:normal;font-stretch:normal;font-family:Courier;-inkscape-font-specification:Courier">    band_stroke_thickness = 1</tspan><tspan
         sodipodi:role="line"
         x="29.29443"
         y="219.2307"
         id="tspan3017"
         style="font-size:8px;font-style:normal;font-variant:normal;font-weight:normal;font-stretch:normal;font-family:Courier;-inkscape-font-specification:Courier">    band_stroke_color     = white</tspan><tspan
         sodipodi:role="line"
         x="29.29443"
         y="229.2307"
         id="tspan3019"
         style="font-size:8px;font-style:normal;font-variant:normal;font-weight:normal;font-stretch:normal;font-family:Courier;-inkscape-font-specification:Courier">    band_transparency     = 5</tspan><tspan
         sodipodi:role="line"
         x="29.29443"
         y="239.2307"
         id="tspan3021"
         style="font-size:8px;font-style:normal;font-variant:normal;font-weight:normal;font-stretch:normal;font-family:Courier;-inkscape-font-specification:Courier" /><tspan
         sodipodi:role="line"
         x="29.29443"
         y="249.2807"
         id="tspan3023"
         style="font-size:8px;font-style:normal;font-variant:normal;font-weight:bold;font-stretch:normal;font-family:Courier;-inkscape-font-specification:Courier">    &lt;spacing&gt;</tspan><tspan
         sodipodi:role="line"
         x="29.29443"
         y="259.23071"
         id="tspan3025"
         style="font-size:8px;font-style:italic;font-variant:normal;font-weight:normal;font-stretch:normal;fill:#0000ff;fill-opacity:1;font-family:Courier;-inkscape-font-specification:Courier">#        default = 0.005r</tspan><tspan
         sodipodi:role="line"
         x="29.29443"
         y="269.23071"
         id="tspan3027"
         style="font-size:8px;font-style:normal;font-variant:normal;font-weight:normal;font-stretch:normal;font-family:Courier;-inkscape-font-specification:Courier">        default = 10u</tspan><tspan
         sodipodi:role="line"
         x="29.29443"
         y="279.23071"
         id="tspan3029"
         style="font-size:8px;font-style:normal;font-variant:normal;font-weight:normal;font-stretch:normal;font-family:Courier;-inkscape-font-specification:Courier">        break = 5u</tspan><tspan
         sodipodi:role="line"
         x="29.29443"
         y="289.23071"
         id="tspan3031"
         style="font-size:8px;font-style:italic;font-variant:normal;font-weight:normal;font-stretch:normal;fill:#0000ff;fill-opacity:1;font-family:Courier;-inkscape-font-specification:Courier">#        axis_break         = yes</tspan><tspan
         sodipodi:role="line"
         x="29.29443"
         y="299.23071"
         id="tspan3033"
         style="font-size:8px;font-style:italic;font-variant:normal;font-weight:normal;font-stretch:normal;fill:#0000ff;fill-opacity:1;font-family:Courier;-inkscape-font-specification:Courier">#        axis_break_style   = 2</tspan><tspan
         sodipodi:role="line"
         x="29.29443"
         y="309.23071"
         id="tspan3035"
         style="font-size:8px;font-style:italic;font-variant:normal;font-weight:normal;font-stretch:normal;fill:#0000ff;fill-opacity:1;font-family:Courier;-inkscape-font-specification:Courier">#        axis_break_at_edge = yes</tspan><tspan
         sodipodi:role="line"
         x="29.29443"
         y="319.23071"
         style="font-size:8px;font-style:italic;font-variant:normal;font-weight:normal;font-stretch:normal;fill:#0000ff;fill-opacity:1;font-family:Courier;-inkscape-font-specification:Courier"
         id="tspan3953" /><tspan
         sodipodi:role="line"
         x="29.29443"
         y="329.2807"
         id="tspan3037"
         style="font-size:8px;font-style:normal;font-variant:normal;font-weight:bold;font-stretch:normal;font-family:Courier;-inkscape-font-specification:Courier">        &lt;break_style 1&gt;</tspan><tspan
         sodipodi:role="line"
         x="29.29443"
         y="339.23071"
         id="tspan3039"
         style="font-size:8px;font-style:normal;font-variant:normal;font-weight:normal;font-stretch:normal;font-family:Courier;-inkscape-font-specification:Courier">          stroke_color = black</tspan><tspan
         sodipodi:role="line"
         x="29.29443"
         y="349.23071"
         id="tspan3041"
         style="font-size:8px;font-style:normal;font-variant:normal;font-weight:normal;font-stretch:normal;font-family:Courier;-inkscape-font-specification:Courier">          fill_color   = blue</tspan><tspan
         sodipodi:role="line"
         x="29.29443"
         y="359.23071"
         id="tspan3043"
         style="font-size:8px;font-style:normal;font-variant:normal;font-weight:normal;font-stretch:normal;font-family:Courier;-inkscape-font-specification:Courier">          thickness    = 0.25r</tspan><tspan
         sodipodi:role="line"
         x="29.29443"
         y="369.23071"
         id="tspan3045"
         style="font-size:8px;font-style:normal;font-variant:normal;font-weight:normal;font-stretch:normal;font-family:Courier;-inkscape-font-specification:Courier">          stroke_thickness = 2</tspan><tspan
         sodipodi:role="line"
         x="29.29443"
         y="379.2807"
         id="tspan3047"
         style="font-size:8px;font-style:normal;font-variant:normal;font-weight:bold;font-stretch:normal;font-family:Courier;-inkscape-font-specification:Courier">        &lt;/break_style&gt;</tspan><tspan
         sodipodi:role="line"
         x="29.29443"
         y="389.2807"
         id="tspan3049"
         style="font-size:8px;font-style:normal;font-variant:normal;font-weight:normal;font-stretch:normal;font-family:Courier;-inkscape-font-specification:Courier" /><tspan
         sodipodi:role="line"
         x="29.29443"
         y="399.2807"
         id="tspan3051"
         style="font-size:8px;font-style:normal;font-variant:normal;font-weight:bold;font-stretch:normal;font-family:Courier;-inkscape-font-specification:Courier">        &lt;break_style 2&gt;</tspan><tspan
         sodipodi:role="line"
         x="29.29443"
         y="409.23071"
         id="tspan3053"
         style="font-size:8px;font-style:normal;font-variant:normal;font-weight:normal;font-stretch:normal;font-family:Courier;-inkscape-font-specification:Courier">          stroke_color     = black</tspan><tspan
         sodipodi:role="line"
         x="29.29443"
         y="419.23071"
         id="tspan3055"
         style="font-size:8px;font-style:normal;font-variant:normal;font-weight:normal;font-stretch:normal;font-family:Courier;-inkscape-font-specification:Courier">          stroke_thickness = 3</tspan><tspan
         sodipodi:role="line"
         x="29.29443"
         y="429.23071"
         id="tspan3057"
         style="font-size:8px;font-style:normal;font-variant:normal;font-weight:normal;font-stretch:normal;font-family:Courier;-inkscape-font-specification:Courier">          thickness        = 1.5r</tspan><tspan
         sodipodi:role="line"
         x="29.29443"
         y="439.2807"
         id="tspan3059"
         style="font-size:8px;font-style:normal;font-variant:normal;font-weight:bold;font-stretch:normal;font-family:Courier;-inkscape-font-specification:Courier">        &lt;/break_style&gt;</tspan><tspan
         sodipodi:role="line"
         x="29.29443"
         y="449.2807"
         id="tspan3061"
         style="font-size:8px;font-style:normal;font-variant:normal;font-weight:bold;font-stretch:normal;font-family:Courier;-inkscape-font-specification:Courier">    &lt;/spacing&gt;</tspan><tspan
         sodipodi:role="line"
         x="29.29443"
         y="459.2807"
         style="font-size:8px;font-style:normal;font-variant:normal;font-weight:bold;font-stretch:normal;font-family:Courier;-inkscape-font-specification:Courier"
         id="tspan3069"></tspan><tspan
         sodipodi:role="line"
         x="29.29443"
         y="469.2807"
         style="font-size:8px;font-style:normal;font-variant:normal;font-weight:bold;font-stretch:normal;font-family:Courier;-inkscape-font-specification:Courier"
         id="tspan4059">&lt;/ideogram&gt;</tspan><tspan
         sodipodi:role="line"
         x="29.29443"
         y="479.2807"
         id="tspan3065"
         style="font-size:8px;font-style:normal;font-variant:normal;font-weight:normal;font-stretch:normal;font-family:Courier;-inkscape-font-specification:Courier" /></text>
    <rect
       style="fill:none;stroke:#00b5ff;stroke-width:0.45772189;stroke-miterlimit:4;stroke-opacity:1;stroke-dasharray:2.74633127, 0.91544375;stroke-dashoffset:0"
       id="rect3109"
       width="125.80627"
       height="60.651428"
       x="45.9408"
       y="52.795101" />
    <rect
       style="fill:none;stroke:#00b5ff;stroke-width:0.45772189;stroke-miterlimit:4;stroke-opacity:1;stroke-dasharray:2.74633127, 0.91544375;stroke-dashoffset:0"
       id="rect3109-2"
       width="234.90274"
       height="41.963608"
       x="45.9408"
       y="120.85857" />
    <rect
       style="fill:none;stroke:#00b5ff;stroke-width:0.45772189;stroke-miterlimit:4;stroke-opacity:1;stroke-dasharray:2.74633127, 0.91544375;stroke-dashoffset:0"
       id="rect3109-2-6"
       width="143.98901"
       height="60.651428"
       x="45.9408"
       y="171.53751" />
    <rect
       style="fill:none;stroke:#00b5ff;stroke-width:0.45772189;stroke-miterlimit:4;stroke-opacity:1;stroke-dasharray:2.74633127, 0.91544375;stroke-dashoffset:0"
       id="rect3109-2-6-6"
       width="151.06007"
       height="211.16415"
       x="45.9408"
       y="241.7926" />
    <rect
       style="fill:none;stroke:#006cff;stroke-width:0.458;stroke-miterlimit:4;stroke-opacity:1;stroke-dasharray:0.916,0.916;stroke-dashoffset:0"
       id="rect3109-2-6-6-2"
       width="110.65397"
       height="60.651421"
       x="65.386246"
       y="322.1315" />
    <text
       xml:space="preserve"
       style="font-size:12px;font-style:normal;font-variant:normal;font-weight:normal;font-stretch:normal;line-height:125%;letter-spacing:0px;word-spacing:0px;fill:#000000;fill-opacity:1;stroke:none;font-family:Symbol;-inkscape-font-specification:Symbol"
       x="176.06241"
       y="59.122257"
       id="text3955"
       sodipodi:linespacing="125%"><tspan
         sodipodi:role="line"
         id="tspan3957"
         x="176.06241"
         y="59.122257"
         style="font-size:10px">how to draw the chromosomes</tspan></text>
    <text
       xml:space="preserve"
       style="font-size:12px;font-style:normal;font-variant:normal;font-weight:normal;font-stretch:normal;line-height:125%;letter-spacing:0px;word-spacing:0px;fill:#000000;fill-opacity:1;stroke:none;font-family:Symbol;-inkscape-font-specification:Symbol"
       x="192.80544"
       y="179.46669"
       id="text3955-1"
       sodipodi:linespacing="125%"><tspan
         sodipodi:role="line"
         id="tspan3957-9"
         x="192.80544"
         y="179.46669"
         style="font-size:10px">how to draw cytogenetic bands</tspan></text>
    <path
       style="fill:none;stroke:#000000;stroke-width:0.7;stroke-linecap:butt;stroke-linejoin:miter;stroke-opacity:1;stroke-miterlimit:4;stroke-dasharray:none"
       d="m 174,93.979954 7.06984,0 0,18.182746 -7.06984,0"
       id="path3980"
       inkscape:connector-curvature="0"
       sodipodi:nodetypes="cccc" />
    <text
       xml:space="preserve"
       style="font-size:10px;font-style:normal;font-variant:normal;font-weight:normal;font-stretch:normal;line-height:125%;letter-spacing:0px;word-spacing:0px;fill:#000000;fill-opacity:1;stroke:none;font-family:Symbol;-inkscape-font-specification:Symbol"
       x="183.21429"
       y="105.57646"
       id="text3982"
       sodipodi:linespacing="125%"><tspan
         sodipodi:role="line"
         id="tspan3984"
         x="183.21429"
         y="105.57646">draw border</tspan></text>
    <text
       xml:space="preserve"
       style="font-size:10px;font-style:normal;font-variant:normal;font-weight:normal;font-stretch:normal;line-height:125%;letter-spacing:0px;word-spacing:0px;fill:#000000;fill-opacity:1;stroke:none;font-family:Symbol;-inkscape-font-specification:Symbol"
       x="175.35715"
       y="155.57648"
       id="text3986"
       sodipodi:linespacing="125%"><tspan
         sodipodi:role="line"
         id="tspan3988"
         x="175.35715"
         y="155.57648">chromosome labels</tspan></text>
    <path
       style="fill:none;stroke:#000000;stroke-width:0.69999999;stroke-linecap:butt;stroke-linejoin:miter;stroke-miterlimit:4;stroke-opacity:1;stroke-dasharray:none"
       d="m 191.07984,202.8524 7.06984,0 0,18.18274 -7.06984,0"
       id="path3980-8"
       inkscape:connector-curvature="0"
       sodipodi:nodetypes="cccc" />
    <text
       xml:space="preserve"
       style="font-size:10px;font-style:normal;font-variant:normal;font-weight:normal;font-stretch:normal;line-height:125%;letter-spacing:0px;word-spacing:0px;fill:#000000;fill-opacity:1;stroke:none;font-family:Symbol;-inkscape-font-specification:Symbol"
       x="200.80844"
       y="215.6718"
       id="text3982-2"
       sodipodi:linespacing="125%"><tspan
         sodipodi:role="line"
         id="tspan3984-3"
         x="200.80844"
         y="215.6718">draw border</tspan></text>
    <text
       xml:space="preserve"
       style="font-size:10px;font-style:normal;font-variant:normal;font-weight:normal;font-stretch:normal;line-height:125%;letter-spacing:0px;word-spacing:0px;fill:#000000;fill-opacity:1;stroke:none;font-family:Symbol;-inkscape-font-specification:Symbol"
       x="199.00005"
       y="248.78583"
       id="text4029"
       sodipodi:linespacing="125%"><tspan
         sodipodi:role="line"
         id="tspan4031"
         x="199.00005"
         y="248.78583">spacing between chromosomes</tspan><tspan
         sodipodi:role="line"
         x="199.00005"
         y="261.28583"
         id="tspan4033">and regions</tspan></text>
    <text
       xml:space="preserve"
       style="font-size:10px;font-style:normal;font-variant:normal;font-weight:normal;font-stretch:normal;line-height:125%;letter-spacing:0px;word-spacing:0px;fill:#000000;fill-opacity:1;stroke:none;font-family:Symbol;-inkscape-font-specification:Symbol"
       x="177.78685"
       y="329.09296"
       id="text4035"
       sodipodi:linespacing="125%"><tspan
         sodipodi:role="line"
         id="tspan4037"
         x="177.78685"
         y="329.09296"
         style="font-size:9px">define axis-break style</tspan></text>
    <rect
       style="fill:none;stroke:#006cff;stroke-width:0.458;stroke-miterlimit:4;stroke-opacity:1;stroke-dasharray:0.916, 0.916;stroke-dashoffset:0"
       id="rect3109-2-6-6-2-0"
       width="127.57403"
       height="49.792294"
       x="65.386246"
       y="392.16571" />
  </g>
</svg>
