%!PS-Adobe-3.0 EPSF-3.0
%%Creator: (Apache XML Graphics Commons: EPS Generator for Java2D)
%%CreationDate: 2015-01-10T12:51:11
%%Pages: (atend)
%%BoundingBox: 0 0 3315 3730
%%LanguageLevel: 3
%%EndComments
%%BeginProlog
%%BeginResource: procset (Apache XML Graphics Std ProcSet) 1.2 0
%%Version: 1.2 0
%%Copyright: (Copyright 2001-2003,2010 The Apache Software Foundation. License terms: http://www.apache.org/licenses/LICENSE-2.0)
%%Title: (Basic set of procedures used by the XML Graphics project \(Batik and FOP\))
/bd{bind def}bind def
/ld{load def}bd
/GR/grestore ld
/M/moveto ld
/LJ/setlinejoin ld
/C/curveto ld
/f/fill ld
/LW/setlinewidth ld
/GC/setgray ld
/t/show ld
/N/newpath ld
/CT/concat ld
/cp/closepath ld
/S/stroke ld
/L/lineto ld
/CC/setcmykcolor ld
/A/ashow ld
/GS/gsave ld
/RC/setrgbcolor ld
/RM/rmoveto ld
/ML/setmiterlimit ld
/re {4 2 roll M
1 index 0 rlineto
0 exch rlineto
neg 0 rlineto
cp } bd
/_ctm matrix def
/_tm matrix def
/BT { _ctm currentmatrix pop matrix _tm copy pop 0 0 moveto } bd
/ET { _ctm setmatrix } bd
/iTm { _ctm setmatrix _tm concat } bd
/Tm { _tm astore pop iTm 0 0 moveto } bd
/ux 0.0 def
/uy 0.0 def
/F {
  /Tp exch def
  /Tf exch def
  Tf findfont Tp scalefont setfont
  /cf Tf def  /cs Tp def
} bd
/ULS {currentpoint /uy exch def /ux exch def} bd
/ULE {
  /Tcx currentpoint pop def
  gsave
  newpath
  cf findfont cs scalefont dup
  /FontMatrix get 0 get /Ts exch def /FontInfo get dup
  /UnderlinePosition get Ts mul /To exch def
  /UnderlineThickness get Ts mul /Tt exch def
  ux uy To add moveto  Tcx uy To add lineto
  Tt setlinewidth stroke
  grestore
} bd
/OLE {
  /Tcx currentpoint pop def
  gsave
  newpath
  cf findfont cs scalefont dup
  /FontMatrix get 0 get /Ts exch def /FontInfo get dup
  /UnderlinePosition get Ts mul /To exch def
  /UnderlineThickness get Ts mul /Tt exch def
  ux uy To add cs add moveto Tcx uy To add cs add lineto
  Tt setlinewidth stroke
  grestore
} bd
/SOE {
  /Tcx currentpoint pop def
  gsave
  newpath
  cf findfont cs scalefont dup
  /FontMatrix get 0 get /Ts exch def /FontInfo get dup
  /UnderlinePosition get Ts mul /To exch def
  /UnderlineThickness get Ts mul /Tt exch def
  ux uy To add cs 10 mul 26 idiv add moveto Tcx uy To add cs 10 mul 26 idiv add lineto
  Tt setlinewidth stroke
  grestore
} bd
/QT {
/Y22 exch store
/X22 exch store
/Y21 exch store
/X21 exch store
currentpoint
/Y21 load 2 mul add 3 div exch
/X21 load 2 mul add 3 div exch
/X21 load 2 mul /X22 load add 3 div
/Y21 load 2 mul /Y22 load add 3 div
/X22 load /Y22 load curveto
} bd
/SSPD {
dup length /d exch dict def
{
/v exch def
/k exch def
currentpagedevice k known {
/cpdv currentpagedevice k get def
v cpdv ne {
/upd false def
/nullv v type /nulltype eq def
/nullcpdv cpdv type /nulltype eq def
nullv nullcpdv or
{
/upd true def
} {
/sametype v type cpdv type eq def
sametype {
v type /arraytype eq {
/vlen v length def
/cpdvlen cpdv length def
vlen cpdvlen eq {
0 1 vlen 1 sub {
/i exch def
/obj v i get def
/cpdobj cpdv i get def
obj cpdobj ne {
/upd true def
exit
} if
} for
} {
/upd true def
} ifelse
} {
v type /dicttype eq {
v {
/dv exch def
/dk exch def
/cpddv cpdv dk get def
dv cpddv ne {
/upd true def
exit
} if
} forall
} {
/upd true def
} ifelse
} ifelse
} if
} ifelse
upd true eq {
d k v put
} if
} if
} if
} forall
d length 0 gt {
d setpagedevice
} if
} bd
%%EndResource
%%BeginResource: procset (Apache XML Graphics EPS ProcSet) 1.0 0
%%Version: 1.0 0
%%Copyright: (Copyright 2002-2003 The Apache Software Foundation. License terms: http://www.apache.org/licenses/LICENSE-2.0)
%%Title: (EPS procedures used by the Apache XML Graphics project \(Batik and FOP\))
/BeginEPSF { %def
/b4_Inc_state save def         % Save state for cleanup
/dict_count countdictstack def % Count objects on dict stack
/op_count count 1 sub def      % Count objects on operand stack
userdict begin                 % Push userdict on dict stack
/showpage { } def              % Redefine showpage, { } = null proc
0 setgray 0 setlinecap         % Prepare graphics state
1 setlinewidth 0 setlinejoin
10 setmiterlimit [ ] 0 setdash newpath
/languagelevel where           % If level not equal to 1 then
{pop languagelevel             % set strokeadjust and
1 ne                           % overprint to their defaults.
{false setstrokeadjust false setoverprint
} if
} if
} bd
/EndEPSF { %def
count op_count sub {pop} repeat            % Clean up stacks
countdictstack dict_count sub {end} repeat
b4_Inc_state restore
} bd
%%EndResource
%%EndProlog
%%Page: 1 1
%%PageBoundingBox: 0 0 3315 3730
%%BeginPageSetup
[1 0 0 -1 0 3730] CT
%%EndPageSetup
GS
0.753 GC
N
2600 1500 M
2600 1686.489 2552.587 1869.917 2462.217 2033.047 C
2374.742 1984.588 L
2456.897 1836.288 2500 1669.536 2500 1500 C
cp
eofill
GR
GS
2 setlinecap
10.0 ML
N
2600 1500 M
2600 1686.489 2552.587 1869.917 2462.217 2033.047 C
2374.742 1984.588 L
2456.897 1836.288 2500 1669.536 2500 1500 C
cp
S
GR
GS
N
2614.352 1813.872 M
2623.711 1816.294 L
2632.055 1783.997 L
2621.352 1783.419 L
2622.711 1778.201 L
2633.336 1778.763 L
2639.071 1780.247 L
2629.383 1817.763 L
2638.758 1820.185 L
2637.508 1825.013 L
2613.102 1818.701 L
2614.352 1813.872 L
cp
f
GR
GS
0.753 GC
N
2462.217 2033.047 M
2374.063 2192.176 2247.82 2326.957 2094.793 2425.322 C
2040.721 2341.202 L
2179.836 2251.779 2294.603 2129.251 2374.742 1984.588 C
cp
eofill
GR
GS
2 setlinecap
10.0 ML
N
2462.217 2033.047 M
2374.063 2192.176 2247.82 2326.957 2094.793 2425.322 C
2040.721 2341.202 L
2179.836 2251.779 2294.603 2129.251 2374.742 1984.588 C
cp
S
GR
GS
N
2330.629 2312.281 M
2345.707 2326.406 L
2342.301 2330.047 L
2322.019 2311.047 L
2325.426 2307.406 L
2330.285 2307.172 2338.543 2306.86 QT
2346.801 2306.547 2349.051 2306.328 QT
2353.316 2305.938 2355.644 2305.102 QT
2357.972 2304.266 2359.441 2302.703 QT
2361.816 2300.156 2361.527 2296.883 QT
2361.238 2293.61 2358.379 2290.922 QT
2356.347 2289.031 2353.433 2287.617 QT
2350.519 2286.203 2346.613 2285.219 QT
2350.691 2280.875 L
2354.285 2282.281 2357.051 2283.86 QT
2359.816 2285.438 2361.691 2287.203 QT
2366.66 2291.844 2367.293 2297.086 QT
2367.926 2302.328 2364.035 2306.485 QT
2362.207 2308.453 2359.808 2309.524 QT
2357.41 2310.594 2353.222 2311.172 QT
2352.113 2311.297 2346.465 2311.563 QT
2340.816 2311.828 2330.629 2312.281 QT
cp
f
GR
GS
0.753 GC
N
2094.793 2425.322 M
1970.406 2505.277 1831.176 2559.333 1685.425 2584.259 C
1668.568 2485.69 L
1801.069 2463.03 1927.642 2413.889 2040.721 2341.202 C
cp
eofill
GR
GS
2 setlinecap
10.0 ML
N
2094.793 2425.322 M
1970.406 2505.277 1831.176 2559.333 1685.425 2584.259 C
1668.568 2485.69 L
1801.069 2463.03 1927.642 2413.889 2040.721 2341.202 C
cp
S
GR
GS
N
1919.047 2597.051 M
1919.735 2601.348 1917.93 2604.614 QT
1916.126 2607.879 1912.188 2609.395 QT
1906.141 2611.754 1901.235 2608.887 QT
1896.329 2606.02 1893.36 2598.364 QT
1892.36 2595.786 1891.805 2592.879 QT
1891.251 2589.973 1891.126 2586.692 QT
1896.454 2584.614 L
1896.016 2587.411 1896.391 2590.411 QT
1896.766 2593.411 1897.907 2596.379 QT
1899.938 2601.583 1903.047 2603.504 QT
1906.157 2605.426 1910.063 2603.911 QT
1913.657 2602.52 1914.712 2599.2 QT
1915.766 2595.879 1914.016 2591.379 QT
1912.172 2586.614 L
1916.704 2584.848 L
1918.641 2589.833 L
1920.219 2593.895 1922.68 2595.418 QT
1925.141 2596.942 1928.204 2595.754 QT
1931.344 2594.536 1932.149 2591.668 QT
1932.954 2588.801 1931.344 2584.645 QT
1930.469 2582.379 1928.977 2579.973 QT
1927.485 2577.567 1925.235 2574.848 QT
1930.141 2572.942 L
1932.251 2575.754 1933.751 2578.325 QT
1935.251 2580.895 1936.188 2583.333 QT
1938.626 2589.629 1937.188 2594.387 QT
1935.751 2599.145 1930.891 2601.036 QT
1927.516 2602.348 1924.422 2601.317 QT
1921.329 2600.286 1919.047 2597.051 QT
cp
f
GR
GS
0.753 GC
N
1685.425 2584.259 M
1544.761 2608.315 1400.76 2604.77 1261.45 2573.822 C
1283.137 2476.202 L
1409.782 2504.336 1540.692 2507.559 1668.568 2485.69 C
cp
eofill
GR
GS
2 setlinecap
10.0 ML
N
1685.425 2584.259 M
1544.761 2608.315 1400.76 2604.77 1261.45 2573.822 C
1283.137 2476.202 L
1409.782 2504.336 1540.692 2507.559 1668.568 2485.69 C
cp
S
GR
GS
N
1462.706 2666.753 M
1485.659 2682.269 L
1486.034 2667.331 L
1462.706 2666.753 L
cp
1457.503 2668.175 M
1457.69 2660.753 L
1486.174 2661.456 L
1486.331 2655.206 L
1491.253 2655.331 L
1491.096 2661.581 L
1501.409 2661.831 L
1501.268 2667.706 L
1490.956 2667.456 L
1490.471 2687.19 L
1484.753 2687.05 L
1457.503 2668.175 L
cp
f
GR
GS
0.753 GC
N
1261.45 2573.822 M
1129.646 2544.542 1004.358 2491.246 891.852 2416.6 C
947.138 2333.273 L
1049.416 2401.133 1163.314 2449.583 1283.137 2476.202 C
cp
eofill
GR
GS
2 setlinecap
10.0 ML
N
1261.45 2573.822 M
1129.646 2544.542 1004.358 2491.246 891.852 2416.6 C
947.138 2333.273 L
1049.416 2401.133 1163.314 2449.583 1283.137 2476.202 C
cp
S
GR
GS
N
1024.072 2583.707 M
1033.166 2562.332 L
1037.744 2564.285 L
1030.775 2580.675 L
1040.65 2584.878 L
1040.728 2583.488 1041.041 2582.222 QT
1041.353 2580.957 1041.853 2579.769 QT
1044.728 2573.019 1050.095 2570.66 QT
1055.462 2568.3 1061.775 2570.972 QT
1068.275 2573.738 1070.15 2579.316 QT
1072.025 2584.894 1068.884 2592.253 QT
1067.806 2594.785 1066.251 2597.238 QT
1064.697 2599.691 1062.65 2602.128 QT
1057.197 2599.8 L
1059.541 2597.925 1061.291 2595.621 QT
1063.041 2593.316 1064.275 2590.425 QT
1066.244 2585.769 1064.947 2581.996 QT
1063.65 2578.222 1059.462 2576.425 QT
1055.244 2574.644 1051.626 2576.324 QT
1048.009 2578.003 1046.041 2582.66 QT
1045.103 2584.847 1044.673 2587.23 QT
1044.244 2589.613 1044.291 2592.316 QT
1024.072 2583.707 L
cp
f
GR
GS
0.753 GC
N
891.852 2416.6 M
785.471 2346.018 692.189 2257.457 616.184 2154.881 C
696.531 2095.346 L
765.627 2188.597 850.428 2269.107 947.138 2333.273 C
cp
eofill
GR
GS
2 setlinecap
10.0 ML
N
891.852 2416.6 M
785.471 2346.018 692.189 2257.457 616.184 2154.881 C
696.531 2095.346 L
765.627 2188.597 850.428 2269.107 947.138 2333.273 C
cp
S
GR
GS
N
698.479 2352.601 M
695.729 2355.491 696.104 2359.062 QT
696.479 2362.632 699.932 2365.913 QT
703.354 2369.163 706.94 2369.351 QT
710.526 2369.538 713.276 2366.648 QT
716.026 2363.773 715.643 2360.195 QT
715.26 2356.616 711.839 2353.366 QT
708.385 2350.085 704.807 2349.906 QT
701.229 2349.726 698.479 2352.601 QT
cp
693.104 2331.335 M
697.026 2335.038 L
694.729 2335.929 692.768 2337.195 QT
690.807 2338.46 689.276 2340.07 QT
685.245 2344.32 685.971 2349.288 QT
686.698 2354.257 692.214 2360.07 QT
691.573 2357.07 692.37 2354.241 QT
693.167 2351.413 695.323 2349.132 QT
699.87 2344.351 705.393 2344.335 QT
710.917 2344.32 715.917 2349.07 QT
720.792 2353.695 721.003 2359.39 QT
721.214 2365.085 716.667 2369.866 QT
711.432 2375.382 704.464 2374.296 QT
697.495 2373.21 689.479 2365.601 QT
681.948 2358.46 680.862 2350.648 QT
679.776 2342.835 685.495 2336.82 QT
687.026 2335.21 688.909 2333.859 QT
690.792 2332.507 693.104 2331.335 QT
cp
f
GR
GS
0.753 GC
N
616.184 2154.881 M
545.522 2059.517 490.76 1953.346 454.022 1840.485 C
549.111 1809.532 L
582.509 1912.133 632.293 2008.652 696.531 2095.346 C
cp
eofill
GR
GS
2 setlinecap
10.0 ML
N
616.184 2154.881 M
545.522 2059.517 490.76 1953.346 454.022 1840.485 C
549.111 1809.532 L
582.509 1912.133 632.293 2008.652 696.531 2095.346 C
cp
S
GR
GS
N
440.475 2031.038 M
465.475 2018.147 L
466.631 2020.397 L
471.412 2064.288 L
465.912 2067.132 L
461.412 2025.835 L
442.756 2035.46 L
440.475 2031.038 L
cp
f
GR
GS
0.753 GC
N
454.022 1840.485 M
420.244 1736.718 402.095 1628.503 400.171 1519.395 C
500.156 1517.631 L
501.905 1616.821 518.404 1715.198 549.111 1809.532 C
cp
eofill
GR
GS
2 setlinecap
10.0 ML
N
454.022 1840.485 M
420.244 1736.718 402.095 1628.503 400.171 1519.395 C
500.156 1517.631 L
501.905 1616.821 518.404 1715.198 549.111 1809.532 C
cp
S
GR
GS
N
346.728 1702.775 M
342.572 1703.479 340.556 1706.096 QT
338.54 1708.713 339.197 1712.619 QT
339.853 1716.525 342.611 1718.346 QT
345.369 1720.166 349.525 1719.463 QT
353.681 1718.76 355.705 1716.127 QT
357.728 1713.494 357.087 1709.619 QT
356.431 1705.713 353.673 1703.893 QT
350.915 1702.072 346.728 1702.775 QT
cp
340.462 1701.275 M
336.556 1700.963 334.033 1698.752 QT
331.509 1696.541 330.9 1692.838 QT
330.025 1687.666 333.205 1684.041 QT
336.384 1680.416 342.806 1679.338 QT
349.244 1678.26 353.415 1680.65 QT
357.587 1683.041 358.462 1688.213 QT
359.072 1691.916 357.408 1694.83 QT
355.744 1697.744 352.165 1699.307 QT
356.556 1699.588 359.392 1702.049 QT
362.228 1704.51 362.931 1708.635 QT
363.978 1714.9 360.712 1718.893 QT
357.447 1722.885 350.306 1724.088 QT
343.181 1725.291 338.783 1722.58 QT
334.384 1719.869 333.337 1713.604 QT
332.634 1709.479 334.525 1706.221 QT
336.415 1702.963 340.462 1701.275 QT
cp
336.79 1692.416 M
337.353 1695.775 339.767 1697.291 QT
342.181 1698.807 345.962 1698.166 QT
349.712 1697.541 351.525 1695.314 QT
353.337 1693.088 352.775 1689.729 QT
352.212 1686.385 349.767 1684.861 QT
347.322 1683.338 343.572 1683.963 QT
339.79 1684.604 338.009 1686.838 QT
336.228 1689.072 336.79 1692.416 QT
cp
f
GR
GS
0.753 GC
N
400.171 1519.395 M
398.315 1414.139 411.578 1309.161 439.554 1207.675 C
535.958 1234.25 L
510.525 1326.51 498.468 1421.944 500.156 1517.631 C
cp
eofill
GR
GS
2 setlinecap
10.0 ML
N
400.171 1519.395 M
398.315 1414.139 411.578 1309.161 439.554 1207.675 C
535.958 1234.25 L
510.525 1326.51 498.468 1421.944 500.156 1517.631 C
cp
S
GR
GS
N
322.281 1380.525 M
322.969 1375.182 L
325.031 1376.51 327.226 1377.346 QT
329.422 1378.182 331.609 1378.463 QT
337.422 1379.197 340.976 1375.674 QT
344.531 1372.15 345.984 1364.228 QT
344 1366.541 341.234 1367.541 QT
338.469 1368.541 335.328 1368.135 QT
328.812 1367.322 325.523 1362.9 QT
322.234 1358.478 323.094 1351.65 QT
323.937 1344.963 328.398 1341.424 QT
332.859 1337.885 339.437 1338.713 QT
346.953 1339.666 350.195 1345.939 QT
353.437 1352.213 352.047 1363.197 QT
350.75 1373.463 345.109 1378.971 QT
339.469 1384.478 331.234 1383.432 QT
329.031 1383.15 326.812 1382.432 QT
324.594 1381.713 322.281 1380.525 QT
cp
336.297 1363.603 M
340.25 1364.103 342.898 1361.697 QT
345.547 1359.291 346.141 1354.572 QT
346.734 1349.9 344.773 1346.885 QT
342.812 1343.869 338.859 1343.369 QT
334.906 1342.869 332.25 1345.299 QT
329.594 1347.728 329 1352.4 QT
328.406 1357.119 330.375 1360.111 QT
332.344 1363.103 336.297 1363.603 QT
cp
f
GR
GS
0.753 GC
N
439.554 1207.675 M
466.401 1110.282 506.538 1017.052 558.831 930.614 C
644.391 982.377 L
596.852 1060.957 560.365 1145.711 535.958 1234.25 C
cp
eofill
GR
GS
2 setlinecap
10.0 ML
N
439.554 1207.675 M
466.401 1110.282 506.538 1017.052 558.831 930.614 C
644.391 982.377 L
596.852 1060.957 560.365 1145.711 535.958 1234.25 C
cp
S
GR
GS
N
428.388 1027.957 M
424.185 1026.144 420.302 1029.371 QT
416.419 1032.597 412.841 1040.879 QT
409.294 1049.144 409.623 1054.176 QT
409.951 1059.207 414.154 1061.019 QT
418.388 1062.832 422.279 1059.613 QT
426.169 1056.394 429.716 1048.129 QT
433.294 1039.847 432.958 1034.808 QT
432.623 1029.769 428.388 1027.957 QT
cp
430.248 1023.644 M
436.998 1026.551 438.271 1033.426 QT
439.544 1040.301 435.154 1050.472 QT
430.794 1060.613 424.927 1064.426 QT
419.06 1068.238 412.31 1065.332 QT
405.56 1062.426 404.287 1055.543 QT
403.013 1048.66 407.373 1038.519 QT
411.763 1028.347 417.63 1024.543 QT
423.498 1020.738 430.248 1023.644 QT
cp
f
GR
GS
N
367.179 1039.546 M
376.07 1043.374 L
389.258 1012.734 L
378.773 1010.515 L
380.898 1005.562 L
391.336 1007.749 L
396.773 1010.093 L
381.445 1045.687 L
390.336 1049.515 L
388.367 1054.093 L
365.211 1044.124 L
367.179 1039.546 L
cp
f
GR
GS
0.753 GC
N
558.831 930.614 M
610.919 844.514 674.576 765.969 748.02 697.177 C
816.381 770.161 L
749.614 832.699 691.745 904.104 644.391 982.377 C
cp
eofill
GR
GS
2 setlinecap
10.0 ML
N
558.831 930.614 M
610.919 844.514 674.576 765.969 748.02 697.177 C
816.381 770.161 L
749.614 832.699 691.745 904.104 644.391 982.377 C
cp
S
GR
GS
N
565.529 774.858 M
573.045 780.936 L
594.045 755.03 L
584.545 750.045 L
587.936 745.858 L
597.389 750.795 L
601.982 754.53 L
577.592 784.639 L
585.107 790.717 L
581.967 794.592 L
562.389 778.733 L
565.529 774.858 L
cp
f
GR
GS
N
534.453 749.672 M
541.969 755.751 L
562.969 729.844 L
553.469 724.86 L
556.86 720.672 L
566.313 725.61 L
570.907 729.344 L
546.516 759.454 L
554.032 765.532 L
550.891 769.407 L
531.313 753.547 L
534.453 749.672 L
cp
f
GR
GS
0.753 GC
N
748.02 697.177 M
820.833 628.974 902.587 570.994 991.032 524.832 C
1037.302 613.484 L
956.897 655.45 882.576 708.158 816.381 770.161 C
cp
eofill
GR
GS
2 setlinecap
10.0 ML
N
748.02 697.177 M
820.833 628.974 902.587 570.994 991.032 524.832 C
1037.302 613.484 L
956.897 655.45 882.576 708.158 816.381 770.161 C
cp
S
GR
GS
N
797.848 553.182 M
809.801 570.041 L
805.739 572.932 L
789.676 550.26 L
793.739 547.369 L
798.536 548.104 806.692 549.447 QT
814.848 550.791 817.083 551.041 QT
821.348 551.51 823.801 551.151 QT
826.255 550.791 827.989 549.541 QT
830.833 547.526 831.215 544.268 QT
831.598 541.01 829.333 537.807 QT
827.723 535.541 825.145 533.572 QT
822.567 531.604 818.926 529.885 QT
823.801 526.432 L
827.036 528.51 829.434 530.611 QT
831.833 532.713 833.317 534.822 QT
837.255 540.369 836.817 545.635 QT
836.38 550.901 831.739 554.197 QT
829.551 555.744 826.989 556.315 QT
824.426 556.885 820.223 556.635 QT
819.098 556.51 813.52 555.651 QT
807.942 554.791 797.848 553.182 QT
cp
f
GR
GS
N
772.349 517.226 M
777.943 525.117 L
805.162 505.82 L
797.365 498.476 L
801.756 495.351 L
809.521 502.663 L
812.943 507.492 L
781.334 529.898 L
786.928 537.788 L
782.865 540.679 L
768.287 520.117 L
772.349 517.226 L
cp
f
GR
GS
0.753 GC
N
991.032 524.832 M
1067.102 485.129 1147.557 454.464 1230.754 433.46 C
1255.231 530.419 L
1179.597 549.512 1106.456 577.39 1037.302 613.484 C
cp
eofill
GR
GS
2 setlinecap
10.0 ML
N
991.032 524.832 M
1067.102 485.129 1147.557 454.464 1230.754 433.46 C
1255.231 530.419 L
1179.597 549.512 1106.456 577.39 1037.302 613.484 C
cp
S
GR
GS
N
1078.836 413.08 M
1079.508 417.361 1077.68 420.619 QT
1075.852 423.877 1071.914 425.377 QT
1065.852 427.689 1060.961 424.783 QT
1056.07 421.877 1053.149 414.221 QT
1052.164 411.627 1051.625 408.721 QT
1051.086 405.814 1050.977 402.533 QT
1056.32 400.502 L
1055.867 403.283 1056.227 406.291 QT
1056.586 409.299 1057.711 412.283 QT
1059.711 417.486 1062.797 419.432 QT
1065.883 421.377 1069.805 419.877 QT
1073.399 418.502 1074.484 415.182 QT
1075.57 411.861 1073.852 407.361 QT
1072.024 402.58 L
1076.57 400.861 L
1078.477 405.861 L
1080.039 409.924 1082.484 411.463 QT
1084.93 413.002 1087.992 411.83 QT
1091.149 410.627 1091.977 407.768 QT
1092.805 404.908 1091.227 400.752 QT
1090.352 398.471 1088.867 396.049 QT
1087.383 393.627 1085.164 390.908 QT
1090.086 389.033 L
1092.164 391.846 1093.649 394.424 QT
1095.133 397.002 1096.07 399.439 QT
1098.461 405.752 1097 410.51 QT
1095.539 415.268 1090.664 417.127 QT
1087.274 418.408 1084.195 417.361 QT
1081.117 416.314 1078.836 413.08 QT
cp
f
GR
GS
N
1041.199 366.516 M
1044.636 375.547 L
1075.808 363.672 L
1070.089 354.594 L
1075.121 352.672 L
1080.824 361.688 L
1082.933 367.234 L
1046.73 381.031 L
1050.168 390.063 L
1045.511 391.844 L
1036.543 368.297 L
1041.199 366.516 L
cp
f
GR
GS
0.753 GC
N
1230.754 433.46 M
1308.291 413.886 1387.731 402.826 1467.666 400.475 C
1470.605 500.432 L
1397.937 502.569 1325.719 512.624 1255.231 530.419 C
cp
eofill
GR
GS
2 setlinecap
10.0 ML
N
1230.754 433.46 M
1308.291 413.886 1387.731 402.826 1467.666 400.475 C
1470.605 500.432 L
1397.937 502.569 1325.719 512.624 1255.231 530.419 C
cp
S
GR
GS
N
1347.514 342.647 M
1322.343 331.068 L
1324.405 345.865 L
1347.514 342.647 L
cp
1352.405 340.397 M
1353.436 347.772 L
1325.218 351.709 L
1326.077 357.897 L
1321.202 358.568 L
1320.343 352.381 L
1310.124 353.803 L
1309.311 347.959 L
1319.53 346.537 L
1316.811 326.99 L
1322.468 326.209 L
1352.405 340.397 L
cp
f
GR
GS
N
1306.639 292.56 M
1307.967 302.154 L
1341.014 297.56 L
1337.467 287.419 L
1342.811 286.685 L
1346.327 296.747 L
1347.155 302.607 L
1308.78 307.951 L
1310.108 317.529 L
1305.17 318.216 L
1301.702 293.247 L
1306.639 292.56 L
cp
f
GR
GS
0.753 GC
N
1467.666 400.475 M
1544.006 398.23 1620.373 403.942 1695.53 417.518 C
1677.754 515.925 L
1609.43 503.584 1540.006 498.391 1470.605 500.432 C
cp
eofill
GR
GS
2 setlinecap
10.0 ML
N
1467.666 400.475 M
1544.006 398.23 1620.373 403.942 1695.53 417.518 C
1677.754 515.925 L
1609.43 503.584 1540.006 498.391 1470.605 500.432 C
cp
S
GR
GS
N
1611.265 347.644 M
1612 338.003 L
1578.734 335.519 L
1580.031 346.159 L
1574.656 345.753 L
1573.343 335.175 L
1573.797 329.269 L
1612.437 332.159 L
1613.156 322.519 L
1618.125 322.894 L
1616.234 348.019 L
1611.265 347.644 L
cp
f
GR
GS
N
1575.545 305.833 M
1577.28 282.661 L
1582.233 283.036 L
1580.905 300.802 L
1591.608 301.599 L
1591.249 300.271 1591.124 298.974 QT
1590.999 297.677 1591.092 296.396 QT
1591.639 289.083 1595.967 285.114 QT
1600.295 281.146 1607.139 281.661 QT
1614.17 282.193 1617.741 286.864 QT
1621.311 291.536 1620.717 299.521 QT
1620.514 302.255 1619.834 305.075 QT
1619.155 307.896 1617.983 310.864 QT
1612.061 310.427 L
1613.702 307.896 1614.616 305.138 QT
1615.53 302.38 1615.764 299.255 QT
1616.139 294.208 1613.694 291.06 QT
1611.249 287.911 1606.702 287.568 QT
1602.124 287.224 1599.249 289.982 QT
1596.374 292.739 1595.999 297.786 QT
1595.811 300.146 1596.17 302.544 QT
1596.53 304.943 1597.452 307.474 QT
1575.545 305.833 L
cp
f
GR
GS
0.753 GC
N
1695.53 417.518 M
1761.748 429.479 1826.729 447.491 1889.656 471.327 C
1854.232 564.843 L
1797.026 543.173 1737.953 526.799 1677.754 515.925 C
cp
eofill
GR
GS
2 setlinecap
10.0 ML
N
1695.53 417.518 M
1761.748 429.479 1826.729 447.491 1889.656 471.327 C
1854.232 564.843 L
1797.026 543.173 1737.953 526.799 1677.754 515.925 C
cp
S
GR
GS
N
1833.28 391.299 M
1835.858 381.987 L
1803.702 373.081 L
1802.936 383.768 L
1797.749 382.315 L
1798.499 371.69 L
1800.093 365.971 L
1837.436 376.331 L
1840.015 367.018 L
1844.811 368.346 L
1838.077 392.627 L
1833.28 391.299 L
cp
f
GR
GS
N
1828.715 335.69 M
1827.652 339.534 1829.66 342.51 QT
1831.668 345.487 1836.246 346.753 QT
1840.793 348.018 1844.051 346.495 QT
1847.309 344.971 1848.371 341.128 QT
1849.434 337.284 1847.418 334.315 QT
1845.402 331.346 1840.855 330.081 QT
1836.277 328.815 1833.027 330.331 QT
1829.777 331.846 1828.715 335.69 QT
cp
1813.98 319.425 M
1819.168 320.862 L
1817.559 322.721 1816.426 324.768 QT
1815.293 326.815 1814.699 328.94 QT
1813.137 334.596 1816.121 338.628 QT
1819.105 342.659 1826.684 345.221 QT
1824.699 342.862 1824.074 340.003 QT
1823.449 337.143 1824.293 334.112 QT
1826.043 327.753 1830.926 325.135 QT
1835.809 322.518 1842.449 324.362 QT
1848.934 326.159 1851.793 331.081 QT
1854.652 336.003 1852.887 342.378 QT
1850.855 349.69 1844.184 352.018 QT
1837.512 354.346 1826.871 351.393 QT
1816.871 348.612 1812.246 342.229 QT
1807.621 335.846 1809.84 327.846 QT
1810.434 325.706 1811.457 323.635 QT
1812.48 321.565 1813.98 319.425 QT
cp
f
GR
GS
0.753 GC
N
1889.656 471.327 M
1946.195 492.744 2000.873 518.786 2053.133 549.188 C
2002.848 635.625 L
1955.339 607.987 1905.632 584.313 1854.232 564.843 C
cp
eofill
GR
GS
2 setlinecap
10.0 ML
N
1889.656 471.327 M
1946.195 492.744 2000.873 518.786 2053.133 549.188 C
2002.848 635.625 L
1955.339 607.987 1905.632 584.313 1854.232 564.843 C
cp
S
GR
GS
N
2020.287 465.787 M
2024.443 457.053 L
1994.318 442.709 L
1991.693 453.115 L
1986.834 450.787 L
1989.428 440.443 L
1991.975 435.099 L
2026.959 451.771 L
2031.115 443.037 L
2035.615 445.178 L
2024.787 467.928 L
2020.287 465.787 L
cp
f
GR
GS
N
2001.409 415.283 M
2013.503 389.893 L
2015.768 390.986 L
2046.175 423.033 L
2043.503 428.611 L
2014.925 398.455 L
2005.893 417.424 L
2001.409 415.283 L
cp
f
GR
GS
0.753 GC
N
2053.133 549.188 M
2103.385 578.422 2151.239 611.593 2196.248 648.39 C
2132.952 725.809 L
2092.036 692.357 2048.531 662.201 2002.848 635.625 C
cp
eofill
GR
GS
2 setlinecap
10.0 ML
N
2053.133 549.188 M
2103.385 578.422 2151.239 611.593 2196.248 648.39 C
2132.952 725.809 L
2092.036 692.357 2048.531 662.201 2002.848 635.625 C
cp
S
GR
GS
N
2179.937 562.997 M
2185.453 555.044 L
2158.031 536.044 L
2153.765 545.888 L
2149.344 542.81 L
2153.578 533.013 L
2156.937 528.153 L
2188.781 550.232 L
2194.297 542.278 L
2198.39 545.122 L
2184.031 565.841 L
2179.937 562.997 L
cp
f
GR
GS
N
2196.397 511.576 M
2193.99 515.029 2194.451 518.302 QT
2194.912 521.576 2198.162 523.826 QT
2201.428 526.091 2204.662 525.38 QT
2207.897 524.67 2210.303 521.216 QT
2212.694 517.748 2212.217 514.459 QT
2211.74 511.17 2208.506 508.92 QT
2205.256 506.67 2202.037 507.373 QT
2198.819 508.076 2196.397 511.576 QT
cp
2190.944 514.998 M
2187.99 517.591 2184.647 517.857 QT
2181.303 518.123 2178.209 515.982 QT
2173.897 512.998 2173.522 508.185 QT
2173.147 503.373 2176.865 498.029 QT
2180.584 492.654 2185.201 491.341 QT
2189.819 490.029 2194.131 493.013 QT
2197.225 495.154 2198.147 498.373 QT
2199.069 501.591 2197.694 505.248 QT
2200.944 502.295 2204.686 501.982 QT
2208.428 501.67 2211.865 504.06 QT
2217.1 507.685 2217.678 512.81 QT
2218.256 517.935 2214.147 523.888 QT
2210.022 529.826 2205.022 531.076 QT
2200.022 532.326 2194.787 528.701 QT
2191.35 526.31 2190.334 522.693 QT
2189.319 519.076 2190.944 514.998 QT
cp
2182.006 511.451 M
2184.803 513.388 2187.576 512.732 QT
2190.35 512.076 2192.553 508.92 QT
2194.709 505.795 2194.373 502.935 QT
2194.037 500.076 2191.24 498.138 QT
2188.459 496.201 2185.662 496.888 QT
2182.865 497.576 2180.709 500.701 QT
2178.506 503.857 2178.865 506.685 QT
2179.225 509.513 2182.006 511.451 QT
cp
f
GR
GS
0.753 GC
N
2196.248 648.39 M
2230.325 676.251 2262.7 706.132 2293.197 737.873 C
2221.089 807.157 L
2193.364 778.302 2163.932 751.137 2132.952 725.809 C
cp
eofill
GR
GS
2 setlinecap
10.0 ML
N
2196.248 648.39 M
2230.325 676.251 2262.7 706.132 2293.197 737.873 C
2221.089 807.157 L
2193.364 778.302 2163.932 751.137 2132.952 725.809 C
cp
S
GR
GS
N
2303.413 666.438 M
2309.976 659.329 L
2285.46 636.704 L
2279.866 645.86 L
2275.897 642.204 L
2281.444 633.094 L
2285.46 628.751 L
2313.944 655.032 L
2320.507 647.923 L
2324.163 651.298 L
2307.069 669.813 L
2303.413 666.438 L
cp
f
GR
GS
N
2332.949 640.435 M
2328.996 636.779 L
2331.277 635.857 2333.238 634.552 QT
2335.199 633.248 2336.699 631.638 QT
2340.668 627.326 2339.863 622.381 QT
2339.058 617.435 2333.449 611.67 QT
2334.168 614.638 2333.386 617.459 QT
2332.605 620.279 2330.465 622.607 QT
2326.011 627.435 2320.496 627.552 QT
2314.98 627.67 2309.918 622.998 QT
2304.98 618.42 2304.691 612.732 QT
2304.402 607.045 2308.902 602.185 QT
2314.043 596.607 2321.019 597.615 QT
2327.996 598.623 2336.136 606.138 QT
2343.746 613.138 2344.949 620.935 QT
2346.152 628.732 2340.527 634.826 QT
2339.011 636.451 2337.144 637.841 QT
2335.277 639.232 2332.949 640.435 QT
cp
2327.324 619.201 M
2330.027 616.263 2329.605 612.701 QT
2329.183 609.138 2325.683 605.92 QT
2322.23 602.732 2318.636 602.576 QT
2315.043 602.42 2312.34 605.357 QT
2309.636 608.279 2310.074 611.857 QT
2310.511 615.435 2313.965 618.623 QT
2317.465 621.841 2321.043 621.982 QT
2324.621 622.123 2327.324 619.201 QT
cp
f
GR
GS
0.753 GC
N
2293.197 737.873 M
2325.706 771.706 2356.016 807.585 2383.942 845.289 C
2303.584 904.808 L
2278.196 870.532 2250.642 837.915 2221.089 807.157 C
cp
eofill
GR
GS
2 setlinecap
10.0 ML
N
2293.197 737.873 M
2325.706 771.706 2356.016 807.585 2383.942 845.289 C
2303.584 904.808 L
2278.196 870.532 2250.642 837.915 2221.089 807.157 C
cp
S
GR
GS
N
2403.421 769.529 M
2419.202 756.201 L
2422.421 760.014 L
2401.202 777.951 L
2397.983 774.139 L
2398.312 769.295 2398.96 761.061 QT
2399.608 752.826 2399.655 750.545 QT
2399.765 746.279 2399.194 743.865 QT
2398.624 741.451 2397.249 739.826 QT
2394.999 737.154 2391.718 737.061 QT
2388.437 736.967 2385.452 739.498 QT
2383.327 741.295 2381.577 744.022 QT
2379.827 746.748 2378.405 750.514 QT
2374.562 745.951 L
2376.358 742.561 2378.257 739.99 QT
2380.155 737.42 2382.124 735.764 QT
2387.327 731.373 2392.608 731.358 QT
2397.89 731.342 2401.546 735.686 QT
2403.28 737.748 2404.069 740.248 QT
2404.858 742.748 2404.952 746.983 QT
2404.937 748.092 2404.554 753.725 QT
2404.171 759.358 2403.421 769.529 QT
cp
f
GR
GS
N
2417.258 712.216 M
2413.758 715.169 2414.907 720.091 QT
2416.055 725.013 2421.868 731.904 QT
2427.68 738.779 2432.336 740.724 QT
2436.993 742.669 2440.493 739.716 QT
2443.993 736.747 2442.852 731.841 QT
2441.711 726.935 2435.899 720.06 QT
2430.086 713.169 2425.422 711.208 QT
2420.758 709.247 2417.258 712.216 QT
cp
2414.243 708.638 M
2419.852 703.904 2426.563 705.833 QT
2433.274 707.763 2440.415 716.232 QT
2447.555 724.669 2448.344 731.614 QT
2449.133 738.56 2443.524 743.294 QT
2437.899 748.044 2431.18 746.114 QT
2424.461 744.185 2417.321 735.747 QT
2410.18 727.279 2409.399 720.333 QT
2408.618 713.388 2414.243 708.638 QT
cp
f
GR
GS
0.753 GC
N
2383.942 845.289 M
2405.265 874.078 2425.169 903.891 2443.583 934.623 C
2357.803 986.021 L
2341.063 958.083 2322.969 930.98 2303.584 904.808 C
cp
eofill
GR
GS
2 setlinecap
10.0 ML
N
2383.942 845.289 M
2405.265 874.078 2425.169 903.891 2443.583 934.623 C
2357.803 986.021 L
2341.063 958.083 2322.969 930.98 2303.584 904.808 C
cp
S
GR
GS
N
2479.908 875.884 M
2497.08 864.416 L
2499.845 868.556 L
2476.751 883.978 L
2473.986 879.838 L
2474.845 875.056 2476.423 866.947 QT
2478.001 858.838 2478.298 856.588 QT
2478.892 852.353 2478.603 849.892 QT
2478.314 847.431 2477.126 845.65 QT
2475.189 842.759 2471.939 842.283 QT
2468.689 841.806 2465.423 843.994 QT
2463.111 845.541 2461.072 848.056 QT
2459.033 850.572 2457.205 854.15 QT
2453.892 849.181 L
2456.064 846.009 2458.236 843.681 QT
2460.408 841.353 2462.548 839.916 QT
2468.205 836.15 2473.455 836.72 QT
2478.705 837.291 2481.861 842.025 QT
2483.361 844.259 2483.861 846.838 QT
2484.361 849.416 2483.955 853.634 QT
2483.814 854.744 2482.806 860.291 QT
2481.798 865.838 2479.908 875.884 QT
cp
f
GR
GS
N
2509.784 855.94 M
2517.831 850.565 L
2499.3 822.815 L
2491.722 830.409 L
2488.738 825.925 L
2496.253 818.362 L
2501.191 815.081 L
2522.706 847.315 L
2530.738 841.94 L
2533.503 846.081 L
2512.55 860.081 L
2509.784 855.94 L
cp
f
GR
GS
0.753 GC
N
2443.583 934.623 M
2463.212 967.382 2481.121 1001.141 2497.239 1035.764 C
2406.581 1077.967 L
2391.928 1046.492 2375.647 1015.802 2357.803 986.021 C
cp
eofill
GR
GS
2 setlinecap
10.0 ML
N
2443.583 934.623 M
2463.212 967.382 2481.121 1001.141 2497.239 1035.764 C
2406.581 1077.967 L
2391.928 1046.492 2375.647 1015.802 2357.803 986.021 C
cp
S
GR
GS
N
2537.8 977.767 M
2556.05 968.08 L
2558.378 972.486 L
2533.831 985.502 L
2531.503 981.095 L
2532.847 976.439 2535.229 968.525 QT
2537.612 960.611 2538.144 958.408 QT
2539.159 954.252 2539.112 951.775 QT
2539.065 949.299 2538.065 947.408 QT
2536.44 944.33 2533.253 943.533 QT
2530.065 942.736 2526.597 944.58 QT
2524.144 945.877 2521.862 948.181 QT
2519.581 950.486 2517.394 953.861 QT
2514.597 948.595 L
2517.065 945.642 2519.464 943.541 QT
2521.862 941.439 2524.144 940.236 QT
2530.144 937.049 2535.315 938.158 QT
2540.487 939.267 2543.159 944.283 QT
2544.409 946.658 2544.651 949.275 QT
2544.894 951.892 2544.081 956.033 QT
2543.815 957.127 2542.253 962.549 QT
2540.69 967.97 2537.8 977.767 QT
cp
f
GR
GS
N
2573.135 959.022 M
2591.385 949.334 L
2593.714 953.74 L
2569.167 966.756 L
2566.839 962.35 L
2568.182 957.694 2570.565 949.78 QT
2572.948 941.865 2573.479 939.662 QT
2574.495 935.506 2574.448 933.03 QT
2574.401 930.553 2573.401 928.662 QT
2571.776 925.584 2568.589 924.787 QT
2565.401 923.99 2561.932 925.834 QT
2559.479 927.131 2557.198 929.436 QT
2554.917 931.74 2552.729 935.115 QT
2549.932 929.85 L
2552.401 926.897 2554.8 924.795 QT
2557.198 922.694 2559.479 921.49 QT
2565.479 918.303 2570.651 919.412 QT
2575.823 920.522 2578.495 925.537 QT
2579.745 927.912 2579.987 930.53 QT
2580.229 933.147 2579.417 937.287 QT
2579.151 938.381 2577.589 943.803 QT
2576.026 949.225 2573.135 959.022 QT
cp
f
GR
GS
0.753 GC
N
2497.239 1035.764 M
2546.107 1140.739 2578.094 1252.773 2592.018 1367.725 C
2492.744 1379.75 L
2480.085 1275.248 2451.006 1173.399 2406.581 1077.967 C
cp
eofill
GR
GS
2 setlinecap
10.0 ML
N
2497.239 1035.764 M
2546.107 1140.739 2578.094 1252.773 2592.018 1367.725 C
2492.744 1379.75 L
2480.085 1275.248 2451.006 1173.399 2406.581 1077.967 C
cp
S
GR
GS
N
2605.688 1170.045 M
2611.797 1168.295 L
2626.688 1180.936 L
2632.75 1162.311 L
2638.875 1160.561 L
2631.11 1184.608 L
2651.766 1202.358 L
2645.657 1204.092 L
2628.704 1189.592 L
2621.907 1210.873 L
2615.766 1212.639 L
2624.375 1185.889 L
2605.688 1170.045 L
cp
f
GR
GS
0.753 GC
N
2592.018 1367.725 M
2597.333 1411.604 2599.999 1455.763 2600 1499.963 C
2500 1499.966 L
2499.999 1459.785 2497.575 1419.64 2492.744 1379.75 C
cp
eofill
GR
GS
2 setlinecap
10.0 ML
N
2592.018 1367.725 M
2597.333 1411.604 2599.999 1455.763 2600 1499.963 C
2500 1499.966 L
2499.999 1459.785 2497.575 1419.64 2492.744 1379.75 C
cp
S
GR
GS
N
2646.953 1417.001 M
2653.296 1416.626 L
2666.515 1433.844 L
2677.421 1415.172 L
2683.781 1414.782 L
2669.734 1438.579 L
2670.984 1459.376 L
2665.046 1459.735 L
2663.796 1438.938 L
2646.953 1417.001 L
cp
f
GR
GS
0.753 GC
N
2600 1499.963 M
2600 1499.975 2600 1499.988 2600 1500 C
2500 1500 L
2500 1499.989 2500 1499.978 2500 1499.966 C
cp
eofill
GR
GS
2 setlinecap
10.0 ML
N
2600 1499.963 M
2600 1499.975 2600 1499.988 2600 1500 C
2500 1500 L
2500 1499.989 2500 1499.978 2500 1499.966 C
cp
S
GR
GS
N
2655.891 1486.246 M
2664.704 1486.246 L
2675.875 1516.012 L
2687.094 1486.246 L
2695.907 1486.246 L
2695.907 1529.981 L
2690.141 1529.981 L
2690.141 1491.574 L
2678.86 1521.574 L
2672.907 1521.574 L
2661.625 1491.574 L
2661.625 1529.981 L
2655.891 1529.981 L
2655.891 1486.246 L
cp
f
GR
GS
1 0 0 RC
N
2055.149 2345.015 M
2047.306 2350.031 L
2053.29 2359.39 L
2049.759 2361.656 L
2043.775 2352.296 L
2028.775 2361.89 L
2025.384 2364.062 2025.017 2365.601 QT
2024.65 2367.14 2026.462 2369.968 QT
2029.446 2374.64 L
2025.65 2377.078 L
2022.665 2372.406 L
2019.306 2367.156 2019.985 2363.898 QT
2020.665 2360.64 2025.853 2357.328 QT
2040.853 2347.734 L
2038.728 2344.406 L
2042.259 2342.14 L
2044.384 2345.468 L
2052.228 2340.453 L
2055.149 2345.015 L
cp
f
GR
GS
1 0 0 RC
N
2060.344 2398.369 M
2058.125 2399.776 L
2044.766 2378.901 L
2040.266 2382.198 2039.43 2386.307 QT
2038.594 2390.416 2041.484 2394.932 QT
2043.156 2397.541 2045.375 2399.58 QT
2047.594 2401.619 2050.422 2403.229 QT
2046.125 2405.963 L
2043.531 2404.198 2041.351 2401.971 QT
2039.172 2399.744 2037.469 2397.104 QT
2033.25 2390.494 2034.617 2384.174 QT
2035.984 2377.854 2042.547 2373.651 QT
2049.328 2369.307 2055.664 2370.424 QT
2062 2371.541 2065.984 2377.744 QT
2069.547 2383.323 2068.031 2388.869 QT
2066.516 2394.416 2060.344 2398.369 QT
cp
2058.781 2392.963 M
2062.469 2390.526 2063.391 2387.073 QT
2064.313 2383.619 2062.156 2380.276 QT
2059.719 2376.463 2056.109 2375.549 QT
2052.5 2374.635 2048.391 2376.791 QT
2058.781 2392.963 L
cp
f
GR
GS
1 0 0 RC
N
2094.17 2423.28 M
2074.326 2421.874 L
2066.857 2441.468 L
2063.435 2436.124 L
2069.154 2421.124 L
2053.138 2420.03 L
2049.717 2414.671 L
2071.045 2416.155 L
2077.935 2397.905 L
2081.357 2403.249 L
2076.217 2416.889 L
2090.748 2417.921 L
2094.17 2423.28 L
cp
f
GR
GS
1 0 0 RC
N
2106.356 2425.033 M
2098.512 2430.049 L
2104.496 2439.408 L
2100.965 2441.674 L
2094.981 2432.315 L
2079.981 2441.908 L
2076.59 2444.08 2076.223 2445.619 QT
2075.856 2447.158 2077.668 2449.987 QT
2080.653 2454.658 L
2076.856 2457.096 L
2073.871 2452.424 L
2070.512 2447.174 2071.192 2443.916 QT
2071.871 2440.658 2077.059 2437.346 QT
2092.059 2427.752 L
2089.934 2424.424 L
2093.465 2422.158 L
2095.59 2425.487 L
2103.434 2420.471 L
2106.356 2425.033 L
cp
f
GR
GS
1 0 0 RC
N
2086.519 2490.685 M
2082.987 2492.935 L
2066.19 2466.669 L
2069.722 2464.419 L
2086.519 2490.685 L
cp
f
GR
GS
1 0 0 RC
N
2131.298 2490.625 M
2131.236 2489.579 2130.869 2488.547 QT
2130.501 2487.516 2129.798 2486.422 QT
2127.345 2482.579 2123.525 2482.11 QT
2119.705 2481.641 2115.017 2484.657 QT
2100.455 2493.969 L
2097.533 2489.407 L
2125.173 2471.719 L
2128.095 2476.282 L
2123.798 2479.032 L
2127.22 2478.844 2129.916 2480.36 QT
2132.611 2481.875 2134.72 2485.172 QT
2135.017 2485.625 2135.306 2486.235 QT
2135.595 2486.844 2135.939 2487.61 QT
2131.298 2490.625 L
cp
f
GR
GS
1 0 0 RC
N
2133.039 2514.292 M
2129.524 2508.792 2126.906 2507.48 QT
2124.289 2506.167 2121.258 2508.105 QT
2118.836 2509.652 2118.438 2512.159 QT
2118.039 2514.667 2119.789 2517.402 QT
2122.211 2521.183 2126.344 2521.745 QT
2130.477 2522.308 2134.93 2519.448 QT
2135.93 2518.808 L
2133.039 2514.292 L
cp
2140.711 2522.152 M
2124.946 2532.245 L
2122.039 2527.698 L
2126.242 2525.011 L
2122.742 2525.073 2120.063 2523.519 QT
2117.383 2521.964 2115.227 2518.62 QT
2112.508 2514.37 2113.289 2510.347 QT
2114.071 2506.323 2118.071 2503.777 QT
2122.742 2500.777 2127.102 2502.378 QT
2131.461 2503.98 2135.43 2510.183 QT
2139.492 2516.527 L
2139.93 2516.245 L
2143.071 2514.245 2143.461 2511.097 QT
2143.852 2507.948 2141.477 2504.214 QT
2139.961 2501.855 2137.961 2499.972 QT
2135.961 2498.089 2133.492 2496.714 QT
2137.68 2494.042 L
2140.242 2495.917 2142.227 2497.956 QT
2144.211 2499.995 2145.633 2502.23 QT
2149.477 2508.214 2148.25 2513.167 QT
2147.024 2518.12 2140.711 2522.152 QT
cp
f
GR
GS
1 0 0 RC
N
2167.756 2547.515 M
2182.725 2537.937 L
2185.631 2542.484 L
2147.225 2567.062 L
2144.318 2562.515 L
2148.459 2559.859 L
2145.084 2560 2142.49 2558.578 QT
2139.896 2557.156 2137.943 2554.109 QT
2134.74 2549.094 2136.717 2543.398 QT
2138.693 2537.703 2145.209 2533.531 QT
2151.725 2529.359 2157.74 2529.945 QT
2163.756 2530.531 2166.959 2535.547 QT
2168.912 2538.594 2169.107 2541.547 QT
2169.303 2544.5 2167.756 2547.515 QT
cp
2148.209 2538.203 M
2143.209 2541.406 2141.67 2545.297 QT
2140.131 2549.187 2142.443 2552.797 QT
2144.74 2556.406 2148.928 2556.648 QT
2153.115 2556.89 2158.115 2553.687 QT
2163.131 2550.484 2164.646 2546.586 QT
2166.162 2542.687 2163.865 2539.078 QT
2161.553 2535.469 2157.389 2535.234 QT
2153.225 2535 2148.209 2538.203 QT
cp
f
GR
GS
1 0 0 RC
N
2181.879 2560.332 M
2184.785 2564.864 L
2157.145 2582.551 L
2154.238 2578.02 L
2181.879 2560.332 L
cp
2192.645 2553.442 M
2195.551 2557.973 L
2189.801 2561.66 L
2186.895 2557.129 L
2192.645 2553.442 L
cp
f
GR
GS
1 0 0 RC
N
2193.636 2585.732 M
2191.292 2582.061 2187.081 2581.764 QT
2182.87 2581.467 2177.917 2584.639 QT
2172.948 2587.811 2171.448 2591.748 QT
2169.948 2595.686 2172.308 2599.373 QT
2174.62 2602.982 2178.847 2603.271 QT
2183.073 2603.561 2188.011 2600.404 QT
2192.917 2597.264 2194.433 2593.303 QT
2195.948 2589.342 2193.636 2585.732 QT
cp
2197.495 2583.264 M
2201.277 2589.186 2199.589 2595.021 QT
2197.902 2600.857 2191.089 2605.217 QT
2184.308 2609.561 2178.284 2608.654 QT
2172.261 2607.748 2168.48 2601.826 QT
2164.667 2595.873 2166.37 2590.037 QT
2168.073 2584.201 2174.855 2579.857 QT
2181.667 2575.498 2187.675 2576.404 QT
2193.683 2577.311 2197.495 2583.264 QT
cp
f
GR
GS
1 0 0 RC
N
2188.931 2650.721 M
2185.4 2652.971 L
2168.603 2626.706 L
2172.134 2624.456 L
2188.931 2650.721 L
cp
f
GR
GS
1 0 0 RC
N
2235.133 2652.803 M
2250.101 2643.225 L
2253.008 2647.771 L
2214.601 2672.35 L
2211.695 2667.803 L
2215.836 2665.146 L
2212.461 2665.287 2209.867 2663.865 QT
2207.273 2662.443 2205.32 2659.396 QT
2202.117 2654.381 2204.094 2648.686 QT
2206.07 2642.99 2212.586 2638.818 QT
2219.101 2634.646 2225.117 2635.232 QT
2231.133 2635.818 2234.336 2640.834 QT
2236.289 2643.881 2236.484 2646.834 QT
2236.679 2649.787 2235.133 2652.803 QT
cp
2215.586 2643.49 M
2210.586 2646.693 2209.047 2650.584 QT
2207.508 2654.475 2209.82 2658.084 QT
2212.117 2661.693 2216.304 2661.936 QT
2220.492 2662.178 2225.492 2658.975 QT
2230.508 2655.771 2232.023 2651.873 QT
2233.539 2647.975 2231.242 2644.365 QT
2228.929 2640.756 2224.765 2640.521 QT
2220.601 2640.287 2215.586 2643.49 QT
cp
f
GR
GS
1 0 0 RC
N
2251.693 2697.385 M
2249.474 2698.792 L
2236.115 2677.917 L
2231.615 2681.213 2230.779 2685.323 QT
2229.943 2689.432 2232.833 2693.948 QT
2234.505 2696.557 2236.724 2698.596 QT
2238.943 2700.635 2241.771 2702.245 QT
2237.474 2704.979 L
2234.88 2703.213 2232.701 2700.987 QT
2230.521 2698.76 2228.818 2696.12 QT
2224.599 2689.51 2225.966 2683.19 QT
2227.333 2676.87 2233.896 2672.667 QT
2240.677 2668.323 2247.013 2669.44 QT
2253.349 2670.557 2257.333 2676.76 QT
2260.896 2682.338 2259.38 2687.885 QT
2257.865 2693.432 2251.693 2697.385 QT
cp
2250.13 2691.979 M
2253.818 2689.542 2254.74 2686.088 QT
2255.662 2682.635 2253.505 2679.292 QT
2251.068 2675.479 2247.458 2674.565 QT
2243.849 2673.651 2239.74 2675.807 QT
2250.13 2691.979 L
cp
f
GR
GS
1 0 0 RC
N
2279.269 2724.218 M
2283.425 2723.968 2286.402 2725.405 QT
2289.378 2726.843 2291.425 2730.046 QT
2294.191 2734.374 2292.66 2738.655 QT
2291.128 2742.937 2285.566 2746.499 QT
2268.878 2757.171 L
2265.972 2752.608 L
2282.503 2742.03 L
2286.472 2739.483 2287.496 2736.843 QT
2288.519 2734.202 2286.675 2731.312 QT
2284.41 2727.78 2280.753 2727.241 QT
2277.097 2726.702 2273.066 2729.28 QT
2257.441 2739.28 L
2254.519 2734.718 L
2271.05 2724.14 L
2275.05 2721.577 2276.058 2718.937 QT
2277.066 2716.296 2275.191 2713.374 QT
2272.972 2709.89 2269.308 2709.351 QT
2265.644 2708.812 2261.613 2711.39 QT
2245.988 2721.39 L
2243.066 2716.827 L
2270.707 2699.14 L
2273.628 2703.702 L
2269.332 2706.452 L
2272.878 2706.39 2275.48 2707.788 QT
2278.082 2709.187 2279.988 2712.171 QT
2281.91 2715.171 2281.73 2718.257 QT
2281.55 2721.343 2279.269 2724.218 QT
cp
f
GR
GS
1 0 0 RC
N
2304.134 2758.404 M
2301.79 2754.732 2297.579 2754.435 QT
2293.368 2754.138 2288.415 2757.31 QT
2283.446 2760.482 2281.946 2764.419 QT
2280.446 2768.357 2282.805 2772.044 QT
2285.118 2775.654 2289.344 2775.943 QT
2293.571 2776.232 2298.509 2773.075 QT
2303.415 2769.935 2304.93 2765.974 QT
2306.446 2762.013 2304.134 2758.404 QT
cp
2307.993 2755.935 M
2311.774 2761.857 2310.087 2767.693 QT
2308.399 2773.529 2301.587 2777.888 QT
2294.805 2782.232 2288.782 2781.325 QT
2282.759 2780.419 2278.977 2774.497 QT
2275.165 2768.544 2276.868 2762.708 QT
2278.571 2756.872 2285.352 2752.529 QT
2292.165 2748.169 2298.173 2749.075 QT
2304.18 2749.982 2307.993 2755.935 QT
cp
f
GR
GS
0 0 1 RC
N
2395.172 778.563 M
2400.563 776.047 2402.602 772.406 QT
2404.641 768.766 2402.828 764.891 QT
2401.031 761.016 2396.93 760.227 QT
2392.828 759.438 2387.438 761.953 QT
2382.063 764.453 2380.016 768.102 QT
2377.969 771.75 2379.766 775.625 QT
2381.578 779.5 2385.688 780.281 QT
2389.797 781.063 2395.172 778.563 QT
cp
2397.828 757.109 M
2401.188 757.406 2403.57 759.156 QT
2405.953 760.906 2407.484 764.172 QT
2410 769.594 2407.273 774.992 QT
2404.547 780.391 2397.531 783.656 QT
2390.516 786.922 2384.641 785.531 QT
2378.766 784.141 2376.25 778.719 QT
2374.719 775.453 2374.914 772.5 QT
2375.109 769.547 2377.063 766.781 QT
2372.594 768.859 L
2370.297 763.938 L
2411.625 744.703 L
2413.922 749.625 L
2397.828 757.109 L
cp
2427.792 779.418 M
2430.058 784.309 L
2388.729 803.543 L
2386.464 798.653 L
2427.792 779.418 L
cp
2405.015 807.796 M
2423.015 799.421 L
2425.28 804.296 L
2407.452 812.593 L
2403.233 814.546 2401.897 817.187 QT
2400.562 819.828 2402.077 823.109 QT
2403.937 827.078 2407.522 828.195 QT
2411.108 829.312 2415.452 827.281 QT
2432.327 819.437 L
2434.608 824.328 L
2404.858 838.171 L
2402.577 833.281 L
2407.155 831.156 L
2403.608 830.64 2401.202 828.906 QT
2398.796 827.171 2397.358 824.062 QT
2394.968 818.937 2396.921 814.796 QT
2398.874 810.656 2405.015 807.796 QT
cp
2429.452 811.359 M
2429.452 811.359 L
cp
2437.485 866.193 M
2435.11 867.286 L
2424.641 844.833 L
2419.735 847.505 2418.36 851.466 QT
2416.985 855.427 2419.251 860.271 QT
2420.563 863.099 2422.485 865.411 QT
2424.407 867.724 2427.001 869.693 QT
2422.376 871.849 L
2420.016 869.724 2418.157 867.24 QT
2416.298 864.755 2414.969 861.896 QT
2411.657 854.786 2413.86 848.7 QT
2416.063 842.615 2423.126 839.333 QT
2430.438 835.927 2436.571 837.872 QT
2442.704 839.818 2445.813 846.505 QT
2448.61 852.505 2446.368 857.802 QT
2444.126 863.099 2437.485 866.193 QT
cp
2436.641 860.646 M
2440.626 858.708 2441.993 855.411 QT
2443.36 852.115 2441.673 848.505 QT
2439.766 844.411 2436.321 843.021 QT
2432.876 841.63 2428.516 843.224 QT
2436.641 860.646 L
cp
2426.611 908.517 M
2422.814 910.283 L
2409.658 882.017 L
2413.455 880.252 L
2426.611 908.517 L
cp
2476.334 916.996 M
2471.772 919.121 L
2471.975 916.527 2471.569 914.175 QT
2471.162 911.824 2470.162 909.699 QT
2467.959 904.949 2463.725 903.714 QT
2459.49 902.48 2454.037 905.027 QT
2448.6 907.558 2446.811 911.597 QT
2445.022 915.636 2447.225 920.386 QT
2448.225 922.511 2449.764 924.324 QT
2451.303 926.136 2453.397 927.683 QT
2448.881 929.777 L
2446.99 928.183 2445.49 926.206 QT
2443.99 924.23 2442.834 921.777 QT
2439.709 915.058 2442.084 909.128 QT
2444.459 903.199 2451.631 899.871 QT
2458.912 896.48 2464.944 898.527 QT
2470.975 900.574 2474.225 907.558 QT
2475.272 909.808 2475.811 912.175 QT
2476.35 914.542 2476.334 916.996 QT
cp
2481.459 924.964 M
2483.725 929.855 L
2453.975 943.699 L
2451.709 938.808 L
2481.459 924.964 L
cp
2493.037 919.574 M
2495.303 924.464 L
2489.115 927.339 L
2486.85 922.449 L
2493.037 919.574 L
cp
2491.948 959.436 M
2492.041 958.405 2491.815 957.327 QT
2491.588 956.249 2491.041 955.061 QT
2489.119 950.936 2485.393 949.975 QT
2481.666 949.014 2476.619 951.358 QT
2460.948 958.655 L
2458.651 953.733 L
2488.401 939.889 L
2490.698 944.811 L
2486.073 946.952 L
2489.479 947.233 2491.955 949.085 QT
2494.432 950.936 2496.073 954.483 QT
2496.307 954.983 2496.518 955.624 QT
2496.729 956.264 2496.963 957.077 QT
2491.948 959.436 L
cp
2507.702 984.377 M
2503.139 986.502 L
2503.343 983.909 2502.936 981.557 QT
2502.53 979.206 2501.53 977.081 QT
2499.327 972.331 2495.093 971.096 QT
2490.858 969.862 2485.405 972.409 QT
2479.968 974.94 2478.178 978.979 QT
2476.389 983.018 2478.593 987.768 QT
2479.593 989.893 2481.132 991.706 QT
2482.671 993.518 2484.764 995.065 QT
2480.249 997.159 L
2478.358 995.565 2476.858 993.588 QT
2475.358 991.612 2474.202 989.159 QT
2471.077 982.44 2473.452 976.51 QT
2475.827 970.581 2482.999 967.252 QT
2490.28 963.862 2496.311 965.909 QT
2502.343 967.956 2505.593 974.94 QT
2506.639 977.19 2507.178 979.557 QT
2507.718 981.924 2507.702 984.377 QT
cp
2494.593 1000.221 M
2512.593 991.846 L
2514.858 996.721 L
2497.03 1005.018 L
2492.811 1006.971 2491.475 1009.612 QT
2490.139 1012.252 2491.655 1015.534 QT
2493.514 1019.502 2497.1 1020.62 QT
2500.686 1021.737 2505.03 1019.706 QT
2521.905 1011.862 L
2524.186 1016.752 L
2494.436 1030.596 L
2492.155 1025.706 L
2496.733 1023.581 L
2493.186 1023.065 2490.78 1021.331 QT
2488.374 1019.596 2486.936 1016.487 QT
2484.546 1011.362 2486.499 1007.221 QT
2488.452 1003.081 2494.593 1000.221 QT
cp
2519.03 1003.784 M
2519.03 1003.784 L
cp
2533.938 1052.633 M
2538.079 1052.93 2540.836 1054.75 QT
2543.594 1056.571 2545.204 1060.024 QT
2547.375 1064.664 2545.29 1068.703 QT
2543.204 1072.743 2537.219 1075.539 QT
2519.25 1083.899 L
2516.969 1078.993 L
2534.766 1070.711 L
2539.032 1068.711 2540.399 1066.235 QT
2541.766 1063.758 2540.329 1060.649 QT
2538.563 1056.852 2535 1055.821 QT
2531.438 1054.789 2527.094 1056.821 QT
2510.282 1064.649 L
2508 1059.727 L
2525.797 1051.446 L
2530.094 1049.446 2531.454 1046.969 QT
2532.813 1044.493 2531.329 1041.336 QT
2529.594 1037.602 2526.04 1036.578 QT
2522.485 1035.555 2518.141 1037.571 QT
2501.329 1045.399 L
2499.032 1040.477 L
2528.782 1026.633 L
2531.079 1031.555 L
2526.454 1033.696 L
2529.969 1034.102 2532.36 1035.828 QT
2534.75 1037.555 2536.25 1040.774 QT
2537.75 1044.008 2537.157 1047.055 QT
2536.563 1050.102 2533.938 1052.633 QT
cp
2572.12 1089.479 M
2568.058 1091.37 L
2565.886 1086.698 L
2564.667 1084.057 2563.128 1083.534 QT
2561.589 1083.01 2558.823 1084.292 QT
2556.198 1085.526 L
2559.948 1093.557 L
2556.151 1095.323 L
2552.401 1087.292 L
2526.448 1099.37 L
2524.151 1094.448 L
2550.104 1082.37 L
2547.933 1077.698 L
2551.729 1075.932 L
2553.901 1080.604 L
2555.964 1079.635 L
2560.933 1077.323 2564.284 1078.573 QT
2567.636 1079.823 2569.979 1084.854 QT
2572.12 1089.479 L
cp
2560.644 1130.754 M
2558.269 1131.847 L
2547.8 1109.394 L
2542.894 1112.066 2541.519 1116.027 QT
2540.144 1119.988 2542.409 1124.832 QT
2543.722 1127.66 2545.644 1129.972 QT
2547.566 1132.285 2550.159 1134.254 QT
2545.534 1136.41 L
2543.175 1134.285 2541.316 1131.801 QT
2539.456 1129.316 2538.128 1126.457 QT
2534.816 1119.347 2537.019 1113.261 QT
2539.222 1107.176 2546.284 1103.894 QT
2553.597 1100.488 2559.73 1102.433 QT
2565.863 1104.379 2568.972 1111.066 QT
2571.769 1117.066 2569.527 1122.363 QT
2567.284 1127.66 2560.644 1130.754 QT
cp
2559.8 1125.207 M
2563.784 1123.269 2565.152 1119.972 QT
2566.519 1116.676 2564.831 1113.066 QT
2562.925 1108.972 2559.48 1107.582 QT
2556.034 1106.191 2551.675 1107.785 QT
2559.8 1125.207 L
cp
2581.488 1151.781 M
2581.582 1150.75 2581.355 1149.672 QT
2581.129 1148.594 2580.582 1147.406 QT
2578.66 1143.281 2574.934 1142.32 QT
2571.207 1141.359 2566.16 1143.703 QT
2550.488 1151 L
2548.191 1146.078 L
2577.941 1132.234 L
2580.238 1137.156 L
2575.613 1139.297 L
2579.02 1139.578 2581.496 1141.43 QT
2583.973 1143.281 2585.613 1146.828 QT
2585.848 1147.328 2586.059 1147.969 QT
2586.27 1148.609 2586.504 1149.422 QT
2581.488 1151.781 L
cp
2586.633 1186.582 M
2584.258 1187.676 L
2573.79 1165.223 L
2568.883 1167.895 2567.508 1171.855 QT
2566.133 1175.816 2568.399 1180.66 QT
2569.711 1183.488 2571.633 1185.801 QT
2573.555 1188.113 2576.149 1190.082 QT
2571.524 1192.238 L
2569.165 1190.113 2567.305 1187.629 QT
2565.446 1185.145 2564.118 1182.285 QT
2560.805 1175.176 2563.008 1169.09 QT
2565.211 1163.004 2572.274 1159.723 QT
2579.586 1156.316 2585.719 1158.262 QT
2591.852 1160.207 2594.961 1166.895 QT
2597.758 1172.895 2595.516 1178.191 QT
2593.274 1183.488 2586.633 1186.582 QT
cp
2585.79 1181.035 M
2589.774 1179.098 2591.141 1175.801 QT
2592.508 1172.504 2590.821 1168.895 QT
2588.915 1164.801 2585.469 1163.41 QT
2582.024 1162.02 2577.665 1163.613 QT
2585.79 1181.035 L
cp
2603.759 1218.469 M
2585.79 1226.829 L
2583.509 1221.938 L
2601.306 1213.657 L
2605.524 1211.688 2606.86 1209.063 QT
2608.196 1206.438 2606.665 1203.157 QT
2604.821 1199.188 2601.228 1198.079 QT
2597.634 1196.969 2593.29 1199 QT
2576.478 1206.829 L
2574.181 1201.907 L
2603.931 1188.063 L
2606.228 1192.985 L
2601.603 1195.125 L
2605.103 1195.625 2607.532 1197.383 QT
2609.962 1199.141 2611.415 1202.25 QT
2613.806 1207.375 2611.86 1211.485 QT
2609.915 1215.594 2603.759 1218.469 QT
cp
2628.87 1244.662 M
2624.307 1246.787 L
2624.51 1244.194 2624.104 1241.842 QT
2623.698 1239.49 2622.698 1237.365 QT
2620.495 1232.615 2616.26 1231.381 QT
2612.026 1230.147 2606.573 1232.694 QT
2601.135 1235.225 2599.346 1239.264 QT
2597.557 1243.303 2599.76 1248.053 QT
2600.76 1250.178 2602.3 1251.99 QT
2603.839 1253.803 2605.932 1255.35 QT
2601.417 1257.444 L
2599.526 1255.85 2598.026 1253.873 QT
2596.526 1251.897 2595.37 1249.444 QT
2592.245 1242.725 2594.62 1236.795 QT
2596.995 1230.865 2604.167 1227.537 QT
2611.448 1224.147 2617.479 1226.194 QT
2623.51 1228.24 2626.76 1235.225 QT
2627.807 1237.475 2628.346 1239.842 QT
2628.885 1242.209 2628.87 1244.662 QT
cp
2632.183 1284.428 M
2629.808 1285.522 L
2619.339 1263.069 L
2614.433 1265.74 2613.058 1269.701 QT
2611.683 1273.662 2613.948 1278.506 QT
2615.261 1281.334 2617.183 1283.647 QT
2619.104 1285.959 2621.698 1287.928 QT
2617.073 1290.084 L
2614.714 1287.959 2612.854 1285.475 QT
2610.995 1282.99 2609.667 1280.131 QT
2606.354 1273.022 2608.558 1266.936 QT
2610.761 1260.85 2617.823 1257.569 QT
2625.136 1254.162 2631.269 1256.108 QT
2637.401 1258.053 2640.511 1264.74 QT
2643.308 1270.74 2641.065 1276.037 QT
2638.823 1281.334 2632.183 1284.428 QT
cp
2631.339 1278.881 M
2635.323 1276.944 2636.69 1273.647 QT
2638.058 1270.35 2636.37 1266.74 QT
2634.464 1262.647 2631.019 1261.256 QT
2627.573 1259.865 2623.214 1261.459 QT
2631.339 1278.881 L
cp
f
GR
GS
0 1 0 RC
N
959.234 2535.531 M
960.5 2529.797 958.844 2526.125 QT
957.188 2522.453 952.938 2521.5 QT
948.703 2520.563 945.633 2523.188 QT
942.563 2525.813 941.297 2531.547 QT
940.031 2537.234 941.703 2540.898 QT
943.375 2544.563 947.609 2545.5 QT
951.859 2546.453 954.914 2543.836 QT
957.969 2541.219 959.234 2535.531 QT
cp
961.75 2549.094 M
959.922 2557.281 955.414 2560.469 QT
950.906 2563.656 943.391 2561.984 QT
940.625 2561.375 938.258 2560.406 QT
935.891 2559.438 933.766 2558.078 QT
934.891 2552.969 L
936.938 2554.734 939.063 2555.836 QT
941.188 2556.938 943.547 2557.453 QT
948.719 2558.609 951.891 2556.469 QT
955.063 2554.328 956.266 2548.875 QT
956.844 2546.281 L
954.594 2548.734 951.734 2549.578 QT
948.875 2550.422 945.344 2549.625 QT
939.438 2548.313 936.836 2543.023 QT
934.234 2537.734 935.875 2530.344 QT
937.531 2522.891 942.125 2519.195 QT
946.719 2515.5 952.625 2516.813 QT
956.156 2517.609 958.398 2519.578 QT
960.641 2521.547 961.625 2524.734 QT
962.703 2519.875 L
967.969 2521.047 L
961.75 2549.094 L
cp
996.279 2532.476 M
995.513 2531.788 994.521 2531.312 QT
993.529 2530.835 992.263 2530.554 QT
987.81 2529.57 984.771 2531.937 QT
981.732 2534.304 980.529 2539.741 QT
976.779 2556.616 L
971.498 2555.445 L
978.607 2523.413 L
983.888 2524.585 L
982.795 2529.554 L
985.092 2527.007 988.068 2526.179 QT
991.045 2525.351 994.857 2526.195 QT
995.388 2526.32 996.029 2526.538 QT
996.67 2526.757 997.435 2527.085 QT
996.279 2532.476 L
cp
1027.01 2549.59 M
1026.447 2552.152 L
1002.244 2546.777 L
1001.385 2552.308 1003.69 2555.801 QT
1005.994 2559.293 1011.229 2560.465 QT
1014.26 2561.136 1017.268 2561.019 QT
1020.275 2560.902 1023.416 2560.043 QT
1022.307 2565.027 L
1019.197 2565.59 1016.08 2565.558 QT
1012.963 2565.527 1009.9 2564.84 QT
1002.244 2563.136 998.76 2557.683 QT
995.275 2552.23 996.963 2544.621 QT
998.713 2536.761 1003.986 2533.082 QT
1009.26 2529.402 1016.447 2530.996 QT
1022.916 2532.433 1025.76 2537.433 QT
1028.604 2542.433 1027.01 2549.59 QT
cp
1022.088 2546.855 M
1022.994 2542.527 1021.205 2539.433 QT
1019.416 2536.34 1015.525 2535.48 QT
1011.119 2534.496 1007.924 2536.394 QT
1004.729 2538.293 1003.322 2542.715 QT
1022.088 2546.855 L
cp
1063.036 2557.593 M
1062.473 2560.155 L
1038.27 2554.78 L
1037.411 2560.311 1039.715 2563.803 QT
1042.02 2567.296 1047.255 2568.468 QT
1050.286 2569.139 1053.294 2569.022 QT
1056.301 2568.905 1059.442 2568.046 QT
1058.333 2573.03 L
1055.223 2573.593 1052.106 2573.561 QT
1048.989 2573.53 1045.926 2572.843 QT
1038.27 2571.139 1034.786 2565.686 QT
1031.301 2560.233 1032.989 2552.624 QT
1034.739 2544.764 1040.012 2541.085 QT
1045.286 2537.405 1052.473 2538.999 QT
1058.942 2540.436 1061.786 2545.436 QT
1064.63 2550.436 1063.036 2557.593 QT
cp
1058.114 2554.858 M
1059.02 2550.53 1057.231 2547.436 QT
1055.442 2544.343 1051.551 2543.483 QT
1047.145 2542.499 1043.95 2544.397 QT
1040.755 2546.296 1039.348 2550.718 QT
1058.114 2554.858 L
cp
1098.749 2563.408 M
1094.452 2582.752 L
1089.187 2581.58 L
1093.437 2562.424 L
1094.452 2557.877 1093.179 2555.22 QT
1091.906 2552.564 1088.359 2551.767 QT
1084.093 2550.83 1081.031 2553.01 QT
1077.968 2555.189 1076.921 2559.861 QT
1072.906 2577.97 L
1067.624 2576.799 L
1074.734 2544.767 L
1080.015 2545.939 L
1078.921 2550.908 L
1081.452 2548.455 1084.327 2547.58 QT
1087.202 2546.705 1090.531 2547.455 QT
1096.062 2548.674 1098.14 2552.728 QT
1100.218 2556.783 1098.749 2563.408 QT
cp
1127.112 2600.23 M
1126.206 2604.309 L
1095.768 2597.543 L
1096.674 2593.465 L
1127.112 2600.23 L
cp
1164.093 2565.906 M
1162.999 2570.813 L
1161.062 2569.094 1158.953 2567.985 QT
1156.843 2566.875 1154.546 2566.36 QT
1149.421 2565.219 1145.874 2567.836 QT
1142.328 2570.453 1141.015 2576.328 QT
1139.718 2582.188 1141.828 2586.063 QT
1143.937 2589.938 1149.062 2591.078 QT
1151.359 2591.594 1153.734 2591.477 QT
1156.109 2591.36 1158.609 2590.61 QT
1157.531 2595.469 L
1155.109 2596.016 1152.624 2596.008 QT
1150.14 2596 1147.484 2595.406 QT
1140.265 2593.797 1137.015 2588.305 QT
1133.765 2582.813 1135.468 2575.094 QT
1137.218 2567.25 1142.515 2563.711 QT
1147.812 2560.172 1155.312 2561.844 QT
1157.734 2562.375 1159.945 2563.399 QT
1162.156 2564.422 1164.093 2565.906 QT
cp
1173.507 2566.715 M
1178.772 2567.871 L
1171.663 2599.902 L
1166.397 2598.746 L
1173.507 2566.715 L
cp
1176.288 2554.23 M
1181.553 2555.386 L
1180.069 2562.058 L
1174.803 2560.902 L
1176.288 2554.23 L
cp
1207.26 2579.344 M
1206.494 2578.657 1205.502 2578.18 QT
1204.51 2577.704 1203.244 2577.422 QT
1198.791 2576.438 1195.752 2578.805 QT
1192.713 2581.172 1191.51 2586.61 QT
1187.76 2603.485 L
1182.479 2602.313 L
1189.588 2570.282 L
1194.869 2571.454 L
1193.775 2576.422 L
1196.072 2573.875 1199.049 2573.047 QT
1202.025 2572.219 1205.838 2573.063 QT
1206.369 2573.188 1207.01 2573.407 QT
1207.65 2573.625 1208.416 2573.954 QT
1207.26 2579.344 L
cp
1236.631 2582.021 M
1235.537 2586.927 L
1233.6 2585.208 1231.491 2584.099 QT
1229.381 2582.989 1227.084 2582.474 QT
1221.959 2581.333 1218.412 2583.95 QT
1214.866 2586.567 1213.553 2592.442 QT
1212.256 2598.302 1214.366 2602.177 QT
1216.475 2606.052 1221.6 2607.192 QT
1223.897 2607.708 1226.272 2607.591 QT
1228.647 2607.474 1231.147 2606.724 QT
1230.069 2611.583 L
1227.647 2612.13 1225.162 2612.122 QT
1222.678 2612.114 1220.022 2611.521 QT
1212.803 2609.911 1209.553 2604.419 QT
1206.303 2598.927 1208.006 2591.208 QT
1209.756 2583.364 1215.053 2579.825 QT
1220.35 2576.286 1227.85 2577.958 QT
1230.272 2578.489 1232.483 2579.513 QT
1234.694 2580.536 1236.631 2582.021 QT
cp
1241.201 2602.094 M
1245.498 2582.704 L
1250.763 2583.875 L
1246.513 2603.063 L
1245.498 2607.61 1246.763 2610.274 QT
1248.029 2612.938 1251.576 2613.719 QT
1255.841 2614.672 1258.927 2612.5 QT
1262.013 2610.329 1263.045 2605.657 QT
1267.076 2587.485 L
1272.326 2588.657 L
1265.216 2620.688 L
1259.966 2619.516 L
1261.06 2614.594 L
1258.482 2617.094 1255.638 2617.946 QT
1252.795 2618.797 1249.451 2618.063 QT
1243.92 2616.829 1241.826 2612.758 QT
1239.732 2608.688 1241.201 2602.094 QT
cp
1258.92 2584.86 M
1258.92 2584.86 L
cp
1306.735 2602.745 M
1309.485 2599.651 1312.61 2598.565 QT
1315.735 2597.479 1319.454 2598.307 QT
1324.454 2599.417 1326.399 2603.526 QT
1328.345 2607.635 1326.907 2614.089 QT
1322.61 2633.432 L
1317.329 2632.26 L
1321.579 2613.104 L
1322.61 2608.495 1321.47 2605.901 QT
1320.329 2603.307 1316.97 2602.557 QT
1312.891 2601.651 1309.915 2603.854 QT
1306.938 2606.057 1305.891 2610.729 QT
1301.876 2628.839 L
1296.579 2627.651 L
1300.829 2608.495 L
1301.86 2603.854 1300.72 2601.276 QT
1299.579 2598.698 1296.188 2597.948 QT
1292.157 2597.042 1289.181 2599.253 QT
1286.204 2601.464 1285.157 2606.12 QT
1281.141 2624.229 L
1275.86 2623.057 L
1282.97 2591.026 L
1288.251 2592.198 L
1287.157 2597.167 L
1289.626 2594.635 1292.446 2593.784 QT
1295.266 2592.932 1298.72 2593.698 QT
1302.204 2594.479 1304.259 2596.8 QT
1306.313 2599.12 1306.735 2602.745 QT
cp
1359.198 2594.854 M
1358.229 2599.244 L
1353.198 2598.119 L
1350.354 2597.494 1349.003 2598.393 QT
1347.651 2599.291 1346.995 2602.26 QT
1346.354 2605.104 L
1355.011 2607.026 L
1354.104 2611.119 L
1345.448 2609.198 L
1339.245 2637.135 L
1333.948 2635.963 L
1340.151 2608.026 L
1335.12 2606.901 L
1336.026 2602.807 L
1341.058 2603.932 L
1341.558 2601.698 L
1342.745 2596.354 1345.776 2594.448 QT
1348.808 2592.541 1354.229 2593.744 QT
1359.198 2594.854 L
cp
1384.954 2629.105 M
1384.391 2631.668 L
1360.188 2626.293 L
1359.329 2631.824 1361.633 2635.316 QT
1363.938 2638.808 1369.172 2639.98 QT
1372.204 2640.652 1375.212 2640.535 QT
1378.219 2640.418 1381.36 2639.558 QT
1380.251 2644.543 L
1377.141 2645.105 1374.024 2645.074 QT
1370.907 2645.043 1367.844 2644.355 QT
1360.188 2642.652 1356.704 2637.199 QT
1353.219 2631.746 1354.907 2624.136 QT
1356.657 2616.277 1361.93 2612.597 QT
1367.204 2608.918 1374.391 2610.511 QT
1380.86 2611.949 1383.704 2616.949 QT
1386.547 2621.949 1384.954 2629.105 QT
cp
1380.032 2626.371 M
1380.938 2622.043 1379.149 2618.949 QT
1377.36 2615.855 1373.469 2614.996 QT
1369.063 2614.011 1365.868 2615.91 QT
1362.672 2617.808 1361.266 2622.23 QT
1380.032 2626.371 L
cp
1414.323 2625.343 M
1413.558 2624.655 1412.566 2624.179 QT
1411.573 2623.702 1410.308 2623.421 QT
1405.855 2622.437 1402.816 2624.804 QT
1399.777 2627.171 1398.573 2632.608 QT
1394.823 2649.483 L
1389.542 2648.312 L
1396.652 2616.28 L
1401.933 2617.452 L
1400.839 2622.421 L
1403.136 2619.874 1406.113 2619.046 QT
1409.089 2618.218 1412.902 2619.062 QT
1413.433 2619.187 1414.073 2619.405 QT
1414.714 2619.624 1415.48 2619.952 QT
1414.323 2625.343 L
cp
1445.054 2642.456 M
1444.492 2645.019 L
1420.289 2639.644 L
1419.429 2645.175 1421.734 2648.667 QT
1424.039 2652.159 1429.273 2653.331 QT
1432.304 2654.003 1435.312 2653.886 QT
1438.32 2653.769 1441.46 2652.909 QT
1440.351 2657.894 L
1437.242 2658.456 1434.125 2658.425 QT
1431.007 2658.394 1427.945 2657.706 QT
1420.289 2656.003 1416.804 2650.55 QT
1413.32 2645.097 1415.007 2637.488 QT
1416.757 2629.628 1422.031 2625.948 QT
1427.304 2622.269 1434.492 2623.863 QT
1440.96 2625.3 1443.804 2630.3 QT
1446.648 2635.3 1445.054 2642.456 QT
cp
1440.132 2639.722 M
1441.039 2635.394 1439.25 2632.3 QT
1437.46 2629.206 1433.57 2628.347 QT
1429.164 2627.363 1425.968 2629.261 QT
1422.773 2631.159 1421.367 2635.581 QT
1440.132 2639.722 L
cp
1480.768 2648.272 M
1476.471 2667.616 L
1471.205 2666.444 L
1475.455 2647.288 L
1476.471 2642.741 1475.198 2640.084 QT
1473.924 2637.428 1470.377 2636.631 QT
1466.112 2635.694 1463.049 2637.874 QT
1459.987 2640.053 1458.94 2644.725 QT
1454.924 2662.834 L
1449.643 2661.663 L
1456.752 2629.631 L
1462.033 2630.803 L
1460.94 2635.772 L
1463.471 2633.319 1466.346 2632.444 QT
1469.221 2631.569 1472.549 2632.319 QT
1478.08 2633.538 1480.158 2637.592 QT
1482.237 2641.647 1480.768 2648.272 QT
cp
1516.833 2644.266 M
1515.74 2649.172 L
1513.802 2647.454 1511.693 2646.344 QT
1509.583 2645.235 1507.286 2644.719 QT
1502.161 2643.579 1498.615 2646.196 QT
1495.068 2648.813 1493.755 2654.688 QT
1492.458 2660.547 1494.568 2664.422 QT
1496.677 2668.297 1501.802 2669.438 QT
1504.099 2669.954 1506.474 2669.836 QT
1508.849 2669.719 1511.349 2668.969 QT
1510.271 2673.829 L
1507.849 2674.375 1505.365 2674.368 QT
1502.88 2674.36 1500.224 2673.766 QT
1493.005 2672.157 1489.755 2666.665 QT
1486.505 2661.172 1488.208 2653.454 QT
1489.958 2645.61 1495.255 2642.071 QT
1500.552 2638.532 1508.052 2640.204 QT
1510.474 2640.735 1512.685 2641.758 QT
1514.896 2642.782 1516.833 2644.266 QT
cp
1550.387 2665.856 M
1549.825 2668.418 L
1525.622 2663.043 L
1524.762 2668.574 1527.067 2672.067 QT
1529.372 2675.559 1534.606 2676.731 QT
1537.637 2677.403 1540.645 2677.285 QT
1543.653 2677.168 1546.794 2676.309 QT
1545.684 2681.293 L
1542.575 2681.856 1539.458 2681.824 QT
1536.341 2681.793 1533.278 2681.106 QT
1525.622 2679.403 1522.137 2673.949 QT
1518.653 2668.496 1520.341 2660.887 QT
1522.091 2653.028 1527.364 2649.348 QT
1532.637 2645.668 1539.825 2647.262 QT
1546.294 2648.699 1549.137 2653.699 QT
1551.981 2658.699 1550.387 2665.856 QT
cp
1545.466 2663.121 M
1546.372 2658.793 1544.583 2655.699 QT
1542.794 2652.606 1538.903 2651.746 QT
1534.497 2650.762 1531.302 2652.66 QT
1528.106 2654.559 1526.7 2658.981 QT
1545.466 2663.121 L
cp
f
GR
GS
0 0.196 0.196 RC
N
912.386 1678.515 M
915.261 1687.375 L
925.84 1683.937 L
927.136 1687.921 L
916.558 1691.359 L
922.074 1708.296 L
923.308 1712.109 924.722 1712.859 QT
926.136 1713.609 929.324 1712.562 QT
934.605 1710.843 L
935.996 1715.14 L
930.715 1716.859 L
924.793 1718.796 921.816 1717.32 QT
918.84 1715.843 916.933 1709.984 QT
911.418 1693.046 L
907.652 1694.265 L
906.355 1690.281 L
910.121 1689.062 L
907.246 1680.203 L
912.386 1678.515 L
cp
f
GR
GS
0 0.196 0.196 RC
N
907.61 1689.879 M
901.266 1708.739 L
918.36 1720.879 L
912.313 1722.848 L
899.25 1713.567 L
894.157 1728.77 L
888.11 1730.739 L
894.907 1710.457 L
878.969 1699.192 L
885.016 1697.223 L
896.922 1705.645 L
901.563 1691.832 L
907.61 1689.879 L
cp
f
GR
GS
0 0.196 0.196 RC
N
874.98 1716.339 M
875.793 1718.839 L
852.23 1726.51 L
854.293 1731.698 858.051 1733.542 QT
861.809 1735.385 866.902 1733.729 QT
869.855 1732.76 872.395 1731.135 QT
874.934 1729.51 877.199 1727.167 QT
878.777 1732.01 L
876.387 1734.073 873.691 1735.628 QT
870.996 1737.182 868.012 1738.151 QT
860.559 1740.589 854.785 1737.659 QT
849.012 1734.729 846.59 1727.339 QT
844.105 1719.667 846.77 1713.823 QT
849.434 1707.979 856.449 1705.698 QT
862.746 1703.651 867.73 1706.51 QT
872.715 1709.37 874.98 1716.339 QT
cp
869.371 1716.495 M
867.934 1712.307 864.824 1710.55 QT
861.715 1708.792 857.934 1710.026 QT
853.637 1711.417 851.848 1714.675 QT
850.059 1717.932 851.09 1722.479 QT
869.371 1716.495 L
cp
f
GR
GS
0 0.196 0.196 RC
N
822.052 1707.921 M
824.927 1716.78 L
835.505 1713.343 L
836.802 1717.327 L
826.224 1720.764 L
831.74 1737.702 L
832.974 1741.514 834.388 1742.264 QT
835.802 1743.014 838.99 1741.968 QT
844.271 1740.249 L
845.661 1744.546 L
840.38 1746.264 L
834.458 1748.202 831.482 1746.725 QT
828.505 1745.249 826.599 1739.389 QT
821.083 1722.452 L
817.318 1723.671 L
816.021 1719.686 L
819.786 1718.468 L
816.911 1709.608 L
822.052 1707.921 L
cp
f
GR
GS
0 0.196 0.196 RC
N
828.291 1760.691 M
829.588 1764.66 L
799.932 1774.316 L
798.635 1770.347 L
828.291 1760.691 L
cp
f
GR
GS
0 0.196 0.196 RC
N
766.568 1739.76 M
762.443 1741.104 761.099 1745.104 QT
759.755 1749.104 761.583 1754.697 QT
763.396 1760.307 766.818 1762.752 QT
770.24 1765.197 774.396 1763.838 QT
778.49 1762.51 779.841 1758.494 QT
781.193 1754.479 779.38 1748.9 QT
777.568 1743.369 774.115 1740.9 QT
770.662 1738.432 766.568 1739.76 QT
cp
765.146 1735.416 M
771.833 1733.244 777.06 1736.346 QT
782.287 1739.447 784.802 1747.135 QT
787.287 1754.791 784.896 1760.393 QT
782.505 1765.994 775.818 1768.166 QT
769.099 1770.354 763.88 1767.229 QT
758.662 1764.104 756.177 1756.447 QT
753.662 1748.76 756.044 1743.182 QT
758.427 1737.604 765.146 1735.416 QT
cp
f
GR
GS
0 0.196 0.196 RC
N
739.039 1744.746 M
744.164 1743.075 L
754.32 1774.278 L
749.195 1775.95 L
739.039 1744.746 L
cp
735.086 1732.59 M
740.211 1730.918 L
742.32 1737.418 L
737.195 1739.09 L
735.086 1732.59 L
cp
f
GR
GS
0 0.196 0.196 RC
N
723.081 1755.175 M
717.581 1738.284 L
722.706 1736.612 L
736.816 1779.972 L
731.691 1781.643 L
730.16 1776.956 L
729.456 1780.268 727.433 1782.425 QT
725.41 1784.581 721.956 1785.69 QT
716.3 1787.534 711.285 1784.182 QT
706.269 1780.831 703.878 1773.472 QT
701.472 1766.128 703.55 1760.456 QT
705.628 1754.784 711.285 1752.94 QT
714.738 1751.831 717.652 1752.378 QT
720.566 1752.925 723.081 1755.175 QT
cp
709.16 1771.753 M
710.988 1777.409 714.371 1779.87 QT
717.753 1782.331 721.816 1781.003 QT
725.894 1779.69 727.175 1775.706 QT
728.456 1771.722 726.628 1766.065 QT
724.785 1760.409 721.402 1757.956 QT
718.019 1755.503 713.941 1756.815 QT
709.878 1758.143 708.597 1762.12 QT
707.316 1766.097 709.16 1771.753 QT
cp
f
GR
GS
0 0.196 0.196 RC
N
682.187 1780.415 M
675.983 1782.431 674.062 1784.634 QT
672.14 1786.837 673.249 1790.259 QT
674.14 1792.993 676.46 1794.009 QT
678.78 1795.025 681.874 1794.009 QT
686.14 1792.634 687.726 1788.767 QT
689.312 1784.9 687.671 1779.884 QT
687.296 1778.743 L
682.187 1780.415 L
cp
691.733 1774.978 M
697.53 1792.775 L
692.405 1794.431 L
690.858 1789.697 L
690.015 1793.103 687.851 1795.306 QT
685.687 1797.509 681.89 1798.743 QT
677.093 1800.306 673.397 1798.532 QT
669.702 1796.759 668.233 1792.259 QT
666.515 1786.978 669.163 1783.165 QT
671.812 1779.353 678.812 1777.072 QT
685.999 1774.728 L
685.827 1774.243 L
684.671 1770.681 681.718 1769.509 QT
678.765 1768.337 674.562 1769.712 QT
671.89 1770.587 669.562 1772.048 QT
667.233 1773.509 665.296 1775.556 QT
663.765 1770.822 L
666.233 1768.806 668.694 1767.407 QT
671.155 1766.009 673.671 1765.197 QT
680.437 1762.993 684.929 1765.415 QT
689.421 1767.837 691.733 1774.978 QT
cp
f
GR
GS
0 0.196 0.196 RC
N
658.836 1776.138 M
657.805 1775.935 656.719 1776.036 QT
655.633 1776.138 654.399 1776.529 QT
650.055 1777.95 648.649 1781.529 QT
647.242 1785.107 648.977 1790.404 QT
654.321 1806.841 L
649.164 1808.513 L
639.008 1777.31 L
644.164 1775.638 L
645.742 1780.482 L
646.43 1777.122 648.563 1774.896 QT
650.696 1772.669 654.414 1771.466 QT
654.93 1771.294 655.594 1771.154 QT
656.258 1771.013 657.102 1770.904 QT
658.836 1776.138 L
cp
f
GR
%%Trailer
%%Pages: 1
%%EOF
