%!PS-Adobe-3.0 EPSF-3.0
%%Creator: (Apache XML Graphics Commons: EPS Generator for Java2D)
%%CreationDate: 2015-01-08T21:37:48
%%Pages: (atend)
%%BoundingBox: 0 0 3315 3775
%%LanguageLevel: 3
%%EndComments
%%BeginProlog
%%BeginResource: procset (Apache XML Graphics Std ProcSet) 1.2 0
%%Version: 1.2 0
%%Copyright: (Copyright 2001-2003,2010 The Apache Software Foundation. License terms: http://www.apache.org/licenses/LICENSE-2.0)
%%Title: (Basic set of procedures used by the XML Graphics project \(Batik and FOP\))
/bd{bind def}bind def
/ld{load def}bd
/GR/grestore ld
/M/moveto ld
/LJ/setlinejoin ld
/C/curveto ld
/f/fill ld
/LW/setlinewidth ld
/GC/setgray ld
/t/show ld
/N/newpath ld
/CT/concat ld
/cp/closepath ld
/S/stroke ld
/L/lineto ld
/CC/setcmykcolor ld
/A/ashow ld
/GS/gsave ld
/RC/setrgbcolor ld
/RM/rmoveto ld
/ML/setmiterlimit ld
/re {4 2 roll M
1 index 0 rlineto
0 exch rlineto
neg 0 rlineto
cp } bd
/_ctm matrix def
/_tm matrix def
/BT { _ctm currentmatrix pop matrix _tm copy pop 0 0 moveto } bd
/ET { _ctm setmatrix } bd
/iTm { _ctm setmatrix _tm concat } bd
/Tm { _tm astore pop iTm 0 0 moveto } bd
/ux 0.0 def
/uy 0.0 def
/F {
  /Tp exch def
  /Tf exch def
  Tf findfont Tp scalefont setfont
  /cf Tf def  /cs Tp def
} bd
/ULS {currentpoint /uy exch def /ux exch def} bd
/ULE {
  /Tcx currentpoint pop def
  gsave
  newpath
  cf findfont cs scalefont dup
  /FontMatrix get 0 get /Ts exch def /FontInfo get dup
  /UnderlinePosition get Ts mul /To exch def
  /UnderlineThickness get Ts mul /Tt exch def
  ux uy To add moveto  Tcx uy To add lineto
  Tt setlinewidth stroke
  grestore
} bd
/OLE {
  /Tcx currentpoint pop def
  gsave
  newpath
  cf findfont cs scalefont dup
  /FontMatrix get 0 get /Ts exch def /FontInfo get dup
  /UnderlinePosition get Ts mul /To exch def
  /UnderlineThickness get Ts mul /Tt exch def
  ux uy To add cs add moveto Tcx uy To add cs add lineto
  Tt setlinewidth stroke
  grestore
} bd
/SOE {
  /Tcx currentpoint pop def
  gsave
  newpath
  cf findfont cs scalefont dup
  /FontMatrix get 0 get /Ts exch def /FontInfo get dup
  /UnderlinePosition get Ts mul /To exch def
  /UnderlineThickness get Ts mul /Tt exch def
  ux uy To add cs 10 mul 26 idiv add moveto Tcx uy To add cs 10 mul 26 idiv add lineto
  Tt setlinewidth stroke
  grestore
} bd
/QT {
/Y22 exch store
/X22 exch store
/Y21 exch store
/X21 exch store
currentpoint
/Y21 load 2 mul add 3 div exch
/X21 load 2 mul add 3 div exch
/X21 load 2 mul /X22 load add 3 div
/Y21 load 2 mul /Y22 load add 3 div
/X22 load /Y22 load curveto
} bd
/SSPD {
dup length /d exch dict def
{
/v exch def
/k exch def
currentpagedevice k known {
/cpdv currentpagedevice k get def
v cpdv ne {
/upd false def
/nullv v type /nulltype eq def
/nullcpdv cpdv type /nulltype eq def
nullv nullcpdv or
{
/upd true def
} {
/sametype v type cpdv type eq def
sametype {
v type /arraytype eq {
/vlen v length def
/cpdvlen cpdv length def
vlen cpdvlen eq {
0 1 vlen 1 sub {
/i exch def
/obj v i get def
/cpdobj cpdv i get def
obj cpdobj ne {
/upd true def
exit
} if
} for
} {
/upd true def
} ifelse
} {
v type /dicttype eq {
v {
/dv exch def
/dk exch def
/cpddv cpdv dk get def
dv cpddv ne {
/upd true def
exit
} if
} forall
} {
/upd true def
} ifelse
} ifelse
} if
} ifelse
upd true eq {
d k v put
} if
} if
} if
} forall
d length 0 gt {
d setpagedevice
} if
} bd
%%EndResource
%%BeginResource: procset (Apache XML Graphics EPS ProcSet) 1.0 0
%%Version: 1.0 0
%%Copyright: (Copyright 2002-2003 The Apache Software Foundation. License terms: http://www.apache.org/licenses/LICENSE-2.0)
%%Title: (EPS procedures used by the Apache XML Graphics project \(Batik and FOP\))
/BeginEPSF { %def
/b4_Inc_state save def         % Save state for cleanup
/dict_count countdictstack def % Count objects on dict stack
/op_count count 1 sub def      % Count objects on operand stack
userdict begin                 % Push userdict on dict stack
/showpage { } def              % Redefine showpage, { } = null proc
0 setgray 0 setlinecap         % Prepare graphics state
1 setlinewidth 0 setlinejoin
10 setmiterlimit [ ] 0 setdash newpath
/languagelevel where           % If level not equal to 1 then
{pop languagelevel             % set strokeadjust and
1 ne                           % overprint to their defaults.
{false setstrokeadjust false setoverprint
} if
} if
} bd
/EndEPSF { %def
count op_count sub {pop} repeat            % Clean up stacks
countdictstack dict_count sub {end} repeat
b4_Inc_state restore
} bd
%%EndResource
%%EndProlog
%%Page: 1 1
%%PageBoundingBox: 0 0 3315 3775
%%BeginPageSetup
[1 0 0 -1 0 3775] CT
%%EndPageSetup
GS
0.753 GC
N
2600 1500 M
2600 1686.489 2552.587 1869.917 2462.217 2033.047 C
2374.742 1984.588 L
2456.897 1836.288 2500 1669.536 2500 1500 C
cp
eofill
GR
GS
2 setlinecap
10.0 ML
N
2600 1500 M
2600 1686.489 2552.587 1869.917 2462.217 2033.047 C
2374.742 1984.588 L
2456.897 1836.288 2500 1669.536 2500 1500 C
cp
S
GR
GS
N
2614.352 1813.872 M
2623.711 1816.294 L
2632.055 1783.997 L
2621.352 1783.419 L
2622.711 1778.201 L
2633.336 1778.763 L
2639.071 1780.247 L
2629.383 1817.763 L
2638.758 1820.185 L
2637.508 1825.013 L
2613.102 1818.701 L
2614.352 1813.872 L
cp
f
GR
GS
0.753 GC
N
2462.217 2033.047 M
2374.063 2192.176 2247.82 2326.957 2094.793 2425.322 C
2040.721 2341.202 L
2179.836 2251.779 2294.603 2129.251 2374.742 1984.588 C
cp
eofill
GR
GS
2 setlinecap
10.0 ML
N
2462.217 2033.047 M
2374.063 2192.176 2247.82 2326.957 2094.793 2425.322 C
2040.721 2341.202 L
2179.836 2251.779 2294.603 2129.251 2374.742 1984.588 C
cp
S
GR
GS
N
2330.629 2312.281 M
2345.707 2326.406 L
2342.301 2330.047 L
2322.019 2311.047 L
2325.426 2307.406 L
2330.285 2307.172 2338.543 2306.86 QT
2346.801 2306.547 2349.051 2306.328 QT
2353.316 2305.938 2355.644 2305.102 QT
2357.972 2304.266 2359.441 2302.703 QT
2361.816 2300.156 2361.527 2296.883 QT
2361.238 2293.61 2358.379 2290.922 QT
2356.347 2289.031 2353.433 2287.617 QT
2350.519 2286.203 2346.613 2285.219 QT
2350.691 2280.875 L
2354.285 2282.281 2357.051 2283.86 QT
2359.816 2285.438 2361.691 2287.203 QT
2366.66 2291.844 2367.293 2297.086 QT
2367.926 2302.328 2364.035 2306.485 QT
2362.207 2308.453 2359.808 2309.524 QT
2357.41 2310.594 2353.222 2311.172 QT
2352.113 2311.297 2346.465 2311.563 QT
2340.816 2311.828 2330.629 2312.281 QT
cp
f
GR
GS
0.753 GC
N
2094.793 2425.322 M
1970.406 2505.277 1831.176 2559.333 1685.425 2584.259 C
1668.568 2485.69 L
1801.069 2463.03 1927.642 2413.889 2040.721 2341.202 C
cp
eofill
GR
GS
2 setlinecap
10.0 ML
N
2094.793 2425.322 M
1970.406 2505.277 1831.176 2559.333 1685.425 2584.259 C
1668.568 2485.69 L
1801.069 2463.03 1927.642 2413.889 2040.721 2341.202 C
cp
S
GR
GS
N
1919.047 2597.051 M
1919.735 2601.348 1917.93 2604.614 QT
1916.126 2607.879 1912.188 2609.395 QT
1906.141 2611.754 1901.235 2608.887 QT
1896.329 2606.02 1893.36 2598.364 QT
1892.36 2595.786 1891.805 2592.879 QT
1891.251 2589.973 1891.126 2586.692 QT
1896.454 2584.614 L
1896.016 2587.411 1896.391 2590.411 QT
1896.766 2593.411 1897.907 2596.379 QT
1899.938 2601.583 1903.047 2603.504 QT
1906.157 2605.426 1910.063 2603.911 QT
1913.657 2602.52 1914.712 2599.2 QT
1915.766 2595.879 1914.016 2591.379 QT
1912.172 2586.614 L
1916.704 2584.848 L
1918.641 2589.833 L
1920.219 2593.895 1922.68 2595.418 QT
1925.141 2596.942 1928.204 2595.754 QT
1931.344 2594.536 1932.149 2591.668 QT
1932.954 2588.801 1931.344 2584.645 QT
1930.469 2582.379 1928.977 2579.973 QT
1927.485 2577.567 1925.235 2574.848 QT
1930.141 2572.942 L
1932.251 2575.754 1933.751 2578.325 QT
1935.251 2580.895 1936.188 2583.333 QT
1938.626 2589.629 1937.188 2594.387 QT
1935.751 2599.145 1930.891 2601.036 QT
1927.516 2602.348 1924.422 2601.317 QT
1921.329 2600.286 1919.047 2597.051 QT
cp
f
GR
GS
0.753 GC
N
1685.425 2584.259 M
1544.761 2608.315 1400.76 2604.77 1261.45 2573.822 C
1283.137 2476.202 L
1409.782 2504.336 1540.692 2507.559 1668.568 2485.69 C
cp
eofill
GR
GS
2 setlinecap
10.0 ML
N
1685.425 2584.259 M
1544.761 2608.315 1400.76 2604.77 1261.45 2573.822 C
1283.137 2476.202 L
1409.782 2504.336 1540.692 2507.559 1668.568 2485.69 C
cp
S
GR
GS
N
1462.706 2666.753 M
1485.659 2682.269 L
1486.034 2667.331 L
1462.706 2666.753 L
cp
1457.503 2668.175 M
1457.69 2660.753 L
1486.174 2661.456 L
1486.331 2655.206 L
1491.253 2655.331 L
1491.096 2661.581 L
1501.409 2661.831 L
1501.268 2667.706 L
1490.956 2667.456 L
1490.471 2687.19 L
1484.753 2687.05 L
1457.503 2668.175 L
cp
f
GR
GS
0.753 GC
N
1261.45 2573.822 M
1129.646 2544.542 1004.358 2491.246 891.852 2416.6 C
947.138 2333.273 L
1049.416 2401.133 1163.314 2449.583 1283.137 2476.202 C
cp
eofill
GR
GS
2 setlinecap
10.0 ML
N
1261.45 2573.822 M
1129.646 2544.542 1004.358 2491.246 891.852 2416.6 C
947.138 2333.273 L
1049.416 2401.133 1163.314 2449.583 1283.137 2476.202 C
cp
S
GR
GS
N
1024.072 2583.707 M
1033.166 2562.332 L
1037.744 2564.285 L
1030.775 2580.675 L
1040.65 2584.878 L
1040.728 2583.488 1041.041 2582.222 QT
1041.353 2580.957 1041.853 2579.769 QT
1044.728 2573.019 1050.095 2570.66 QT
1055.462 2568.3 1061.775 2570.972 QT
1068.275 2573.738 1070.15 2579.316 QT
1072.025 2584.894 1068.884 2592.253 QT
1067.806 2594.785 1066.251 2597.238 QT
1064.697 2599.691 1062.65 2602.128 QT
1057.197 2599.8 L
1059.541 2597.925 1061.291 2595.621 QT
1063.041 2593.316 1064.275 2590.425 QT
1066.244 2585.769 1064.947 2581.996 QT
1063.65 2578.222 1059.462 2576.425 QT
1055.244 2574.644 1051.626 2576.324 QT
1048.009 2578.003 1046.041 2582.66 QT
1045.103 2584.847 1044.673 2587.23 QT
1044.244 2589.613 1044.291 2592.316 QT
1024.072 2583.707 L
cp
f
GR
GS
0.753 GC
N
891.852 2416.6 M
785.471 2346.018 692.189 2257.457 616.184 2154.881 C
696.531 2095.346 L
765.627 2188.597 850.428 2269.107 947.138 2333.273 C
cp
eofill
GR
GS
2 setlinecap
10.0 ML
N
891.852 2416.6 M
785.471 2346.018 692.189 2257.457 616.184 2154.881 C
696.531 2095.346 L
765.627 2188.597 850.428 2269.107 947.138 2333.273 C
cp
S
GR
GS
N
698.479 2352.601 M
695.729 2355.491 696.104 2359.062 QT
696.479 2362.632 699.932 2365.913 QT
703.354 2369.163 706.94 2369.351 QT
710.526 2369.538 713.276 2366.648 QT
716.026 2363.773 715.643 2360.195 QT
715.26 2356.616 711.839 2353.366 QT
708.385 2350.085 704.807 2349.906 QT
701.229 2349.726 698.479 2352.601 QT
cp
693.104 2331.335 M
697.026 2335.038 L
694.729 2335.929 692.768 2337.195 QT
690.807 2338.46 689.276 2340.07 QT
685.245 2344.32 685.971 2349.288 QT
686.698 2354.257 692.214 2360.07 QT
691.573 2357.07 692.37 2354.241 QT
693.167 2351.413 695.323 2349.132 QT
699.87 2344.351 705.393 2344.335 QT
710.917 2344.32 715.917 2349.07 QT
720.792 2353.695 721.003 2359.39 QT
721.214 2365.085 716.667 2369.866 QT
711.432 2375.382 704.464 2374.296 QT
697.495 2373.21 689.479 2365.601 QT
681.948 2358.46 680.862 2350.648 QT
679.776 2342.835 685.495 2336.82 QT
687.026 2335.21 688.909 2333.859 QT
690.792 2332.507 693.104 2331.335 QT
cp
f
GR
GS
0.753 GC
N
616.184 2154.881 M
545.522 2059.517 490.76 1953.346 454.022 1840.485 C
549.111 1809.532 L
582.509 1912.133 632.293 2008.652 696.531 2095.346 C
cp
eofill
GR
GS
2 setlinecap
10.0 ML
N
616.184 2154.881 M
545.522 2059.517 490.76 1953.346 454.022 1840.485 C
549.111 1809.532 L
582.509 1912.133 632.293 2008.652 696.531 2095.346 C
cp
S
GR
GS
N
440.475 2031.038 M
465.475 2018.147 L
466.631 2020.397 L
471.412 2064.288 L
465.912 2067.132 L
461.412 2025.835 L
442.756 2035.46 L
440.475 2031.038 L
cp
f
GR
GS
0.753 GC
N
454.022 1840.485 M
420.244 1736.718 402.095 1628.503 400.171 1519.395 C
500.156 1517.631 L
501.905 1616.821 518.404 1715.198 549.111 1809.532 C
cp
eofill
GR
GS
2 setlinecap
10.0 ML
N
454.022 1840.485 M
420.244 1736.718 402.095 1628.503 400.171 1519.395 C
500.156 1517.631 L
501.905 1616.821 518.404 1715.198 549.111 1809.532 C
cp
S
GR
GS
N
346.728 1702.775 M
342.572 1703.479 340.556 1706.096 QT
338.54 1708.713 339.197 1712.619 QT
339.853 1716.525 342.611 1718.346 QT
345.369 1720.166 349.525 1719.463 QT
353.681 1718.76 355.705 1716.127 QT
357.728 1713.494 357.087 1709.619 QT
356.431 1705.713 353.673 1703.893 QT
350.915 1702.072 346.728 1702.775 QT
cp
340.462 1701.275 M
336.556 1700.963 334.033 1698.752 QT
331.509 1696.541 330.9 1692.838 QT
330.025 1687.666 333.205 1684.041 QT
336.384 1680.416 342.806 1679.338 QT
349.244 1678.26 353.415 1680.65 QT
357.587 1683.041 358.462 1688.213 QT
359.072 1691.916 357.408 1694.83 QT
355.744 1697.744 352.165 1699.307 QT
356.556 1699.588 359.392 1702.049 QT
362.228 1704.51 362.931 1708.635 QT
363.978 1714.9 360.712 1718.893 QT
357.447 1722.885 350.306 1724.088 QT
343.181 1725.291 338.783 1722.58 QT
334.384 1719.869 333.337 1713.604 QT
332.634 1709.479 334.525 1706.221 QT
336.415 1702.963 340.462 1701.275 QT
cp
336.79 1692.416 M
337.353 1695.775 339.767 1697.291 QT
342.181 1698.807 345.962 1698.166 QT
349.712 1697.541 351.525 1695.314 QT
353.337 1693.088 352.775 1689.729 QT
352.212 1686.385 349.767 1684.861 QT
347.322 1683.338 343.572 1683.963 QT
339.79 1684.604 338.009 1686.838 QT
336.228 1689.072 336.79 1692.416 QT
cp
f
GR
GS
0.753 GC
N
400.171 1519.395 M
398.315 1414.139 411.578 1309.161 439.554 1207.675 C
535.958 1234.25 L
510.525 1326.51 498.468 1421.944 500.156 1517.631 C
cp
eofill
GR
GS
2 setlinecap
10.0 ML
N
400.171 1519.395 M
398.315 1414.139 411.578 1309.161 439.554 1207.675 C
535.958 1234.25 L
510.525 1326.51 498.468 1421.944 500.156 1517.631 C
cp
S
GR
GS
N
322.281 1380.525 M
322.969 1375.182 L
325.031 1376.51 327.226 1377.346 QT
329.422 1378.182 331.609 1378.463 QT
337.422 1379.197 340.976 1375.674 QT
344.531 1372.15 345.984 1364.228 QT
344 1366.541 341.234 1367.541 QT
338.469 1368.541 335.328 1368.135 QT
328.812 1367.322 325.523 1362.9 QT
322.234 1358.478 323.094 1351.65 QT
323.937 1344.963 328.398 1341.424 QT
332.859 1337.885 339.437 1338.713 QT
346.953 1339.666 350.195 1345.939 QT
353.437 1352.213 352.047 1363.197 QT
350.75 1373.463 345.109 1378.971 QT
339.469 1384.478 331.234 1383.432 QT
329.031 1383.15 326.812 1382.432 QT
324.594 1381.713 322.281 1380.525 QT
cp
336.297 1363.603 M
340.25 1364.103 342.898 1361.697 QT
345.547 1359.291 346.141 1354.572 QT
346.734 1349.9 344.773 1346.885 QT
342.812 1343.869 338.859 1343.369 QT
334.906 1342.869 332.25 1345.299 QT
329.594 1347.728 329 1352.4 QT
328.406 1357.119 330.375 1360.111 QT
332.344 1363.103 336.297 1363.603 QT
cp
f
GR
GS
0.753 GC
N
439.554 1207.675 M
466.401 1110.282 506.538 1017.052 558.831 930.614 C
644.391 982.377 L
596.852 1060.957 560.365 1145.711 535.958 1234.25 C
cp
eofill
GR
GS
2 setlinecap
10.0 ML
N
439.554 1207.675 M
466.401 1110.282 506.538 1017.052 558.831 930.614 C
644.391 982.377 L
596.852 1060.957 560.365 1145.711 535.958 1234.25 C
cp
S
GR
GS
N
428.388 1027.957 M
424.185 1026.144 420.302 1029.371 QT
416.419 1032.597 412.841 1040.879 QT
409.294 1049.144 409.623 1054.176 QT
409.951 1059.207 414.154 1061.019 QT
418.388 1062.832 422.279 1059.613 QT
426.169 1056.394 429.716 1048.129 QT
433.294 1039.847 432.958 1034.808 QT
432.623 1029.769 428.388 1027.957 QT
cp
430.248 1023.644 M
436.998 1026.551 438.271 1033.426 QT
439.544 1040.301 435.154 1050.472 QT
430.794 1060.613 424.927 1064.426 QT
419.06 1068.238 412.31 1065.332 QT
405.56 1062.426 404.287 1055.543 QT
403.013 1048.66 407.373 1038.519 QT
411.763 1028.347 417.63 1024.543 QT
423.498 1020.738 430.248 1023.644 QT
cp
f
GR
GS
N
367.179 1039.546 M
376.07 1043.374 L
389.258 1012.734 L
378.773 1010.515 L
380.898 1005.562 L
391.336 1007.749 L
396.773 1010.093 L
381.445 1045.687 L
390.336 1049.515 L
388.367 1054.093 L
365.211 1044.124 L
367.179 1039.546 L
cp
f
GR
GS
0.753 GC
N
558.831 930.614 M
610.919 844.514 674.576 765.969 748.02 697.177 C
816.381 770.161 L
749.614 832.699 691.745 904.104 644.391 982.377 C
cp
eofill
GR
GS
2 setlinecap
10.0 ML
N
558.831 930.614 M
610.919 844.514 674.576 765.969 748.02 697.177 C
816.381 770.161 L
749.614 832.699 691.745 904.104 644.391 982.377 C
cp
S
GR
GS
N
565.529 774.858 M
573.045 780.936 L
594.045 755.03 L
584.545 750.045 L
587.936 745.858 L
597.389 750.795 L
601.982 754.53 L
577.592 784.639 L
585.107 790.717 L
581.967 794.592 L
562.389 778.733 L
565.529 774.858 L
cp
f
GR
GS
N
534.453 749.672 M
541.969 755.751 L
562.969 729.844 L
553.469 724.86 L
556.86 720.672 L
566.313 725.61 L
570.907 729.344 L
546.516 759.454 L
554.032 765.532 L
550.891 769.407 L
531.313 753.547 L
534.453 749.672 L
cp
f
GR
GS
0.753 GC
N
748.02 697.177 M
820.833 628.974 902.587 570.994 991.032 524.832 C
1037.302 613.484 L
956.897 655.45 882.576 708.158 816.381 770.161 C
cp
eofill
GR
GS
2 setlinecap
10.0 ML
N
748.02 697.177 M
820.833 628.974 902.587 570.994 991.032 524.832 C
1037.302 613.484 L
956.897 655.45 882.576 708.158 816.381 770.161 C
cp
S
GR
GS
N
797.848 553.182 M
809.801 570.041 L
805.739 572.932 L
789.676 550.26 L
793.739 547.369 L
798.536 548.104 806.692 549.447 QT
814.848 550.791 817.083 551.041 QT
821.348 551.51 823.801 551.151 QT
826.255 550.791 827.989 549.541 QT
830.833 547.526 831.215 544.268 QT
831.598 541.01 829.333 537.807 QT
827.723 535.541 825.145 533.572 QT
822.567 531.604 818.926 529.885 QT
823.801 526.432 L
827.036 528.51 829.434 530.611 QT
831.833 532.713 833.317 534.822 QT
837.255 540.369 836.817 545.635 QT
836.38 550.901 831.739 554.197 QT
829.551 555.744 826.989 556.315 QT
824.426 556.885 820.223 556.635 QT
819.098 556.51 813.52 555.651 QT
807.942 554.791 797.848 553.182 QT
cp
f
GR
GS
N
772.349 517.226 M
777.943 525.117 L
805.162 505.82 L
797.365 498.476 L
801.756 495.351 L
809.521 502.663 L
812.943 507.492 L
781.334 529.898 L
786.928 537.788 L
782.865 540.679 L
768.287 520.117 L
772.349 517.226 L
cp
f
GR
GS
0.753 GC
N
991.032 524.832 M
1067.102 485.129 1147.557 454.464 1230.754 433.46 C
1255.231 530.419 L
1179.597 549.512 1106.456 577.39 1037.302 613.484 C
cp
eofill
GR
GS
2 setlinecap
10.0 ML
N
991.032 524.832 M
1067.102 485.129 1147.557 454.464 1230.754 433.46 C
1255.231 530.419 L
1179.597 549.512 1106.456 577.39 1037.302 613.484 C
cp
S
GR
GS
N
1078.836 413.08 M
1079.508 417.361 1077.68 420.619 QT
1075.852 423.877 1071.914 425.377 QT
1065.852 427.689 1060.961 424.783 QT
1056.07 421.877 1053.149 414.221 QT
1052.164 411.627 1051.625 408.721 QT
1051.086 405.814 1050.977 402.533 QT
1056.32 400.502 L
1055.867 403.283 1056.227 406.291 QT
1056.586 409.299 1057.711 412.283 QT
1059.711 417.486 1062.797 419.432 QT
1065.883 421.377 1069.805 419.877 QT
1073.399 418.502 1074.484 415.182 QT
1075.57 411.861 1073.852 407.361 QT
1072.024 402.58 L
1076.57 400.861 L
1078.477 405.861 L
1080.039 409.924 1082.484 411.463 QT
1084.93 413.002 1087.992 411.83 QT
1091.149 410.627 1091.977 407.768 QT
1092.805 404.908 1091.227 400.752 QT
1090.352 398.471 1088.867 396.049 QT
1087.383 393.627 1085.164 390.908 QT
1090.086 389.033 L
1092.164 391.846 1093.649 394.424 QT
1095.133 397.002 1096.07 399.439 QT
1098.461 405.752 1097 410.51 QT
1095.539 415.268 1090.664 417.127 QT
1087.274 418.408 1084.195 417.361 QT
1081.117 416.314 1078.836 413.08 QT
cp
f
GR
GS
N
1041.199 366.516 M
1044.636 375.547 L
1075.808 363.672 L
1070.089 354.594 L
1075.121 352.672 L
1080.824 361.688 L
1082.933 367.234 L
1046.73 381.031 L
1050.168 390.063 L
1045.511 391.844 L
1036.543 368.297 L
1041.199 366.516 L
cp
f
GR
GS
0.753 GC
N
1230.754 433.46 M
1308.291 413.886 1387.731 402.826 1467.666 400.475 C
1470.605 500.432 L
1397.937 502.569 1325.719 512.624 1255.231 530.419 C
cp
eofill
GR
GS
2 setlinecap
10.0 ML
N
1230.754 433.46 M
1308.291 413.886 1387.731 402.826 1467.666 400.475 C
1470.605 500.432 L
1397.937 502.569 1325.719 512.624 1255.231 530.419 C
cp
S
GR
GS
N
1347.514 342.647 M
1322.343 331.068 L
1324.405 345.865 L
1347.514 342.647 L
cp
1352.405 340.397 M
1353.436 347.772 L
1325.218 351.709 L
1326.077 357.897 L
1321.202 358.568 L
1320.343 352.381 L
1310.124 353.803 L
1309.311 347.959 L
1319.53 346.537 L
1316.811 326.99 L
1322.468 326.209 L
1352.405 340.397 L
cp
f
GR
GS
N
1306.639 292.56 M
1307.967 302.154 L
1341.014 297.56 L
1337.467 287.419 L
1342.811 286.685 L
1346.327 296.747 L
1347.155 302.607 L
1308.78 307.951 L
1310.108 317.529 L
1305.17 318.216 L
1301.702 293.247 L
1306.639 292.56 L
cp
f
GR
GS
0.753 GC
N
1467.666 400.475 M
1544.006 398.23 1620.373 403.942 1695.53 417.518 C
1677.754 515.925 L
1609.43 503.584 1540.006 498.391 1470.605 500.432 C
cp
eofill
GR
GS
2 setlinecap
10.0 ML
N
1467.666 400.475 M
1544.006 398.23 1620.373 403.942 1695.53 417.518 C
1677.754 515.925 L
1609.43 503.584 1540.006 498.391 1470.605 500.432 C
cp
S
GR
GS
N
1611.265 347.644 M
1612 338.003 L
1578.734 335.519 L
1580.031 346.159 L
1574.656 345.753 L
1573.343 335.175 L
1573.797 329.269 L
1612.437 332.159 L
1613.156 322.519 L
1618.125 322.894 L
1616.234 348.019 L
1611.265 347.644 L
cp
f
GR
GS
N
1575.545 305.833 M
1577.28 282.661 L
1582.233 283.036 L
1580.905 300.802 L
1591.608 301.599 L
1591.249 300.271 1591.124 298.974 QT
1590.999 297.677 1591.092 296.396 QT
1591.639 289.083 1595.967 285.114 QT
1600.295 281.146 1607.139 281.661 QT
1614.17 282.193 1617.741 286.864 QT
1621.311 291.536 1620.717 299.521 QT
1620.514 302.255 1619.834 305.075 QT
1619.155 307.896 1617.983 310.864 QT
1612.061 310.427 L
1613.702 307.896 1614.616 305.138 QT
1615.53 302.38 1615.764 299.255 QT
1616.139 294.208 1613.694 291.06 QT
1611.249 287.911 1606.702 287.568 QT
1602.124 287.224 1599.249 289.982 QT
1596.374 292.739 1595.999 297.786 QT
1595.811 300.146 1596.17 302.544 QT
1596.53 304.943 1597.452 307.474 QT
1575.545 305.833 L
cp
f
GR
GS
0.753 GC
N
1695.53 417.518 M
1761.748 429.479 1826.729 447.491 1889.656 471.327 C
1854.232 564.843 L
1797.026 543.173 1737.953 526.799 1677.754 515.925 C
cp
eofill
GR
GS
2 setlinecap
10.0 ML
N
1695.53 417.518 M
1761.748 429.479 1826.729 447.491 1889.656 471.327 C
1854.232 564.843 L
1797.026 543.173 1737.953 526.799 1677.754 515.925 C
cp
S
GR
GS
N
1833.28 391.299 M
1835.858 381.987 L
1803.702 373.081 L
1802.936 383.768 L
1797.749 382.315 L
1798.499 371.69 L
1800.093 365.971 L
1837.436 376.331 L
1840.015 367.018 L
1844.811 368.346 L
1838.077 392.627 L
1833.28 391.299 L
cp
f
GR
GS
N
1828.715 335.69 M
1827.652 339.534 1829.66 342.51 QT
1831.668 345.487 1836.246 346.753 QT
1840.793 348.018 1844.051 346.495 QT
1847.309 344.971 1848.371 341.128 QT
1849.434 337.284 1847.418 334.315 QT
1845.402 331.346 1840.855 330.081 QT
1836.277 328.815 1833.027 330.331 QT
1829.777 331.846 1828.715 335.69 QT
cp
1813.98 319.425 M
1819.168 320.862 L
1817.559 322.721 1816.426 324.768 QT
1815.293 326.815 1814.699 328.94 QT
1813.137 334.596 1816.121 338.628 QT
1819.105 342.659 1826.684 345.221 QT
1824.699 342.862 1824.074 340.003 QT
1823.449 337.143 1824.293 334.112 QT
1826.043 327.753 1830.926 325.135 QT
1835.809 322.518 1842.449 324.362 QT
1848.934 326.159 1851.793 331.081 QT
1854.652 336.003 1852.887 342.378 QT
1850.855 349.69 1844.184 352.018 QT
1837.512 354.346 1826.871 351.393 QT
1816.871 348.612 1812.246 342.229 QT
1807.621 335.846 1809.84 327.846 QT
1810.434 325.706 1811.457 323.635 QT
1812.48 321.565 1813.98 319.425 QT
cp
f
GR
GS
0.753 GC
N
1889.656 471.327 M
1946.195 492.744 2000.873 518.786 2053.133 549.188 C
2002.848 635.625 L
1955.339 607.987 1905.632 584.313 1854.232 564.843 C
cp
eofill
GR
GS
2 setlinecap
10.0 ML
N
1889.656 471.327 M
1946.195 492.744 2000.873 518.786 2053.133 549.188 C
2002.848 635.625 L
1955.339 607.987 1905.632 584.313 1854.232 564.843 C
cp
S
GR
GS
N
2020.287 465.787 M
2024.443 457.053 L
1994.318 442.709 L
1991.693 453.115 L
1986.834 450.787 L
1989.428 440.443 L
1991.975 435.099 L
2026.959 451.771 L
2031.115 443.037 L
2035.615 445.178 L
2024.787 467.928 L
2020.287 465.787 L
cp
f
GR
GS
N
2001.409 415.283 M
2013.503 389.893 L
2015.768 390.986 L
2046.175 423.033 L
2043.503 428.611 L
2014.925 398.455 L
2005.893 417.424 L
2001.409 415.283 L
cp
f
GR
GS
0.753 GC
N
2053.133 549.188 M
2103.385 578.422 2151.239 611.593 2196.248 648.39 C
2132.952 725.809 L
2092.036 692.357 2048.531 662.201 2002.848 635.625 C
cp
eofill
GR
GS
2 setlinecap
10.0 ML
N
2053.133 549.188 M
2103.385 578.422 2151.239 611.593 2196.248 648.39 C
2132.952 725.809 L
2092.036 692.357 2048.531 662.201 2002.848 635.625 C
cp
S
GR
GS
N
2179.937 562.997 M
2185.453 555.044 L
2158.031 536.044 L
2153.765 545.888 L
2149.344 542.81 L
2153.578 533.013 L
2156.937 528.153 L
2188.781 550.232 L
2194.297 542.278 L
2198.39 545.122 L
2184.031 565.841 L
2179.937 562.997 L
cp
f
GR
GS
N
2196.397 511.576 M
2193.99 515.029 2194.451 518.302 QT
2194.912 521.576 2198.162 523.826 QT
2201.428 526.091 2204.662 525.38 QT
2207.897 524.67 2210.303 521.216 QT
2212.694 517.748 2212.217 514.459 QT
2211.74 511.17 2208.506 508.92 QT
2205.256 506.67 2202.037 507.373 QT
2198.819 508.076 2196.397 511.576 QT
cp
2190.944 514.998 M
2187.99 517.591 2184.647 517.857 QT
2181.303 518.123 2178.209 515.982 QT
2173.897 512.998 2173.522 508.185 QT
2173.147 503.373 2176.865 498.029 QT
2180.584 492.654 2185.201 491.341 QT
2189.819 490.029 2194.131 493.013 QT
2197.225 495.154 2198.147 498.373 QT
2199.069 501.591 2197.694 505.248 QT
2200.944 502.295 2204.686 501.982 QT
2208.428 501.67 2211.865 504.06 QT
2217.1 507.685 2217.678 512.81 QT
2218.256 517.935 2214.147 523.888 QT
2210.022 529.826 2205.022 531.076 QT
2200.022 532.326 2194.787 528.701 QT
2191.35 526.31 2190.334 522.693 QT
2189.319 519.076 2190.944 514.998 QT
cp
2182.006 511.451 M
2184.803 513.388 2187.576 512.732 QT
2190.35 512.076 2192.553 508.92 QT
2194.709 505.795 2194.373 502.935 QT
2194.037 500.076 2191.24 498.138 QT
2188.459 496.201 2185.662 496.888 QT
2182.865 497.576 2180.709 500.701 QT
2178.506 503.857 2178.865 506.685 QT
2179.225 509.513 2182.006 511.451 QT
cp
f
GR
GS
0.753 GC
N
2196.248 648.39 M
2230.325 676.251 2262.7 706.132 2293.197 737.873 C
2221.089 807.157 L
2193.364 778.302 2163.932 751.137 2132.952 725.809 C
cp
eofill
GR
GS
2 setlinecap
10.0 ML
N
2196.248 648.39 M
2230.325 676.251 2262.7 706.132 2293.197 737.873 C
2221.089 807.157 L
2193.364 778.302 2163.932 751.137 2132.952 725.809 C
cp
S
GR
GS
N
2303.413 666.438 M
2309.976 659.329 L
2285.46 636.704 L
2279.866 645.86 L
2275.897 642.204 L
2281.444 633.094 L
2285.46 628.751 L
2313.944 655.032 L
2320.507 647.923 L
2324.163 651.298 L
2307.069 669.813 L
2303.413 666.438 L
cp
f
GR
GS
N
2332.949 640.435 M
2328.996 636.779 L
2331.277 635.857 2333.238 634.552 QT
2335.199 633.248 2336.699 631.638 QT
2340.668 627.326 2339.863 622.381 QT
2339.058 617.435 2333.449 611.67 QT
2334.168 614.638 2333.386 617.459 QT
2332.605 620.279 2330.465 622.607 QT
2326.011 627.435 2320.496 627.552 QT
2314.98 627.67 2309.918 622.998 QT
2304.98 618.42 2304.691 612.732 QT
2304.402 607.045 2308.902 602.185 QT
2314.043 596.607 2321.019 597.615 QT
2327.996 598.623 2336.136 606.138 QT
2343.746 613.138 2344.949 620.935 QT
2346.152 628.732 2340.527 634.826 QT
2339.011 636.451 2337.144 637.841 QT
2335.277 639.232 2332.949 640.435 QT
cp
2327.324 619.201 M
2330.027 616.263 2329.605 612.701 QT
2329.183 609.138 2325.683 605.92 QT
2322.23 602.732 2318.636 602.576 QT
2315.043 602.42 2312.34 605.357 QT
2309.636 608.279 2310.074 611.857 QT
2310.511 615.435 2313.965 618.623 QT
2317.465 621.841 2321.043 621.982 QT
2324.621 622.123 2327.324 619.201 QT
cp
f
GR
GS
0.753 GC
N
2293.197 737.873 M
2325.706 771.706 2356.016 807.585 2383.942 845.289 C
2303.584 904.808 L
2278.196 870.532 2250.642 837.915 2221.089 807.157 C
cp
eofill
GR
GS
2 setlinecap
10.0 ML
N
2293.197 737.873 M
2325.706 771.706 2356.016 807.585 2383.942 845.289 C
2303.584 904.808 L
2278.196 870.532 2250.642 837.915 2221.089 807.157 C
cp
S
GR
GS
N
2403.421 769.529 M
2419.202 756.201 L
2422.421 760.014 L
2401.202 777.951 L
2397.983 774.139 L
2398.312 769.295 2398.96 761.061 QT
2399.608 752.826 2399.655 750.545 QT
2399.765 746.279 2399.194 743.865 QT
2398.624 741.451 2397.249 739.826 QT
2394.999 737.154 2391.718 737.061 QT
2388.437 736.967 2385.452 739.498 QT
2383.327 741.295 2381.577 744.022 QT
2379.827 746.748 2378.405 750.514 QT
2374.562 745.951 L
2376.358 742.561 2378.257 739.99 QT
2380.155 737.42 2382.124 735.764 QT
2387.327 731.373 2392.608 731.358 QT
2397.89 731.342 2401.546 735.686 QT
2403.28 737.748 2404.069 740.248 QT
2404.858 742.748 2404.952 746.983 QT
2404.937 748.092 2404.554 753.725 QT
2404.171 759.358 2403.421 769.529 QT
cp
f
GR
GS
N
2417.258 712.216 M
2413.758 715.169 2414.907 720.091 QT
2416.055 725.013 2421.868 731.904 QT
2427.68 738.779 2432.336 740.724 QT
2436.993 742.669 2440.493 739.716 QT
2443.993 736.747 2442.852 731.841 QT
2441.711 726.935 2435.899 720.06 QT
2430.086 713.169 2425.422 711.208 QT
2420.758 709.247 2417.258 712.216 QT
cp
2414.243 708.638 M
2419.852 703.904 2426.563 705.833 QT
2433.274 707.763 2440.415 716.232 QT
2447.555 724.669 2448.344 731.614 QT
2449.133 738.56 2443.524 743.294 QT
2437.899 748.044 2431.18 746.114 QT
2424.461 744.185 2417.321 735.747 QT
2410.18 727.279 2409.399 720.333 QT
2408.618 713.388 2414.243 708.638 QT
cp
f
GR
GS
0.753 GC
N
2383.942 845.289 M
2405.265 874.078 2425.169 903.891 2443.583 934.623 C
2357.803 986.021 L
2341.063 958.083 2322.969 930.98 2303.584 904.808 C
cp
eofill
GR
GS
2 setlinecap
10.0 ML
N
2383.942 845.289 M
2405.265 874.078 2425.169 903.891 2443.583 934.623 C
2357.803 986.021 L
2341.063 958.083 2322.969 930.98 2303.584 904.808 C
cp
S
GR
GS
N
2479.908 875.884 M
2497.08 864.416 L
2499.845 868.556 L
2476.751 883.978 L
2473.986 879.838 L
2474.845 875.056 2476.423 866.947 QT
2478.001 858.838 2478.298 856.588 QT
2478.892 852.353 2478.603 849.892 QT
2478.314 847.431 2477.126 845.65 QT
2475.189 842.759 2471.939 842.283 QT
2468.689 841.806 2465.423 843.994 QT
2463.111 845.541 2461.072 848.056 QT
2459.033 850.572 2457.205 854.15 QT
2453.892 849.181 L
2456.064 846.009 2458.236 843.681 QT
2460.408 841.353 2462.548 839.916 QT
2468.205 836.15 2473.455 836.72 QT
2478.705 837.291 2481.861 842.025 QT
2483.361 844.259 2483.861 846.838 QT
2484.361 849.416 2483.955 853.634 QT
2483.814 854.744 2482.806 860.291 QT
2481.798 865.838 2479.908 875.884 QT
cp
f
GR
GS
N
2509.784 855.94 M
2517.831 850.565 L
2499.3 822.815 L
2491.722 830.409 L
2488.738 825.925 L
2496.253 818.362 L
2501.191 815.081 L
2522.706 847.315 L
2530.738 841.94 L
2533.503 846.081 L
2512.55 860.081 L
2509.784 855.94 L
cp
f
GR
GS
0.753 GC
N
2443.583 934.623 M
2463.212 967.382 2481.121 1001.141 2497.239 1035.764 C
2406.581 1077.967 L
2391.928 1046.492 2375.647 1015.802 2357.803 986.021 C
cp
eofill
GR
GS
2 setlinecap
10.0 ML
N
2443.583 934.623 M
2463.212 967.382 2481.121 1001.141 2497.239 1035.764 C
2406.581 1077.967 L
2391.928 1046.492 2375.647 1015.802 2357.803 986.021 C
cp
S
GR
GS
N
2537.8 977.767 M
2556.05 968.08 L
2558.378 972.486 L
2533.831 985.502 L
2531.503 981.095 L
2532.847 976.439 2535.229 968.525 QT
2537.612 960.611 2538.144 958.408 QT
2539.159 954.252 2539.112 951.775 QT
2539.065 949.299 2538.065 947.408 QT
2536.44 944.33 2533.253 943.533 QT
2530.065 942.736 2526.597 944.58 QT
2524.144 945.877 2521.862 948.181 QT
2519.581 950.486 2517.394 953.861 QT
2514.597 948.595 L
2517.065 945.642 2519.464 943.541 QT
2521.862 941.439 2524.144 940.236 QT
2530.144 937.049 2535.315 938.158 QT
2540.487 939.267 2543.159 944.283 QT
2544.409 946.658 2544.651 949.275 QT
2544.894 951.892 2544.081 956.033 QT
2543.815 957.127 2542.253 962.549 QT
2540.69 967.97 2537.8 977.767 QT
cp
f
GR
GS
N
2573.135 959.022 M
2591.385 949.334 L
2593.714 953.74 L
2569.167 966.756 L
2566.839 962.35 L
2568.182 957.694 2570.565 949.78 QT
2572.948 941.865 2573.479 939.662 QT
2574.495 935.506 2574.448 933.03 QT
2574.401 930.553 2573.401 928.662 QT
2571.776 925.584 2568.589 924.787 QT
2565.401 923.99 2561.932 925.834 QT
2559.479 927.131 2557.198 929.436 QT
2554.917 931.74 2552.729 935.115 QT
2549.932 929.85 L
2552.401 926.897 2554.8 924.795 QT
2557.198 922.694 2559.479 921.49 QT
2565.479 918.303 2570.651 919.412 QT
2575.823 920.522 2578.495 925.537 QT
2579.745 927.912 2579.987 930.53 QT
2580.229 933.147 2579.417 937.287 QT
2579.151 938.381 2577.589 943.803 QT
2576.026 949.225 2573.135 959.022 QT
cp
f
GR
GS
0.753 GC
N
2497.239 1035.764 M
2546.107 1140.739 2578.094 1252.773 2592.018 1367.725 C
2492.744 1379.75 L
2480.085 1275.248 2451.006 1173.399 2406.581 1077.967 C
cp
eofill
GR
GS
2 setlinecap
10.0 ML
N
2497.239 1035.764 M
2546.107 1140.739 2578.094 1252.773 2592.018 1367.725 C
2492.744 1379.75 L
2480.085 1275.248 2451.006 1173.399 2406.581 1077.967 C
cp
S
GR
GS
N
2605.688 1170.045 M
2611.797 1168.295 L
2626.688 1180.936 L
2632.75 1162.311 L
2638.875 1160.561 L
2631.11 1184.608 L
2651.766 1202.358 L
2645.657 1204.092 L
2628.704 1189.592 L
2621.907 1210.873 L
2615.766 1212.639 L
2624.375 1185.889 L
2605.688 1170.045 L
cp
f
GR
GS
0.753 GC
N
2592.018 1367.725 M
2597.333 1411.604 2599.999 1455.763 2600 1499.963 C
2500 1499.966 L
2499.999 1459.785 2497.575 1419.64 2492.744 1379.75 C
cp
eofill
GR
GS
2 setlinecap
10.0 ML
N
2592.018 1367.725 M
2597.333 1411.604 2599.999 1455.763 2600 1499.963 C
2500 1499.966 L
2499.999 1459.785 2497.575 1419.64 2492.744 1379.75 C
cp
S
GR
GS
N
2646.953 1417.001 M
2653.296 1416.626 L
2666.515 1433.844 L
2677.421 1415.172 L
2683.781 1414.782 L
2669.734 1438.579 L
2670.984 1459.376 L
2665.046 1459.735 L
2663.796 1438.938 L
2646.953 1417.001 L
cp
f
GR
GS
0.753 GC
N
2600 1499.963 M
2600 1499.975 2600 1499.988 2600 1500 C
2500 1500 L
2500 1499.989 2500 1499.978 2500 1499.966 C
cp
eofill
GR
GS
2 setlinecap
10.0 ML
N
2600 1499.963 M
2600 1499.975 2600 1499.988 2600 1500 C
2500 1500 L
2500 1499.989 2500 1499.978 2500 1499.966 C
cp
S
GR
GS
N
2655.891 1486.246 M
2664.704 1486.246 L
2675.875 1516.012 L
2687.094 1486.246 L
2695.907 1486.246 L
2695.907 1529.981 L
2690.141 1529.981 L
2690.141 1491.574 L
2678.86 1521.574 L
2672.907 1521.574 L
2661.625 1491.574 L
2661.625 1529.981 L
2655.891 1529.981 L
2655.891 1486.246 L
cp
f
GR
GS
0.471 0 0 RC
N
1282.144 2321.607 M
1276.586 2320.134 1271.042 2318.603 1265.515 2317.017 C
1293.101 2220.897 L
1297.978 2222.297 1302.87 2223.647 1307.774 2224.948 C
cp
eofill
GR
GS
0.471 0 0 RC
2 setlinecap
10.0 ML
N
1282.144 2321.607 M
1276.586 2320.134 1271.042 2318.603 1265.515 2317.017 C
1293.101 2220.897 L
1297.978 2222.297 1302.87 2223.647 1307.774 2224.948 C
cp
S
GR
GS
0 0 0.976 RC
N
957.71 2218.277 M
952.851 2214.608 948.029 2210.89 943.245 2207.123 C
1036.037 2089.269 L
1040.024 2092.408 1044.042 2095.507 1048.092 2098.564 C
cp
eofill
GR
GS
0 0 0.976 RC
2 setlinecap
10.0 ML
N
957.71 2218.277 M
952.851 2214.608 948.029 2210.89 943.245 2207.123 C
1036.037 2089.269 L
1040.024 2092.408 1044.042 2095.507 1048.092 2098.564 C
cp
S
GR
GS
0 0.902 0 RC
N
532.037 1751.094 M
528.64 1737.996 525.508 1724.831 522.645 1711.606 C
620.38 1690.445 L
622.957 1702.348 625.776 1714.197 628.834 1725.985 C
cp
eofill
GR
GS
0 0.902 0 RC
2 setlinecap
10.0 ML
N
532.037 1751.094 M
528.64 1737.996 525.508 1724.831 522.645 1711.606 C
620.38 1690.445 L
622.957 1702.348 625.776 1714.197 628.834 1725.985 C
cp
S
GR
GS
0 0.902 0 RC
N
940.705 1282.771 M
945.114 1271.418 949.868 1260.202 954.96 1249.139 C
1045.8 1290.949 L
1041.557 1300.169 1037.595 1309.515 1033.92 1318.976 C
cp
eofill
GR
GS
0 0.902 0 RC
2 setlinecap
10.0 ML
N
940.705 1282.771 M
945.114 1271.418 949.868 1260.202 954.96 1249.139 C
1045.8 1290.949 L
1041.557 1300.169 1037.595 1309.515 1033.92 1318.976 C
cp
S
GR
GS
2 setlinecap
10.0 ML
N
550.148 1516.75 M
549.014 1452.432 554.415 1388.166 566.269 1324.94 C
713.7 1352.581 L
703.718 1405.824 699.169 1459.943 700.124 1514.105 C
cp
S
GR
GS
2 setlinecap
10.0 ML
5 LW
N
2250 1500 M
2250 1914.214 1914.214 2250 1500 2250 C
1085.786 2250 750 1914.214 750 1500 C
750 1085.786 1085.786 750 1500 750 C
1914.214 750 2250 1085.786 2250 1500 C
cp
S
GR
%%Trailer
%%Pages: 1
%%EOF
