# Fdb version 3
["pdflatex"] 1421274021 "circos.tex" "trainer_circos.pdf" "trainer_circos" 1421274030
  "/etc/texmf/tex/latex/config/color.cfg" 1254097189 802 7b8c8d72c24d795ed7720e4dfd29bff3 ""
  "/etc/texmf/tex/latex/config/graphics.cfg" 1255993321 3328 2584cfe577535f0a08f3a9717b5152ab ""
  "/etc/texmf/web2c/texmf.cnf" 1420444053 925 734c7fc4e97fba6461138c9b483a5050 ""
  "/usr/share/texlive/texmf-dist/fonts/map/fontname/texfonts.map" 1272929888 3287 e6b82fe08f5336d4d5ebc73fb1152e87 ""
  "/usr/share/texlive/texmf-dist/fonts/tfm/jknappen/ec/ecrm1200.tfm" 1136768653 3584 f80ddd985bd00e29e9a6047ebd9d4781 ""
  "/usr/share/texlive/texmf-dist/fonts/tfm/public/cm/cmr10.tfm" 1136768653 1296 45809c5a464d5f32c8f98ba97c1bb47f ""
  "/usr/share/texlive/texmf-dist/fonts/tfm/public/cm/cmr12.tfm" 1136768653 1288 655e228510b4c2a1abe905c368440826 ""
  "/usr/share/texlive/texmf-dist/tex/context/base/supp-pdf.mkii" 1337017135 71627 94eb9990bed73c364d7f53f960cc8c5b ""
  "/usr/share/texlive/texmf-dist/tex/generic/ifxetex/ifxetex.sty" 1284331290 1458 43ab4710dc82f3edeabecd0d099626b2 ""
  "/usr/share/texlive/texmf-dist/tex/generic/oberdiek/gettitlestring.sty" 1303254447 8237 52810bdb4db2270e717422560a104aea ""
  "/usr/share/texlive/texmf-dist/tex/generic/oberdiek/hobsub-generic.sty" 1338332114 189108 8b3553a56c83ff61acecb36b75d817e2 ""
  "/usr/share/texlive/texmf-dist/tex/generic/oberdiek/hobsub-hyperref.sty" 1338332114 70752 45fa392800e07da61fa13446ad46b34d ""
  "/usr/share/texlive/texmf-dist/tex/generic/oberdiek/ifluatex.sty" 1303254447 7324 11d14f318d865f420e692d4e6c9c18c3 ""
  "/usr/share/texlive/texmf-dist/tex/generic/oberdiek/ifpdf.sty" 1303254447 7140 ece2cc23d9f20e1f53975ac167f42d3e ""
  "/usr/share/texlive/texmf-dist/tex/generic/oberdiek/infwarerr.sty" 1335995445 8253 3bdedc8409aa5d290a2339be6f09af03 ""
  "/usr/share/texlive/texmf-dist/tex/generic/oberdiek/ltxcmds.sty" 1335995445 18425 775b341047ce304520cc7c11ca41392e ""
  "/usr/share/texlive/texmf-dist/tex/latex/base/fontenc.sty" 1254151887 4435 b97063eb2f20be499e7725926af85c55 ""
  "/usr/share/texlive/texmf-dist/tex/latex/base/ifthen.sty" 1254151887 5022 2ec7815b07dc68e65542e23a180bc839 ""
  "/usr/share/texlive/texmf-dist/tex/latex/base/t1enc.def" 1254151887 9172 67c33288b50eb57eab968f345e8befb0 ""
  "/usr/share/texlive/texmf-dist/tex/latex/base/textcomp.sty" 1312312491 15509 394096bec6a284398e0b3ead6d33977e ""
  "/usr/share/texlive/texmf-dist/tex/latex/base/ts1cmr.fd" 1254151887 2070 a9b43c0e3cee84bb3927d80d70ee10ce ""
  "/usr/share/texlive/texmf-dist/tex/latex/base/ts1enc.def" 1254151887 7630 8f51e48866ebfd08b8299888bbe81549 ""
  "/usr/share/texlive/texmf-dist/tex/latex/colortbl/colortbl.sty" 1329267615 10607 9635c8e2bffccf182429bfdea9b665a5 ""
  "/usr/share/texlive/texmf-dist/tex/latex/comment/comment.sty" 1390604416 9666 b0ada4704d4b3d0048a56c49bc982988 ""
  "/usr/share/texlive/texmf-dist/tex/latex/enumitem/enumitem.sty" 1317339792 42666 6fa770e3485520a6a5f2ea7d259c8f8d ""
  "/usr/share/texlive/texmf-dist/tex/latex/etex-pkg/etex.sty" 1214928088 15274 9f6a2469ac8ebe6168e12b8f32cbe599 ""
  "/usr/share/texlive/texmf-dist/tex/latex/etoolbox/etoolbox.sty" 1294098555 41188 02561c41bb08b479074b6e76f0b7d639 ""
  "/usr/share/texlive/texmf-dist/tex/latex/fancyhdr/fancyhdr.sty" 1160175134 20521 e5d13d98d57bd53d4fed3aa61bd29c86 ""
  "/usr/share/texlive/texmf-dist/tex/latex/fancyvrb/fancyvrb.sty" 1274829816 45360 a0833d32f1b541964596b02870342d5a ""
  "/usr/share/texlive/texmf-dist/tex/latex/float/float.sty" 1137110151 6749 16d2656a1984957e674b149555f1ea1d ""
  "/usr/share/texlive/texmf-dist/tex/latex/graphics/color.sty" 1156702488 6406 6f55214ce374a5b186b8781f4796f1f9 ""
  "/usr/share/texlive/texmf-dist/tex/latex/graphics/dvipsnam.def" 1156702488 4874 4251d89f9985d46c9ec7bed85727beb1 ""
  "/usr/share/texlive/texmf-dist/tex/latex/graphics/graphics.sty" 1254151804 14183 42a8fc761b806986eef292369afc2988 ""
  "/usr/share/texlive/texmf-dist/tex/latex/graphics/graphicx.sty" 1156702488 7882 3bd78469d444e8d494e27cfd7ca92719 ""
  "/usr/share/texlive/texmf-dist/tex/latex/graphics/keyval.sty" 1156702488 2266 7054435e4584a41cf53b0a7ca624d0cb ""
  "/usr/share/texlive/texmf-dist/tex/latex/graphics/trig.sty" 1156702488 3153 c50e6bd54d2dd3933fc52bcf369bec4a ""
  "/usr/share/texlive/texmf-dist/tex/latex/hyperref/hpdftex.def" 1352416072 51837 247bd8424b3835ef78c236dc1e0b4aef ""
  "/usr/share/texlive/texmf-dist/tex/latex/hyperref/hyperref.sty" 1352416072 231792 5fc9dc7dd667e773a766ecc63bba7f4b ""
  "/usr/share/texlive/texmf-dist/tex/latex/hyperref/nameref.sty" 1351899753 12847 25b617d63258c4f72870c883493a3cf8 ""
  "/usr/share/texlive/texmf-dist/tex/latex/hyperref/pd1enc.def" 1352416072 14005 155ac8fad2e5dd7c2cdd130fabd96633 ""
  "/usr/share/texlive/texmf-dist/tex/latex/latexconfig/hyperref.cfg" 1254097189 235 6031e5765137be07eed51a510b2b8fb7 ""
  "/usr/share/texlive/texmf-dist/tex/latex/listings/listings.cfg" 1377891227 1828 ad5c0bfd4bb17a6203cea3ae8bc2fa61 ""
  "/usr/share/texlive/texmf-dist/tex/latex/listings/listings.sty" 1377891227 80230 19b50098b82bdd21a0af91338601a7b9 ""
  "/usr/share/texlive/texmf-dist/tex/latex/listings/lstmisc.sty" 1377891227 77029 23e93e39002d9a323237b9331888f966 ""
  "/usr/share/texlive/texmf-dist/tex/latex/memoir/mem12.clo" 1369264337 4115 d10092770a9bb42543778e67dc76ef86 ""
  "/usr/share/texlive/texmf-dist/tex/latex/memoir/memhfixc.sty" 1372520501 11284 1e47b7bdce0f7abc4809a0f7229bb787 ""
  "/usr/share/texlive/texmf-dist/tex/latex/memoir/memoir.cls" 1372520501 400289 051856bb5caecda62f30f0538219cd0c ""
  "/usr/share/texlive/texmf-dist/tex/latex/memoir/mempatch.sty" 1369264337 1324 60d4290bf3a2a07e04d109c9aa178b82 ""
  "/usr/share/texlive/texmf-dist/tex/latex/microtype/microtype-pdftex.def" 1369617620 48788 102de9fe36ddc0fb46fd6734b1f3e8fb ""
  "/usr/share/texlive/texmf-dist/tex/latex/microtype/microtype.cfg" 1369617620 23086 f25ab3218b2c6f172ac44dbf381961e1 ""
  "/usr/share/texlive/texmf-dist/tex/latex/microtype/microtype.sty" 1369617620 68045 fe140a1fc105016163d67aadd9efe194 ""
  "/usr/share/texlive/texmf-dist/tex/latex/microtype/mt-cmr.cfg" 1369617620 22870 325932b16ad70b85d54e89a202d41e4e ""
  "/usr/share/texlive/texmf-dist/tex/latex/oberdiek/accsupp-pdftex.def" 1303254447 1524 f02916fbbb2b18cf308231beaf6dbc00 ""
  "/usr/share/texlive/texmf-dist/tex/latex/oberdiek/accsupp.sty" 1303254447 7669 fd9448dd465babfcf1970952d76ae61d ""
  "/usr/share/texlive/texmf-dist/tex/latex/oberdiek/auxhook.sty" 1303254447 3834 707ef09f31d7d2ea47ba89974755dfe0 ""
  "/usr/share/texlive/texmf-dist/tex/latex/oberdiek/kvoptions.sty" 1335995445 22417 c74ff4af6a1aa2b65d1924020edbbe11 ""
  "/usr/share/texlive/texmf-dist/tex/latex/oberdiek/rerunfilecheck.sty" 1303254447 9581 1158efc648bc09d5064db5703c882159 ""
  "/usr/share/texlive/texmf-dist/tex/latex/oberdiek/zref-abspage.sty" 1335995445 2153 4758fe045340c06cad94a5fd209845cb ""
  "/usr/share/texlive/texmf-dist/tex/latex/oberdiek/zref-base.sty" 1335995445 20510 d34f2ff6da5204141c620ec21d6b3170 ""
  "/usr/share/texlive/texmf-dist/tex/latex/pdftex-def/pdftex.def" 1306616590 55368 3c8a0d99822330f2dfabc0dfb09ce897 ""
  "/usr/share/texlive/texmf-dist/tex/latex/placeins/placeins.sty" 1137110565 4087 636308456f60d2b31cbf97867db5708d ""
  "/usr/share/texlive/texmf-dist/tex/latex/preprint/fullpage.sty" 1137110595 2789 05b418f78b224ec872f5b11081138605 ""
  "/usr/share/texlive/texmf-dist/tex/latex/psnfss/courier.sty" 1156702453 804 52ceb7e4cfdff7c69f852f42880bf040 ""
  "/usr/share/texlive/texmf-dist/tex/latex/titlesec/titlesec.sty" 1324083561 37083 54a2e11f0f208916a9976d9e4837d144 ""
  "/usr/share/texlive/texmf-dist/tex/latex/url/url.sty" 1388531844 12796 8edb7d69a20b857904dd0ea757c14ec9 ""
  "/usr/share/texlive/texmf-dist/tex/latex/xmpincl/xmpincl.sty" 1210504720 2846 ba6fcee8a9557055874a16b76a0c5f4b ""
  "/usr/share/texlive/texmf-dist/web2c/texmf.cnf" 1392645748 31083 1dfd8bf685ce0009c40532fedf8a7c53 ""
  "/usr/share/texmf/fonts/enc/dvips/lm/lm-ec.enc" 1254938640 2375 baa924870cfb487815765f9094cf3728 ""
  "/usr/share/texmf/fonts/enc/dvips/lm/lm-mathsy.enc" 1254938640 2840 216e6e45ad352e2456e1149f28885bee ""
  "/usr/share/texmf/fonts/enc/dvips/lm/lm-ts1.enc" 1254938640 3031 6c4d3515bf7115d8518af1c9ab97ca44 ""
  "/usr/share/texmf/fonts/tfm/public/lm/ec-lmbx12.tfm" 1254938640 12088 d750ac78274fa7c9f73ba09914c04f8a ""
  "/usr/share/texmf/fonts/tfm/public/lm/ec-lmbxi10.tfm" 1254938640 17180 a5723008921cdcb0c5f4ebe997919b73 ""
  "/usr/share/texmf/fonts/tfm/public/lm/ec-lmr10.tfm" 1254938640 12056 7e13df7fe4cbce21b072ba7c4f4deb6e ""
  "/usr/share/texmf/fonts/tfm/public/lm/ec-lmr12.tfm" 1254938640 12092 7b1546e2d096cfd5dcbd4049b0b1ec2e ""
  "/usr/share/texmf/fonts/tfm/public/lm/ec-lmr17.tfm" 1254938640 12156 ca1ae6a3c8564e89597f1f993fba1608 ""
  "/usr/share/texmf/fonts/tfm/public/lm/ec-lmr7.tfm" 1254938640 12064 09aa3eeac96bf141d673bb1b0385ce55 ""
  "/usr/share/texmf/fonts/tfm/public/lm/ec-lmr8.tfm" 1254938640 12064 a35db870f0b76c338d749c56dc030ef5 ""
  "/usr/share/texmf/fonts/tfm/public/lm/ec-lmri10.tfm" 1254938640 17148 9556e1b5f936b77a796f68d2d559ba99 ""
  "/usr/share/texmf/fonts/tfm/public/lm/ec-lmri12.tfm" 1254938640 17144 271aaf9ebb339934b04110dc5211fba4 ""
  "/usr/share/texmf/fonts/tfm/public/lm/ec-lmro12.tfm" 1254938640 12216 265ff4deab161a560d37046d13363b8c ""
  "/usr/share/texmf/fonts/tfm/public/lm/ec-lmss17.tfm" 1254938640 11252 57c8b53a3aeebba8c17658d4221d47ec ""
  "/usr/share/texmf/fonts/tfm/public/lm/ec-lmtk10.tfm" 1254938640 1368 5bfeb1cf8f9f0acdb7436bfaa8e0da4e ""
  "/usr/share/texmf/fonts/tfm/public/lm/ec-lmtt10.tfm" 1254938640 1372 2ef2c2b492b3c4cd7879fe083abbb061 ""
  "/usr/share/texmf/fonts/tfm/public/lm/ec-lmtt12.tfm" 1254938640 1368 6a60e6a5e029141041d64d339b87e533 ""
  "/usr/share/texmf/fonts/tfm/public/lm/ec-lmtt8.tfm" 1254938640 1380 64228d979098ac090aa3f98d5aa8ad3e ""
  "/usr/share/texmf/fonts/tfm/public/lm/lmex10.tfm" 1254938640 992 ce925c9346c7613270a79afbee98c070 ""
  "/usr/share/texmf/fonts/tfm/public/lm/lmmi10.tfm" 1254938640 1528 6d36b2385e0ca062a654de6ac59cb34f ""
  "/usr/share/texmf/fonts/tfm/public/lm/lmmi12.tfm" 1254938640 1524 753b192b18f2991794f9d41a8228510b ""
  "/usr/share/texmf/fonts/tfm/public/lm/lmmi5.tfm" 1254938640 1508 198f5b7b99b5769126de3a533f6fc334 ""
  "/usr/share/texmf/fonts/tfm/public/lm/lmmi6.tfm" 1254938640 1512 94a3fd88c6f27dbd9ecb46987e297a4e ""
  "/usr/share/texmf/fonts/tfm/public/lm/lmmi7.tfm" 1254938640 1528 d5b028dd23da623848ef0645c96a1ed7 ""
  "/usr/share/texmf/fonts/tfm/public/lm/lmmi8.tfm" 1254938640 1520 a3fe5596932db2db2cbda300920dd4e9 ""
  "/usr/share/texmf/fonts/tfm/public/lm/lmsy10.tfm" 1254938640 1308 02cc510f9dd6012e5815d0c0ffbf6869 ""
  "/usr/share/texmf/fonts/tfm/public/lm/lmsy5.tfm" 1254938640 1296 54ed1a711e2303d5282575278e3620b0 ""
  "/usr/share/texmf/fonts/tfm/public/lm/lmsy6.tfm" 1254938640 1300 b0605d44c16c22d99dc001808e4f24ea ""
  "/usr/share/texmf/fonts/tfm/public/lm/lmsy7.tfm" 1254938640 1304 32f22a15acc296b2a4e15698403dcb88 ""
  "/usr/share/texmf/fonts/tfm/public/lm/lmsy8.tfm" 1254938640 1304 cdc9a17df9ef0d2dc320eff37bbab1c4 ""
  "/usr/share/texmf/fonts/tfm/public/lm/rm-lmr10.tfm" 1254938640 11868 4f81e9b6033c032bdaf9884f4d7ef412 ""
  "/usr/share/texmf/fonts/tfm/public/lm/rm-lmr12.tfm" 1254938640 11888 6841b91e46b65cf41a49b160e6e74130 ""
  "/usr/share/texmf/fonts/tfm/public/lm/rm-lmr17.tfm" 1254938640 11948 fa976674f030491ad35532a8a1e37325 ""
  "/usr/share/texmf/fonts/tfm/public/lm/rm-lmr5.tfm" 1254938640 11804 aefb10c002e6492c25236524a447f969 ""
  "/usr/share/texmf/fonts/tfm/public/lm/rm-lmr6.tfm" 1254938640 11836 e3b6ce3e601aec94f64a536e7f4224d5 ""
  "/usr/share/texmf/fonts/tfm/public/lm/rm-lmr7.tfm" 1254938640 11852 5a9022f105fd1ee2797df861e79ae9a0 ""
  "/usr/share/texmf/fonts/tfm/public/lm/rm-lmr8.tfm" 1254938640 11864 309fd7f43e4a0ba39f6f7644d76e8edf ""
  "/usr/share/texmf/fonts/tfm/public/lm/rm-lmss17.tfm" 1254938640 11040 703db6eee3cd6f6cd9800b057b63d1d3 ""
  "/usr/share/texmf/fonts/tfm/public/lm/ts1-lmr12.tfm" 1254938640 1596 1d4548788e389ded56d0b01b28377882 ""
  "/usr/share/texmf/fonts/tfm/public/lm/ts1-lmtt10.tfm" 1254938640 1316 dd0a7a35fa2a1c1134451c343bdcaa45 ""
  "/usr/share/texmf/fonts/type1/public/lm/lmbx12.pfb" 1254938640 116908 1fca96723793882c2e0160350c192fc8 ""
  "/usr/share/texmf/fonts/type1/public/lm/lmbxi10.pfb" 1254938640 112766 bdd4fa8b13a0d7dd137624085bd31d40 ""
  "/usr/share/texmf/fonts/type1/public/lm/lmr10.pfb" 1254938640 119235 f35b44530a1d90eb90fe15d9cba67ea0 ""
  "/usr/share/texmf/fonts/type1/public/lm/lmr12.pfb" 1254938640 113634 f99c44d58bae0863375faf0e1d74d612 ""
  "/usr/share/texmf/fonts/type1/public/lm/lmr17.pfb" 1254938640 119752 1bd8d06e4079df624bf59ce3ad7c9aa6 ""
  "/usr/share/texmf/fonts/type1/public/lm/lmr7.pfb" 1254938640 121145 68312a933e2c689ed40ec0aba373e279 ""
  "/usr/share/texmf/fonts/type1/public/lm/lmr8.pfb" 1254938640 122174 a7a08406857c9530a0320a2517f60370 ""
  "/usr/share/texmf/fonts/type1/public/lm/lmri10.pfb" 1254938640 112593 fda2373ba4420af33949610de4c28fe8 ""
  "/usr/share/texmf/fonts/type1/public/lm/lmri12.pfb" 1254938640 109265 32320cb6133d4d76bf83e27b5eb4009b ""
  "/usr/share/texmf/fonts/type1/public/lm/lmro12.pfb" 1254938640 125209 a5bd29c5b5feb791d0332220e4a79275 ""
  "/usr/share/texmf/fonts/type1/public/lm/lmss17.pfb" 1254938640 97155 77b0a2ea02ee9c950117adae5f41f9c9 ""
  "/usr/share/texmf/fonts/type1/public/lm/lmsy10.pfb" 1254938640 27863 09ce3735688ffde955e72da27c95b61a ""
  "/usr/share/texmf/fonts/type1/public/lm/lmtk10.pfb" 1254938640 117319 7f8361f845845ce6d5b36cbd9f9cf377 ""
  "/usr/share/texmf/fonts/type1/public/lm/lmtt10.pfb" 1254938640 113227 1010e11451afc2822c95dae77c390042 ""
  "/usr/share/texmf/fonts/type1/public/lm/lmtt12.pfb" 1254938640 110323 92daea7ca7b4120bd2b54b047c93be27 ""
  "/usr/share/texmf/fonts/type1/public/lm/lmtt8.pfb" 1254938640 115291 2ae7034c644e971beb573b1e6606f863 ""
  "/usr/share/texmf/tex/latex/l3kernel/expl3-code.tex" 1416908776 601045 8144fa99d1e4ab13359512a330a7b0e1 ""
  "/usr/share/texmf/tex/latex/l3kernel/expl3.sty" 1416908776 9939 07578f8413a3aa40f62589ea02ce58af ""
  "/usr/share/texmf/tex/latex/l3kernel/l3pdfmode.def" 1416908776 5044 893dfca2aa5b7b2748a9a0632e0b33d7 ""
  "/usr/share/texmf/tex/latex/l3kernel/l3unicode-data.def" 1416908776 33552 7772b9dcd8a6cd4ec90aa845cde22450 ""
  "/usr/share/texmf/tex/latex/l3packages/tex/latex/l3packages/xparse/xparse.sty" 1416909076 56537 02dfce72dd53c1e4f143ba9ddcea0d19 ""
  "/usr/share/texmf/tex/latex/lm/lmodern.sty" 1256929440 1606 c17281c7cff2bbd7ff0173e1433487ec ""
  "/usr/share/texmf/tex/latex/lm/omllmm.fd" 1256929440 888 44447a3a3af84a22454ef89500942d93 ""
  "/usr/share/texmf/tex/latex/lm/omslmsy.fd" 1256929440 805 af340a8260c447aa315cfc740ff0152f ""
  "/usr/share/texmf/tex/latex/lm/omxlmex.fd" 1256929440 566 a94661f7b66063f191960bb7935b6ba2 ""
  "/usr/share/texmf/tex/latex/lm/ot1lmr.fd" 1256929440 1880 bae7b659316f7344a86218ad38b01d91 ""
  "/usr/share/texmf/tex/latex/lm/ot1lmss.fd" 1256929440 1655 27274ffd69942383838a2081fd5be3d1 ""
  "/usr/share/texmf/tex/latex/lm/t1lmr.fd" 1256929440 1865 afbfccbe7fda9c2dc5078ad7c486bbed ""
  "/usr/share/texmf/tex/latex/lm/t1lmss.fd" 1256929440 1639 ba1c66ef577aa5cadc2c0fdc691a26ee ""
  "/usr/share/texmf/tex/latex/lm/t1lmtt.fd" 1256929440 2681 354015af3b61e7be30009f084986375a ""
  "/usr/share/texmf/tex/latex/lm/ts1lmr.fd" 1256929440 1912 6435298ac30b512714b02d4c8c9e923c ""
  "/usr/share/texmf/tex/latex/lm/ts1lmtt.fd" 1256929440 2738 60cde6308634ac88dfb85e181fc1b345 ""
  "/usr/share/texmf/tex/latex/mdframed/md-frame-0.mdf" 1420416609 24831 326d9f019009ed0c076106fa6cb860fb ""
  "/usr/share/texmf/tex/latex/mdframed/mdframed.sty" 1420416609 53483 e4bd54723d687c28196caae359d70a12 ""
  "/usr/share/texmf/tex/latex/xcolor/xcolor.sty" 1339578534 55224 a43bab84e0ac5e6efcaf9a98bde73a94 ""
  "/usr/share/texmf/web2c/texmf.cnf" 1392645748 31083 1dfd8bf685ce0009c40532fedf8a7c53 ""
  "/var/lib/texmf/fonts/map/pdftex/updmap/pdftex.map" 1421027580 127915 49b596cb76599f1aec3216a156452d2b ""
  "/var/lib/texmf/web2c/pdftex/pdflatex.fmt" 1420444085 855949 b84c7efdcbee4f3e4ab496378aac7c70 ""
  "btp.sty" 1420698800 17090 80b6704be42d45ae84671ad85bb214f6 ""
  "circos.tex" 1421274011 64891 ff85612cacb81fd445d4c68027e51607 ""
  "icons/bonus1.png" 1420698800 879 997e0fbd59882049947c3af1a750bfa2 ""
  "icons/bonus2.png" 1420698800 673 ef1013d2469d746211fde29557889f6e ""
  "icons/info.png" 1420698800 3783 8aade27f7d1bab063e77afc8166c9119 ""
  "icons/notes.png" 1420698800 3609 11aa44b8fa13ca91b21f736044722c19 ""
  "icons/steps.png" 1420698800 5011 0311b4b1ed93b79142bbd0097fa5ca2e ""
  "icons/warning.png" 1420698800 4755 cfd6467c64be930427fde0b0f27488ab ""
  "images/NoMachine.png" 1421193483 43505 a1ad6bdb143bbf185f0d4467881ebf35 ""
  "images/circos_bands.png" 1421135598 126825 0dc7a5ba39e8db1a79eec0d4295b39d6 ""
  "images/circos_bezier_purity.png" 1421272591 74600 18d82710584a4ed04f12911e71eda51f ""
  "images/circos_bezier_radius.png" 1421272591 115929 12aa81baddcef3c320cd2081c8864e0d ""
  "images/circos_chromosomes_breaks.png" 1421047374 23750 6c1778a1284eb23f6271bc57d6a36699 ""
  "images/circos_config_structure.png" 1421022724 173439 2ab38d14a6da57dd51c5775b80835d02 ""
  "images/circos_crest.png" 1421272591 76654 32bef69229504a34bad2f98e12da52ca ""
  "images/circos_example_demo.png" 1420698800 2008466 1c2ecce13d88ed750573f050c2976887 ""
  "images/circos_example_rossello.png" 1420698800 740398 d665420bd5202ff392df0636a3b9bcfd ""
  "images/circos_highlight_format.png" 1421273368 158979 5c9b0d929509acde6e7a0d72d419b385 ""
  "images/circos_ideogram.png" 1421131494 202073 81c23a7cbc9cd0645518172b871018be ""
  "images/circos_ideogram_toplevel.png" 1421133317 129105 e24a6ddc13b75d865bc6f66c9474d576 ""
  "images/circos_image.png" 1421136836 87535 e6e79c1fb70d30e4d86f2b1cffed5333 ""
  "images/circos_link_config.png" 1421231861 152696 3d0b48c58bbb2e6767e353a5ce5c23e9 ""
  "images/circos_links.png" 1421272591 246979 a5f5f9b6a32a735ffaf1284ca2f8947d ""
  "images/circos_minimal_annotated.png" 1420698800 633049 5fd57a082c183a7100a4bd276fdc382e ""
  "images/circos_positioning.png" 1421036958 115099 8cdf026e9e52c0e4089114d38384d2f9 ""
  "images/circos_rankandfiled_crop.png" 1420698800 325798 4c2f452f1a2b12f736901e8b40df92d4 ""
  "images/circos_ticks.png" 1421141677 93657 1536e3191e15add580dda2945d879844 ""
  "images/datavisualization.png" 1421025679 272661 a0b1f05aa829d65f78b1a826e08945ce ""
  "images/file_structure.png" 1420698800 79076 250d497b8546328d3a9c93a4123c880e ""
  "images/gnome-terminal.png" 1421195933 21871 f8bc0002d416517c4123921f395a13fd ""
  "images/jcircos_bridges.png" 1420784565 330954 bceb3bc13465da537af9373a351303a7 ""
  "images/jcircos_empty_annotated.png" 1421022724 101027 a7e3a8f7856ee27947475c3c0c1e959f ""
  "images/jcircos_labels.png" 1421022724 168779 580b6e80b86469816b38d12125a88651 ""
  "images/jcircos_paper_figure_a.png" 1420775265 131406 d23e1707e23a4e91c6419dfae4bb8529 ""
  "images/jcircos_start.png" 1420775265 42788 fd8c8a051f5e2d948ad4997c36332fc9 ""
  "images/jcircos_std_data.png" 1420775265 474064 5fc3e2bf3d6b60de4959461182629bca ""
  "images/jcircos_texts.png" 1421022724 224593 ee43cecdc2a94ff081e6a4748a590423 ""
  "images/jcircos_wiggle.png" 1421022724 108608 9a08ae864fa0d56f67fe115c66318284 ""
  "images/keyword_value.png" 1421030838 17111 8151e71dc190c1cbf6c91eaab0b5c54b ""
  "images/tableviewer.png" 1421022724 738285 144e06966578523393e29a3036a5ee64 ""
  "licences/CC_Attribution_3.0_Unported.xmp" 1420698800 1403 153410a35d429c0b7525c5afaccbab60 ""
  "trainer_circos.aux" 1421274030 7433 64d3bf3ad1dbb2cde8d2c056fc64b03d ""
  "trainer_circos.out" 1421274030 1269 6c25f4d51165dd2a1c57a5b321516ca7 ""
  "trainer_circos.toc" 1421274030 2923 39bbb42053ae269625f8808d9fa17906 ""
  (generated)
  "licences/CC_Attribution_3.0_Unported.xmpi"
  "trainer_circos.pdf"
  "trainer_circos.log"
  "trainer_circos.aux"
  "trainer_circos.toc"
  "comment.cut"
  "trainer_circos.out"
