\BOOKMARK [0][-]{section*.1}{Contents}{}% 1
\BOOKMARK [0][-]{chapter.1}{Introduction}{}% 2
\BOOKMARK [1][-]{section.1.1}{About this handout}{chapter.1}% 3
\BOOKMARK [1][-]{section.1.2}{Course Summary}{chapter.1}% 4
\BOOKMARK [1][-]{section.1.3}{Computer Setup}{chapter.1}% 5
\BOOKMARK [1][-]{section.1.4}{The Ubuntu Desktop}{chapter.1}% 6
\BOOKMARK [1][-]{section.1.5}{Workstation setup and program installation}{chapter.1}% 7
\BOOKMARK [1][-]{section.1.6}{Web sites and references}{chapter.1}% 8
\BOOKMARK [0][-]{chapter.2}{Introduction to Circos}{}% 9
\BOOKMARK [1][-]{section.2.1}{Examples of Circos plots}{chapter.2}% 10
\BOOKMARK [1][-]{section.2.2}{Why is Circos so complicated?}{chapter.2}% 11
\BOOKMARK [1][-]{section.2.3}{J-Circos}{chapter.2}% 12
\BOOKMARK [1][-]{section.2.4}{Circos Table Viewer}{chapter.2}% 13
\BOOKMARK [0][-]{chapter.3}{Circos}{}% 14
\BOOKMARK [1][-]{section.3.1}{A very brief primer on Linux command-line}{chapter.3}% 15
\BOOKMARK [1][-]{section.3.2}{Circos from command-line}{chapter.3}% 16
\BOOKMARK [1][-]{section.3.3}{A basic Circos plot}{chapter.3}% 17
\BOOKMARK [1][-]{section.3.4}{Karyotype ideogram}{chapter.3}% 18
\BOOKMARK [1][-]{section.3.5}{Links}{chapter.3}% 19
\BOOKMARK [1][-]{section.3.6}{Other data types}{chapter.3}% 20
