PWD /home/paul/Workshops/circos_workshop/handout
INPUT /etc/texmf/web2c/texmf.cnf
INPUT /usr/share/texmf/web2c/texmf.cnf
INPUT /usr/share/texlive/texmf-dist/web2c/texmf.cnf
INPUT /var/lib/texmf/web2c/pdftex/pdflatex.fmt
INPUT circos.tex
OUTPUT trainee_circos.log
INPUT /usr/share/texlive/texmf-dist/tex/latex/memoir/memoir.cls
INPUT /usr/share/texlive/texmf-dist/tex/latex/memoir/memoir.cls
INPUT /usr/share/texlive/texmf-dist/tex/generic/oberdiek/ifpdf.sty
INPUT /usr/share/texlive/texmf-dist/tex/generic/oberdiek/ifpdf.sty
INPUT /usr/share/texlive/texmf-dist/tex/generic/oberdiek/ifpdf.sty
INPUT /usr/share/texlive/texmf-dist/tex/generic/ifxetex/ifxetex.sty
INPUT /usr/share/texlive/texmf-dist/tex/generic/ifxetex/ifxetex.sty
INPUT /usr/share/texlive/texmf-dist/tex/generic/ifxetex/ifxetex.sty
INPUT /usr/share/texlive/texmf-dist/tex/generic/oberdiek/ifluatex.sty
INPUT /usr/share/texlive/texmf-dist/tex/generic/oberdiek/ifluatex.sty
INPUT /usr/share/texlive/texmf-dist/tex/generic/oberdiek/ifluatex.sty
INPUT /usr/share/texlive/texmf-dist/tex/latex/etex-pkg/etex.sty
INPUT /usr/share/texlive/texmf-dist/tex/latex/etex-pkg/etex.sty
INPUT /usr/share/texlive/texmf-dist/tex/latex/etex-pkg/etex.sty
INPUT /usr/share/texlive/texmf-dist/tex/latex/memoir/mem12.clo
INPUT /usr/share/texlive/texmf-dist/tex/latex/memoir/mem12.clo
INPUT /usr/share/texlive/texmf-dist/fonts/map/fontname/texfonts.map
INPUT /usr/share/texlive/texmf-dist/fonts/tfm/public/cm/cmr12.tfm
INPUT /usr/share/texlive/texmf-dist/fonts/tfm/public/cm/cmr10.tfm
INPUT /usr/share/texlive/texmf-dist/tex/latex/memoir/mempatch.sty
INPUT /usr/share/texlive/texmf-dist/tex/latex/memoir/mempatch.sty
INPUT /usr/share/texlive/texmf-dist/tex/latex/memoir/mempatch.sty
INPUT btp.sty
INPUT btp.sty
INPUT /usr/share/texlive/texmf-dist/tex/latex/fancyhdr/fancyhdr.sty
INPUT /usr/share/texlive/texmf-dist/tex/latex/fancyhdr/fancyhdr.sty
INPUT /usr/share/texlive/texmf-dist/tex/latex/listings/listings.sty
INPUT /usr/share/texlive/texmf-dist/tex/latex/listings/listings.sty
INPUT /usr/share/texlive/texmf-dist/tex/latex/graphics/keyval.sty
INPUT /usr/share/texlive/texmf-dist/tex/latex/graphics/keyval.sty
INPUT /usr/share/texlive/texmf-dist/tex/latex/listings/lstmisc.sty
INPUT /usr/share/texlive/texmf-dist/tex/latex/listings/lstmisc.sty
INPUT /usr/share/texlive/texmf-dist/tex/latex/listings/listings.cfg
INPUT /usr/share/texlive/texmf-dist/tex/latex/listings/listings.cfg
INPUT /usr/share/texlive/texmf-dist/tex/latex/psnfss/courier.sty
INPUT /usr/share/texlive/texmf-dist/tex/latex/psnfss/courier.sty
INPUT /usr/share/texlive/texmf-dist/tex/latex/graphics/color.sty
INPUT /usr/share/texlive/texmf-dist/tex/latex/graphics/color.sty
INPUT /etc/texmf/tex/latex/config/color.cfg
INPUT /etc/texmf/tex/latex/config/color.cfg
INPUT /usr/share/texlive/texmf-dist/tex/latex/pdftex-def/pdftex.def
INPUT /usr/share/texlive/texmf-dist/tex/latex/pdftex-def/pdftex.def
INPUT /usr/share/texlive/texmf-dist/tex/generic/oberdiek/infwarerr.sty
INPUT /usr/share/texlive/texmf-dist/tex/generic/oberdiek/infwarerr.sty
INPUT /usr/share/texlive/texmf-dist/tex/generic/oberdiek/ltxcmds.sty
INPUT /usr/share/texlive/texmf-dist/tex/generic/oberdiek/ltxcmds.sty
INPUT /usr/share/texlive/texmf-dist/tex/latex/graphics/dvipsnam.def
INPUT /usr/share/texlive/texmf-dist/tex/latex/graphics/dvipsnam.def
INPUT /usr/share/texmf/tex/latex/xcolor/xcolor.sty
INPUT /usr/share/texmf/tex/latex/xcolor/xcolor.sty
INPUT /etc/texmf/tex/latex/config/color.cfg
INPUT /etc/texmf/tex/latex/config/color.cfg
INPUT /usr/share/texlive/texmf-dist/tex/latex/colortbl/colortbl.sty
INPUT /usr/share/texlive/texmf-dist/tex/latex/colortbl/colortbl.sty
INPUT /usr/share/texlive/texmf-dist/tex/latex/graphics/graphicx.sty
INPUT /usr/share/texlive/texmf-dist/tex/latex/graphics/graphicx.sty
INPUT /usr/share/texlive/texmf-dist/tex/latex/graphics/graphics.sty
INPUT /usr/share/texlive/texmf-dist/tex/latex/graphics/graphics.sty
INPUT /usr/share/texlive/texmf-dist/tex/latex/graphics/trig.sty
INPUT /usr/share/texlive/texmf-dist/tex/latex/graphics/trig.sty
INPUT /etc/texmf/tex/latex/config/graphics.cfg
INPUT /etc/texmf/tex/latex/config/graphics.cfg
INPUT /usr/share/texlive/texmf-dist/tex/latex/hyperref/hyperref.sty
INPUT /usr/share/texlive/texmf-dist/tex/latex/hyperref/hyperref.sty
INPUT /usr/share/texlive/texmf-dist/tex/generic/oberdiek/hobsub-hyperref.sty
INPUT /usr/share/texlive/texmf-dist/tex/generic/oberdiek/hobsub-hyperref.sty
INPUT /usr/share/texlive/texmf-dist/tex/generic/oberdiek/hobsub-hyperref.sty
INPUT /usr/share/texlive/texmf-dist/tex/generic/oberdiek/hobsub-generic.sty
INPUT /usr/share/texlive/texmf-dist/tex/generic/oberdiek/hobsub-generic.sty
INPUT /usr/share/texlive/texmf-dist/tex/latex/oberdiek/auxhook.sty
INPUT /usr/share/texlive/texmf-dist/tex/latex/oberdiek/auxhook.sty
INPUT /usr/share/texlive/texmf-dist/tex/latex/oberdiek/kvoptions.sty
INPUT /usr/share/texlive/texmf-dist/tex/latex/oberdiek/kvoptions.sty
INPUT /usr/share/texlive/texmf-dist/tex/latex/hyperref/pd1enc.def
INPUT /usr/share/texlive/texmf-dist/tex/latex/hyperref/pd1enc.def
INPUT /usr/share/texlive/texmf-dist/tex/latex/latexconfig/hyperref.cfg
INPUT /usr/share/texlive/texmf-dist/tex/latex/latexconfig/hyperref.cfg
INPUT /usr/share/texlive/texmf-dist/tex/latex/url/url.sty
INPUT /usr/share/texlive/texmf-dist/tex/latex/url/url.sty
INPUT /usr/share/texlive/texmf-dist/tex/latex/memoir/memhfixc.sty
INPUT /usr/share/texlive/texmf-dist/tex/latex/memoir/memhfixc.sty
INPUT /usr/share/texlive/texmf-dist/tex/latex/hyperref/hpdftex.def
INPUT /usr/share/texlive/texmf-dist/tex/latex/hyperref/hpdftex.def
INPUT /usr/share/texlive/texmf-dist/tex/latex/oberdiek/rerunfilecheck.sty
INPUT /usr/share/texlive/texmf-dist/tex/latex/oberdiek/rerunfilecheck.sty
INPUT /usr/share/texlive/texmf-dist/tex/latex/preprint/fullpage.sty
INPUT /usr/share/texlive/texmf-dist/tex/latex/preprint/fullpage.sty
INPUT /usr/share/texlive/texmf-dist/tex/latex/enumitem/enumitem.sty
INPUT /usr/share/texlive/texmf-dist/tex/latex/enumitem/enumitem.sty
INPUT /usr/share/texmf/tex/latex/mdframed/mdframed.sty
INPUT /usr/share/texmf/tex/latex/mdframed/mdframed.sty
INPUT /usr/share/texmf/tex/latex/l3packages/tex/latex/l3packages/xparse/xparse.sty
INPUT /usr/share/texmf/tex/latex/l3packages/tex/latex/l3packages/xparse/xparse.sty
INPUT /usr/share/texmf/tex/latex/l3kernel/expl3.sty
INPUT /usr/share/texmf/tex/latex/l3kernel/expl3.sty
INPUT /usr/share/texmf/tex/latex/l3kernel/expl3-code.tex
INPUT /usr/share/texmf/tex/latex/l3kernel/expl3-code.tex
INPUT /usr/share/texmf/tex/latex/l3kernel/l3unicode-data.def
INPUT /usr/share/texmf/tex/latex/l3kernel/l3unicode-data.def
INPUT /usr/share/texmf/tex/latex/l3kernel/l3pdfmode.def
INPUT /usr/share/texmf/tex/latex/l3kernel/l3pdfmode.def
INPUT /usr/share/texlive/texmf-dist/tex/latex/etoolbox/etoolbox.sty
INPUT /usr/share/texlive/texmf-dist/tex/latex/etoolbox/etoolbox.sty
INPUT /usr/share/texlive/texmf-dist/tex/latex/oberdiek/zref-abspage.sty
INPUT /usr/share/texlive/texmf-dist/tex/latex/oberdiek/zref-abspage.sty
INPUT /usr/share/texlive/texmf-dist/tex/latex/oberdiek/zref-base.sty
INPUT /usr/share/texlive/texmf-dist/tex/latex/oberdiek/zref-base.sty
INPUT /usr/share/texmf/tex/latex/mdframed/md-frame-0.mdf
INPUT /usr/share/texmf/tex/latex/mdframed/md-frame-0.mdf
INPUT /usr/share/texlive/texmf-dist/tex/latex/titlesec/titlesec.sty
INPUT /usr/share/texlive/texmf-dist/tex/latex/titlesec/titlesec.sty
INPUT /usr/share/texlive/texmf-dist/tex/latex/placeins/placeins.sty
INPUT /usr/share/texlive/texmf-dist/tex/latex/placeins/placeins.sty
INPUT /usr/share/texlive/texmf-dist/tex/latex/base/ifthen.sty
INPUT /usr/share/texlive/texmf-dist/tex/latex/base/ifthen.sty
INPUT /usr/share/texlive/texmf-dist/tex/latex/xmpincl/xmpincl.sty
INPUT /usr/share/texlive/texmf-dist/tex/latex/xmpincl/xmpincl.sty
INPUT licences/CC_Attribution_3.0_Unported.xmp
INPUT licences/CC_Attribution_3.0_Unported.xmp
OUTPUT licences/CC_Attribution_3.0_Unported.xmpi
OUTPUT trainee_circos.pdf
INPUT licences/CC_Attribution_3.0_Unported.xmpi
INPUT /usr/share/texlive/texmf-dist/tex/latex/microtype/microtype.sty
INPUT /usr/share/texlive/texmf-dist/tex/latex/microtype/microtype.sty
INPUT /usr/share/texlive/texmf-dist/tex/latex/microtype/microtype-pdftex.def
INPUT /usr/share/texlive/texmf-dist/tex/latex/microtype/microtype-pdftex.def
INPUT /usr/share/texlive/texmf-dist/tex/latex/microtype/microtype.cfg
INPUT /usr/share/texlive/texmf-dist/tex/latex/microtype/microtype.cfg
INPUT /usr/share/texlive/texmf-dist/tex/latex/microtype/microtype.cfg
INPUT /usr/share/texlive/texmf-dist/tex/latex/oberdiek/accsupp.sty
INPUT /usr/share/texlive/texmf-dist/tex/latex/oberdiek/accsupp.sty
INPUT /usr/share/texlive/texmf-dist/tex/latex/oberdiek/accsupp-pdftex.def
INPUT /usr/share/texlive/texmf-dist/tex/latex/oberdiek/accsupp-pdftex.def
INPUT /usr/share/texlive/texmf-dist/tex/latex/base/textcomp.sty
INPUT /usr/share/texlive/texmf-dist/tex/latex/base/textcomp.sty
INPUT /usr/share/texlive/texmf-dist/tex/latex/base/ts1enc.def
INPUT /usr/share/texlive/texmf-dist/tex/latex/base/ts1enc.def
INPUT /usr/share/texlive/texmf-dist/tex/latex/float/float.sty
INPUT /usr/share/texlive/texmf-dist/tex/latex/float/float.sty
INPUT /usr/share/texmf/tex/latex/lm/lmodern.sty
INPUT /usr/share/texmf/tex/latex/lm/lmodern.sty
INPUT /usr/share/texlive/texmf-dist/tex/latex/comment/comment.sty
INPUT /usr/share/texlive/texmf-dist/tex/latex/comment/comment.sty
INPUT /usr/share/texmf/tex/latex/lm/ot1lmr.fd
INPUT /usr/share/texmf/tex/latex/lm/ot1lmr.fd
INPUT /usr/share/texmf/fonts/tfm/public/lm/rm-lmr12.tfm
INPUT /usr/share/texmf/fonts/tfm/public/lm/rm-lmr17.tfm
INPUT /usr/share/texmf/tex/latex/lm/ot1lmss.fd
INPUT /usr/share/texmf/tex/latex/lm/ot1lmss.fd
INPUT /usr/share/texmf/fonts/tfm/public/lm/rm-lmss17.tfm
INPUT /usr/share/texlive/texmf-dist/tex/latex/fancyvrb/fancyvrb.sty
INPUT /usr/share/texlive/texmf-dist/tex/latex/fancyvrb/fancyvrb.sty
INPUT /usr/share/texlive/texmf-dist/tex/latex/base/fontenc.sty
INPUT /usr/share/texlive/texmf-dist/tex/latex/base/fontenc.sty
INPUT /usr/share/texlive/texmf-dist/tex/latex/base/t1enc.def
INPUT /usr/share/texlive/texmf-dist/tex/latex/base/t1enc.def
INPUT /usr/share/texlive/texmf-dist/fonts/tfm/jknappen/ec/ecrm1200.tfm
INPUT trainee_circos.aux
INPUT trainee_circos.aux
OUTPUT trainee_circos.aux
INPUT /usr/share/texlive/texmf-dist/tex/latex/base/ts1cmr.fd
INPUT /usr/share/texlive/texmf-dist/tex/latex/base/ts1cmr.fd
INPUT /usr/share/texmf/tex/latex/lm/t1lmr.fd
INPUT /usr/share/texmf/tex/latex/lm/t1lmr.fd
INPUT /usr/share/texmf/fonts/tfm/public/lm/ec-lmr12.tfm
INPUT /usr/share/texlive/texmf-dist/tex/context/base/supp-pdf.mkii
INPUT /usr/share/texlive/texmf-dist/tex/context/base/supp-pdf.mkii
INPUT /usr/share/texlive/texmf-dist/tex/latex/hyperref/nameref.sty
INPUT /usr/share/texlive/texmf-dist/tex/latex/hyperref/nameref.sty
INPUT /usr/share/texlive/texmf-dist/tex/generic/oberdiek/gettitlestring.sty
INPUT /usr/share/texlive/texmf-dist/tex/generic/oberdiek/gettitlestring.sty
INPUT trainee_circos.out
INPUT trainee_circos.out
INPUT trainee_circos.out
INPUT trainee_circos.out
INPUT ./trainee_circos.out
INPUT ./trainee_circos.out
OUTPUT trainee_circos.out
INPUT /usr/share/texlive/texmf-dist/tex/latex/microtype/mt-cmr.cfg
INPUT /usr/share/texlive/texmf-dist/tex/latex/microtype/mt-cmr.cfg
INPUT /usr/share/texmf/fonts/tfm/public/lm/ec-lmr17.tfm
INPUT /usr/share/texmf/fonts/tfm/public/lm/rm-lmr8.tfm
INPUT /usr/share/texmf/fonts/tfm/public/lm/rm-lmr6.tfm
INPUT /usr/share/texmf/tex/latex/lm/omllmm.fd
INPUT /usr/share/texmf/tex/latex/lm/omllmm.fd
INPUT /usr/share/texmf/fonts/tfm/public/lm/lmmi12.tfm
INPUT /usr/share/texmf/fonts/tfm/public/lm/lmmi8.tfm
INPUT /usr/share/texmf/fonts/tfm/public/lm/lmmi6.tfm
INPUT /usr/share/texmf/tex/latex/lm/omslmsy.fd
INPUT /usr/share/texmf/tex/latex/lm/omslmsy.fd
INPUT /usr/share/texmf/fonts/tfm/public/lm/lmsy10.tfm
INPUT /usr/share/texmf/fonts/tfm/public/lm/lmsy8.tfm
INPUT /usr/share/texmf/fonts/tfm/public/lm/lmsy6.tfm
INPUT /usr/share/texmf/tex/latex/lm/omxlmex.fd
INPUT /usr/share/texmf/tex/latex/lm/omxlmex.fd
INPUT /usr/share/texmf/fonts/tfm/public/lm/lmex10.tfm
INPUT /var/lib/texmf/fonts/map/pdftex/updmap/pdftex.map
INPUT /usr/share/texmf/tex/latex/lm/t1lmss.fd
INPUT /usr/share/texmf/tex/latex/lm/t1lmss.fd
INPUT /usr/share/texmf/fonts/tfm/public/lm/ec-lmss17.tfm
INPUT trainee_circos.toc
INPUT trainee_circos.toc
INPUT /usr/share/texmf/fonts/tfm/public/lm/ec-lmbx12.tfm
INPUT /usr/share/texmf/tex/latex/lm/t1lmtt.fd
INPUT /usr/share/texmf/tex/latex/lm/t1lmtt.fd
INPUT /usr/share/texmf/fonts/tfm/public/lm/ec-lmtt12.tfm
INPUT /usr/share/texmf/fonts/tfm/public/lm/ec-lmri12.tfm
INPUT /usr/share/texmf/fonts/tfm/public/lm/ec-lmr17.tfm
INPUT /usr/share/texmf/fonts/tfm/public/lm/ec-lmbx12.tfm
INPUT ./icons/info.png
INPUT ./icons/info.png
INPUT ./icons/info.png
INPUT ./icons/notes.png
INPUT ./icons/notes.png
INPUT ./icons/notes.png
INPUT ./icons/warning.png
INPUT ./icons/warning.png
INPUT ./icons/warning.png
INPUT ./icons/steps.png
INPUT ./icons/steps.png
INPUT ./icons/steps.png
INPUT ./icons/bonus1.png
INPUT ./icons/bonus1.png
INPUT ./icons/bonus1.png
INPUT ./icons/bonus2.png
INPUT ./icons/bonus2.png
INPUT ./icons/bonus2.png
INPUT ./icons/info.png
INPUT ./icons/info.png
INPUT images/NoMachine.png
INPUT ./images/NoMachine.png
INPUT ./images/NoMachine.png
INPUT /usr/share/texmf/fonts/tfm/public/lm/ec-lmro12.tfm
INPUT ./licences/cc_by.png
INPUT ./licences/cc_by.png
INPUT ./licences/cc_by.png
INPUT ./licences/cc_by.png
INPUT ./licences/cc_by.png
INPUT ./licences/cc_by.png
INPUT ./licences/cc_by.png
INPUT /usr/share/texmf/fonts/tfm/public/lm/ec-lmr12.tfm
INPUT /usr/share/texmf/fonts/tfm/public/lm/ec-lmbx12.tfm
INPUT images/file_structure.png
INPUT ./images/file_structure.png
INPUT ./images/file_structure.png
INPUT ./licences/cc_by.png
INPUT ./licences/cc_by.png
INPUT images/datavisualization.png
INPUT ./images/datavisualization.png
INPUT ./images/datavisualization.png
INPUT images/circos_example_rossello.png
INPUT ./images/circos_example_rossello.png
INPUT ./images/circos_example_rossello.png
INPUT /usr/share/texmf/fonts/tfm/public/lm/ec-lmr8.tfm
INPUT images/circos_example_demo.png
INPUT ./images/circos_example_demo.png
INPUT ./images/circos_example_demo.png
INPUT images/circos_rankandfiled_crop.png
INPUT ./images/circos_rankandfiled_crop.png
INPUT ./images/circos_rankandfiled_crop.png
INPUT ./licences/cc_by.png
INPUT ./licences/cc_by.png
INPUT images/circos_minimal_annotated.png
INPUT ./images/circos_minimal_annotated.png
INPUT ./images/circos_minimal_annotated.png
INPUT ./licences/cc_by.png
INPUT ./licences/cc_by.png
INPUT ./licences/cc_by.png
INPUT ./licences/cc_by.png
INPUT ./icons/steps.png
INPUT ./icons/steps.png
INPUT images/jcircos_start.png
INPUT ./images/jcircos_start.png
INPUT ./images/jcircos_start.png
INPUT /usr/share/texmf/tex/latex/lm/ts1lmr.fd
INPUT /usr/share/texmf/tex/latex/lm/ts1lmr.fd
INPUT /usr/share/texmf/fonts/tfm/public/lm/ts1-lmr12.tfm
INPUT images/jcircos_paper_figure_a.png
INPUT ./images/jcircos_paper_figure_a.png
INPUT ./images/jcircos_paper_figure_a.png
INPUT /usr/share/texmf/fonts/tfm/public/lm/ec-lmr10.tfm
INPUT /usr/share/texmf/fonts/tfm/public/lm/ec-lmri10.tfm
INPUT ./licences/cc_by.png
INPUT ./licences/cc_by.png
INPUT ./icons/steps.png
INPUT ./icons/steps.png
INPUT ./icons/warning.png
INPUT ./icons/warning.png
INPUT ./licences/cc_by.png
INPUT ./licences/cc_by.png
INPUT images/jcircos_std_data.png
INPUT ./images/jcircos_std_data.png
INPUT ./images/jcircos_std_data.png
INPUT ./licences/cc_by.png
INPUT ./licences/cc_by.png
INPUT ./icons/steps.png
INPUT ./icons/steps.png
INPUT ./icons/steps.png
INPUT ./icons/steps.png
INPUT ./icons/bonus1.png
INPUT ./icons/bonus1.png
INPUT ./licences/cc_by.png
INPUT ./licences/cc_by.png
INPUT ./icons/steps.png
INPUT ./icons/steps.png
INPUT ./icons/steps.png
INPUT ./icons/steps.png
INPUT ./icons/notes.png
INPUT ./icons/notes.png
INPUT ./licences/cc_by.png
INPUT ./licences/cc_by.png
INPUT ./icons/steps.png
INPUT ./icons/steps.png
INPUT images/jcircos_bridges.png
INPUT ./images/jcircos_bridges.png
INPUT ./images/jcircos_bridges.png
INPUT /usr/share/texmf/fonts/tfm/public/lm/ec-lmtt8.tfm
INPUT ./icons/bonus1.png
INPUT ./icons/bonus1.png
INPUT ./licences/cc_by.png
INPUT ./licences/cc_by.png
INPUT ./icons/steps.png
INPUT ./icons/steps.png
INPUT images/jcircos_labels.png
INPUT ./images/jcircos_labels.png
INPUT ./images/jcircos_labels.png
INPUT ./licences/cc_by.png
INPUT ./licences/cc_by.png
INPUT ./icons/steps.png
INPUT ./icons/steps.png
INPUT ./icons/warning.png
INPUT ./icons/warning.png
INPUT images/jcircos_texts.png
INPUT ./images/jcircos_texts.png
INPUT ./images/jcircos_texts.png
INPUT ./licences/cc_by.png
INPUT ./licences/cc_by.png
INPUT ./icons/steps.png
INPUT ./icons/steps.png
INPUT images/jcircos_wiggle.png
INPUT ./images/jcircos_wiggle.png
INPUT ./images/jcircos_wiggle.png
INPUT ./licences/cc_by.png
INPUT ./licences/cc_by.png
INPUT ./icons/bonus1.png
INPUT ./icons/bonus1.png
INPUT ./licences/cc_by.png
INPUT ./licences/cc_by.png
INPUT /usr/share/texmf/fonts/tfm/public/lm/ec-lmtt10.tfm
INPUT /usr/share/texmf/tex/latex/lm/ts1lmtt.fd
INPUT /usr/share/texmf/tex/latex/lm/ts1lmtt.fd
INPUT /usr/share/texmf/fonts/tfm/public/lm/ts1-lmtt10.tfm
INPUT /usr/share/texmf/fonts/tfm/public/lm/ec-lmtk10.tfm
INPUT images/jcircos_empty_annotated.png
INPUT ./images/jcircos_empty_annotated.png
INPUT ./images/jcircos_empty_annotated.png
INPUT ./icons/steps.png
INPUT ./icons/steps.png
INPUT ./licences/cc_by.png
INPUT ./licences/cc_by.png
INPUT ./icons/steps.png
INPUT ./icons/steps.png
INPUT ./icons/steps.png
INPUT ./icons/steps.png
INPUT ./icons/steps.png
INPUT ./icons/steps.png
INPUT ./licences/cc_by.png
INPUT ./licences/cc_by.png
INPUT ./icons/steps.png
INPUT ./icons/steps.png
INPUT ./icons/bonus2.png
INPUT ./icons/bonus2.png
INPUT /usr/share/texmf/fonts/tfm/public/lm/ec-lmbxi10.tfm
INPUT ./licences/cc_by.png
INPUT ./licences/cc_by.png
INPUT /usr/share/texmf/fonts/tfm/public/lm/rm-lmr10.tfm
INPUT /usr/share/texmf/fonts/tfm/public/lm/lmmi10.tfm
INPUT /usr/share/texmf/fonts/tfm/public/lm/lmsy10.tfm
INPUT images/tableviewer.png
INPUT ./images/tableviewer.png
INPUT ./images/tableviewer.png
INPUT ./licences/cc_by.png
INPUT ./licences/cc_by.png
INPUT images/gnome-terminal.png
INPUT ./images/gnome-terminal.png
INPUT ./images/gnome-terminal.png
INPUT ./licences/cc_by.png
INPUT ./licences/cc_by.png
INPUT ./icons/steps.png
INPUT ./icons/steps.png
INPUT ./icons/steps.png
INPUT ./icons/steps.png
INPUT ./icons/bonus2.png
INPUT ./icons/bonus2.png
INPUT ./licences/cc_by.png
INPUT ./licences/cc_by.png
INPUT ./licences/cc_by.png
INPUT ./licences/cc_by.png
INPUT ./icons/steps.png
INPUT ./icons/steps.png
INPUT ./licences/cc_by.png
INPUT ./licences/cc_by.png
INPUT images/circos_config_structure.png
INPUT ./images/circos_config_structure.png
INPUT ./images/circos_config_structure.png
INPUT ./icons/steps.png
INPUT ./icons/steps.png
INPUT ./icons/notes.png
INPUT ./icons/notes.png
INPUT ./licences/cc_by.png
INPUT ./licences/cc_by.png
INPUT images/circos_positioning.png
INPUT ./images/circos_positioning.png
INPUT ./images/circos_positioning.png
INPUT images/keyword_value.png
INPUT ./images/keyword_value.png
INPUT ./images/keyword_value.png
INPUT ./licences/cc_by.png
INPUT ./licences/cc_by.png
INPUT ./icons/steps.png
INPUT ./icons/steps.png
INPUT ./icons/warning.png
INPUT ./icons/warning.png
INPUT ./licences/cc_by.png
INPUT ./licences/cc_by.png
INPUT ./icons/bonus1.png
INPUT ./icons/bonus1.png
INPUT images/circos_chromosomes_breaks.png
INPUT ./images/circos_chromosomes_breaks.png
INPUT ./images/circos_chromosomes_breaks.png
INPUT ./licences/cc_by.png
INPUT ./licences/cc_by.png
INPUT images/circos_ideogram.png
INPUT ./images/circos_ideogram.png
INPUT ./images/circos_ideogram.png
INPUT ./licences/cc_by.png
INPUT ./licences/cc_by.png
INPUT images/circos_bands.png
INPUT ./images/circos_bands.png
INPUT ./images/circos_bands.png
INPUT images/circos_ideogram_toplevel.png
INPUT ./images/circos_ideogram_toplevel.png
INPUT ./images/circos_ideogram_toplevel.png
INPUT ./licences/cc_by.png
INPUT ./licences/cc_by.png
INPUT ./icons/bonus1.png
INPUT ./icons/bonus1.png
INPUT ./icons/bonus2.png
INPUT ./icons/bonus2.png
INPUT ./licences/cc_by.png
INPUT ./licences/cc_by.png
INPUT ./licences/cc_by.png
INPUT ./licences/cc_by.png
INPUT images/circos_image.png
INPUT ./images/circos_image.png
INPUT ./images/circos_image.png
INPUT ./icons/warning.png
INPUT ./icons/warning.png
INPUT images/circos_ticks.png
INPUT ./images/circos_ticks.png
INPUT ./images/circos_ticks.png
INPUT ./licences/cc_by.png
INPUT ./licences/cc_by.png
INPUT /usr/share/texmf/fonts/tfm/public/lm/ec-lmtk10.tfm
INPUT ./licences/cc_by.png
INPUT ./licences/cc_by.png
INPUT ./icons/warning.png
INPUT ./icons/warning.png
INPUT ./licences/cc_by.png
INPUT ./licences/cc_by.png
INPUT ./licences/cc_by.png
INPUT ./licences/cc_by.png
INPUT ./icons/steps.png
INPUT ./icons/steps.png
INPUT images/circos_link_config.png
INPUT ./images/circos_link_config.png
INPUT ./images/circos_link_config.png
INPUT images/circos_links.png
INPUT ./images/circos_links.png
INPUT ./images/circos_links.png
INPUT ./licences/cc_by.png
INPUT ./licences/cc_by.png
INPUT ./licences/cc_by.png
INPUT ./licences/cc_by.png
INPUT images/circos_bezier_radius.png
INPUT ./images/circos_bezier_radius.png
INPUT ./images/circos_bezier_radius.png
INPUT images/circos_bezier_purity.png
INPUT ./images/circos_bezier_purity.png
INPUT ./images/circos_bezier_purity.png
INPUT images/circos_crest.png
INPUT ./images/circos_crest.png
INPUT ./images/circos_crest.png
INPUT ./icons/bonus1.png
INPUT ./icons/bonus1.png
INPUT ./licences/cc_by.png
INPUT ./licences/cc_by.png
INPUT ./icons/steps.png
INPUT ./icons/steps.png
INPUT /usr/share/texmf/fonts/tfm/public/lm/ec-lmr10.tfm
INPUT /usr/share/texmf/fonts/tfm/public/lm/rm-lmr10.tfm
INPUT /usr/share/texmf/fonts/tfm/public/lm/rm-lmr7.tfm
INPUT /usr/share/texmf/fonts/tfm/public/lm/rm-lmr5.tfm
INPUT /usr/share/texmf/fonts/tfm/public/lm/lmmi10.tfm
INPUT /usr/share/texmf/fonts/tfm/public/lm/lmmi7.tfm
INPUT /usr/share/texmf/fonts/tfm/public/lm/lmmi5.tfm
INPUT /usr/share/texmf/fonts/tfm/public/lm/lmsy10.tfm
INPUT /usr/share/texmf/fonts/tfm/public/lm/lmsy7.tfm
INPUT /usr/share/texmf/fonts/tfm/public/lm/lmsy5.tfm
INPUT /usr/share/texmf/fonts/tfm/public/lm/ec-lmr7.tfm
INPUT images/circos_highlight_format.png
INPUT ./images/circos_highlight_format.png
INPUT ./images/circos_highlight_format.png
INPUT ./licences/cc_by.png
INPUT ./licences/cc_by.png
INPUT ./icons/bonus2.png
INPUT ./icons/bonus2.png
INPUT ./licences/cc_by.png
INPUT ./licences/cc_by.png
INPUT ./licences/cc_by.png
INPUT ./licences/cc_by.png
OUTPUT trainee_circos.toc
INPUT trainee_circos.aux
INPUT ./trainee_circos.out
INPUT ./trainee_circos.out
INPUT /usr/share/texmf/fonts/enc/dvips/lm/lm-ec.enc
INPUT /usr/share/texmf/fonts/enc/dvips/lm/lm-ts1.enc
INPUT /usr/share/texmf/fonts/enc/dvips/lm/lm-mathsy.enc
INPUT /usr/share/texmf/fonts/type1/public/lm/lmbx12.pfb
INPUT /usr/share/texmf/fonts/type1/public/lm/lmbxi10.pfb
INPUT /usr/share/texmf/fonts/type1/public/lm/lmr10.pfb
INPUT /usr/share/texmf/fonts/type1/public/lm/lmr12.pfb
INPUT /usr/share/texmf/fonts/type1/public/lm/lmr17.pfb
INPUT /usr/share/texmf/fonts/type1/public/lm/lmr7.pfb
INPUT /usr/share/texmf/fonts/type1/public/lm/lmr8.pfb
INPUT /usr/share/texmf/fonts/type1/public/lm/lmri10.pfb
INPUT /usr/share/texmf/fonts/type1/public/lm/lmri12.pfb
INPUT /usr/share/texmf/fonts/type1/public/lm/lmro12.pfb
INPUT /usr/share/texmf/fonts/type1/public/lm/lmss17.pfb
INPUT /usr/share/texmf/fonts/type1/public/lm/lmsy10.pfb
INPUT /usr/share/texmf/fonts/type1/public/lm/lmtk10.pfb
INPUT /usr/share/texmf/fonts/type1/public/lm/lmtt10.pfb
INPUT /usr/share/texmf/fonts/type1/public/lm/lmtt12.pfb
INPUT /usr/share/texmf/fonts/type1/public/lm/lmtt8.pfb
