<?xml version="1.0" encoding="utf-8" standalone="no"?>
<!DOCTYPE svg PUBLIC "-//W3C//DTD SVG 1.1//EN" "http://www.w3.org/Graphics/SVG/1.1/DTD/svg11.dtd">
<svg width="2000px" height="2000px" version="1.1" xmlns="http://www.w3.org/2000/svg" xmlns:xlink="http://www.w3.org/1999/xlink">
<g id="ideograms">
<g id="highlighttrack_0">
<path d="M1000.000,180.000 A820.000,820.000 40.000 0,1 1201.525,205.149 L1205.212,190.609 A835.000,835.000 0.000 0,0 1000.000,165.000 Z" style="stroke-width:1.0;stroke:rgb(0,0,0);stroke-linecap:round;fill:rgb(230,46,46);"/>
<path d="M1201.525,205.149 A820.000,820.000 40.000 0,1 1386.675,276.894 L1393.748,263.666 A835.000,835.000 0.000 0,0 1205.212,190.609 Z" style="stroke-width:1.0;stroke:rgb(0,0,0);stroke-linecap:round;fill:rgb(46,168,230);"/>
<path d="M1386.675,276.894 A820.000,820.000 40.000 0,1 1492.888,344.667 L1501.904,332.679 A835.000,835.000 0.000 0,0 1393.748,263.666 Z" style="stroke-width:1.0;stroke:rgb(0,0,0);stroke-linecap:round;fill:rgb(107,230,46);"/>
<path d="M1492.888,344.667 A820.000,820.000 40.000 0,1 1530.858,375.028 L1540.569,363.596 A835.000,835.000 0.000 0,0 1501.904,332.679 Z" style="stroke-width:1.0;stroke:rgb(0,0,0);stroke-linecap:round;fill:rgb(230,46,230);"/>
</g>
<g id="highlighttrack_1">
<path d="M1000.000,160.000 A840.000,840.000 40.000 0,1 1248.390,197.565 L1252.826,183.236 A855.000,855.000 0.000 0,0 1000.000,145.000 Z" style="stroke-width:1.0;stroke:rgb(0,0,0);stroke-linecap:round;fill:rgb(230,46,46);"/>
<path d="M1248.390,197.565 A840.000,840.000 40.000 0,1 1405.681,264.457 L1412.925,251.323 A855.000,855.000 0.000 0,0 1252.826,183.236 Z" style="stroke-width:1.0;stroke:rgb(0,0,0);stroke-linecap:round;fill:rgb(46,168,230);"/>
<path d="M1405.681,264.457 A840.000,840.000 40.000 0,1 1457.732,295.670 L1465.906,283.092 A855.000,855.000 0.000 0,0 1412.925,251.323 Z" style="stroke-width:1.0;stroke:rgb(0,0,0);stroke-linecap:round;fill:rgb(107,230,46);"/>
<path d="M1457.732,295.670 A840.000,840.000 40.000 0,1 1498.668,324.034 L1507.573,311.963 A855.000,855.000 0.000 0,0 1465.906,283.092 Z" style="stroke-width:1.0;stroke:rgb(0,0,0);stroke-linecap:round;fill:rgb(230,46,230);"/>
</g>
<g id="highlighttrack_2">
<path d="M1000.000,140.000 A860.000,860.000 40.000 0,1 1448.409,266.154 L1456.230,253.355 A875.000,875.000 0.000 0,0 1000.000,125.000 Z" style="stroke-width:1.0;stroke:rgb(0,0,0);stroke-linecap:round;fill:rgb(230,46,46);"/>
<path d="M1448.409,266.154 A860.000,860.000 40.000 0,1 1721.369,531.784 L1733.951,523.617 A875.000,875.000 0.000 0,0 1456.230,253.355 Z" style="stroke-width:1.0;stroke:rgb(0,0,0);stroke-linecap:round;fill:rgb(46,168,230);"/>
<path d="M1721.369,531.784 A860.000,860.000 40.000 0,1 1807.964,705.392 L1822.057,700.253 A875.000,875.000 0.000 0,0 1733.951,523.617 Z" style="stroke-width:1.0;stroke:rgb(0,0,0);stroke-linecap:round;fill:rgb(107,230,46);"/>
<path d="M1807.964,705.392 A860.000,860.000 40.000 0,1 1837.146,803.056 L1851.747,799.621 A875.000,875.000 0.000 0,0 1822.057,700.253 Z" style="stroke-width:1.0;stroke:rgb(0,0,0);stroke-linecap:round;fill:rgb(230,46,230);"/>
</g>
<g id="highlighttrack_3">
<path d="M1449.472,470.843 A694.285,694.285 40.000 0,1 1585.844,627.417 L1594.282,622.051 A704.285,704.285 0.000 0,0 1455.945,463.222 Z" style="stroke-width:1.0;stroke:rgb(0,0,0);stroke-linecap:round;fill:rgb(230,46,46);"/>
<path d="M1585.844,627.417 A694.285,694.285 40.000 0,1 1611.218,670.691 L1620.021,665.948 A704.285,704.285 0.000 0,0 1594.282,622.051 Z" style="stroke-width:1.0;stroke:rgb(0,0,0);stroke-linecap:round;fill:rgb(107,230,46);"/>
<path d="M1611.218,670.691 A694.285,694.285 40.000 0,1 1665.225,801.234 L1674.806,798.371 A704.285,704.285 0.000 0,0 1620.021,665.948 Z" style="stroke-width:1.0;stroke:rgb(0,0,0);stroke-linecap:round;fill:rgb(46,168,230);"/>
<path d="M1665.225,801.234 A694.285,694.285 40.000 0,1 1675.835,841.006 L1685.569,838.716 A704.285,704.285 0.000 0,0 1674.806,798.371 Z" style="stroke-width:1.0;stroke:rgb(0,0,0);stroke-linecap:round;fill:rgb(230,46,230);"/>
</g>
<g id="highlighttrack_4">
<path d="M1000.000,295.715 A704.285,704.285 40.000 0,1 1173.087,317.315 L1175.544,307.622 A714.285,714.285 0.000 0,0 1000.000,285.715 Z" style="stroke-width:1.0;stroke:rgb(0,0,0);stroke-linecap:round;fill:rgb(230,46,46);"/>
<path d="M1173.087,317.315 A704.285,704.285 40.000 0,1 1275.628,351.890 L1279.542,342.688 A714.285,714.285 0.000 0,0 1175.544,307.622 Z" style="stroke-width:1.0;stroke:rgb(0,0,0);stroke-linecap:round;fill:rgb(107,230,46);"/>
<path d="M1275.628,351.890 A704.285,704.285 40.000 0,1 1423.333,437.145 L1429.344,429.153 A714.285,714.285 0.000 0,0 1279.542,342.688 Z" style="stroke-width:1.0;stroke:rgb(0,0,0);stroke-linecap:round;fill:rgb(46,168,230);"/>
<path d="M1423.333,437.145 A704.285,704.285 40.000 0,1 1455.945,463.222 L1462.419,455.600 A714.285,714.285 0.000 0,0 1429.344,429.153 Z" style="stroke-width:1.0;stroke:rgb(0,0,0);stroke-linecap:round;fill:rgb(230,46,230);"/>
</g>
<path d="M1000.000,285.000 A715.000,715.000 40.000 0,1 1695.999,836.262 L1730.069,828.247 A750.000,750.000 0.000 0,0 1000.000,250.000 Z" style="stroke-width:1.0;stroke:rgb(0,0,0);stroke-linecap:round;fill:rgb(230,46,230);"/>
<text x="1593.7" y="250.4" font-size="31.2px" font-family="CMUBright-Roman" style="text-anchor:middle;fill:rgb(0,0,0);" transform="rotate(398.4,1593.7,250.4)">D</text>
<line x1='1000.0' y1='249.9' x2='1000.0' y2='243.9' style="stroke-width:3.0;stroke:rgb(0,0,0);stroke-linecap:round;fill:none;"/>
<text x="1007.5" y="241.0" font-size="20.8px" font-family="CMUBright-Roman" style="text-anchor:start;fill:rgb(0,0,0);" transform="rotate(270.0,1007.5,241.0)">0</text>
<line x1='1000.0' y1='124.9' x2='1000.0' y2='118.9' style="stroke-width:3.0;stroke:rgb(0,0,0);stroke-linecap:round;fill:none;"/>
<text x="1009.0" y="116.0" font-size="20.8px" font-family="CMUBright-Roman" style="text-anchor:start;fill:rgb(0,0,0);" transform="rotate(270.0,1009.0,116.0)">0%</text>
<line x1='1023.4' y1='125.2' x2='1023.5' y2='123.2' style="stroke-width:3.0;stroke:rgb(0,0,0);stroke-linecap:round;fill:none;"/>
<line x1='1046.9' y1='126.2' x2='1047.0' y2='124.2' style="stroke-width:3.0;stroke:rgb(0,0,0);stroke-linecap:round;fill:none;"/>
<line x1='1070.3' y1='127.8' x2='1070.4' y2='125.8' style="stroke-width:3.0;stroke:rgb(0,0,0);stroke-linecap:round;fill:none;"/>
<line x1='1069.4' y1='253.1' x2='1069.8' y2='249.2' style="stroke-width:3.0;stroke:rgb(0,0,0);stroke-linecap:round;fill:none;"/>
<line x1='1093.6' y1='129.9' x2='1093.8' y2='128.0' style="stroke-width:3.0;stroke:rgb(0,0,0);stroke-linecap:round;fill:none;"/>
<line x1='1116.9' y1='132.8' x2='1117.7' y2='126.8' style="stroke-width:3.0;stroke:rgb(0,0,0);stroke-linecap:round;fill:none;"/>
<text x="1127.0" y="125.1" font-size="20.8px" font-family="CMUBright-Roman" style="text-anchor:start;fill:rgb(0,0,0);" transform="rotate(277.7,1127.0,125.1)">10%</text>
<line x1='1140.1' y1='136.2' x2='1140.4' y2='134.2' style="stroke-width:3.0;stroke:rgb(0,0,0);stroke-linecap:round;fill:none;"/>
<line x1='1138.2' y1='262.8' x2='1138.9' y2='258.8' style="stroke-width:3.0;stroke:rgb(0,0,0);stroke-linecap:round;fill:none;"/>
<text x="1146.9" y="257.3" font-size="20.8px" font-family="CMUBright-Roman" style="text-anchor:start;fill:rgb(0,0,0);" transform="rotate(280.6,1146.9,257.3)">100</text>
<line x1='1163.2' y1='140.3' x2='1163.5' y2='138.3' style="stroke-width:3.0;stroke:rgb(0,0,0);stroke-linecap:round;fill:none;"/>
<line x1='1186.1' y1='145.0' x2='1186.6' y2='143.0' style="stroke-width:3.0;stroke:rgb(0,0,0);stroke-linecap:round;fill:none;"/>
<line x1='1209.0' y1='150.2' x2='1209.5' y2='148.3' style="stroke-width:3.0;stroke:rgb(0,0,0);stroke-linecap:round;fill:none;"/>
<line x1='1231.7' y1='156.2' x2='1233.3' y2='150.4' style="stroke-width:3.0;stroke:rgb(0,0,0);stroke-linecap:round;fill:none;"/>
<text x="1242.7" y="149.9" font-size="20.8px" font-family="CMUBright-Roman" style="text-anchor:start;fill:rgb(0,0,0);" transform="rotate(285.4,1242.7,149.9)">20%</text>
<line x1='1205.8' y1='278.7' x2='1206.9' y2='274.9' style="stroke-width:3.0;stroke:rgb(0,0,0);stroke-linecap:round;fill:none;"/>
<line x1='1254.2' y1='162.7' x2='1254.8' y2='160.7' style="stroke-width:3.0;stroke:rgb(0,0,0);stroke-linecap:round;fill:none;"/>
<line x1='1276.5' y1='169.8' x2='1277.2' y2='167.9' style="stroke-width:3.0;stroke:rgb(0,0,0);stroke-linecap:round;fill:none;"/>
<line x1='1298.7' y1='177.5' x2='1299.4' y2='175.6' style="stroke-width:3.0;stroke:rgb(0,0,0);stroke-linecap:round;fill:none;"/>
<line x1='1271.7' y1='300.8' x2='1273.1' y2='297.1' style="stroke-width:3.0;stroke:rgb(0,0,0);stroke-linecap:round;fill:none;"/>
<text x="1281.2" y="297.1" font-size="20.8px" font-family="CMUBright-Roman" style="text-anchor:start;fill:rgb(0,0,0);" transform="rotate(291.2,1281.2,297.1)">200</text>
<line x1='1320.6' y1='185.8' x2='1321.4' y2='183.9' style="stroke-width:3.0;stroke:rgb(0,0,0);stroke-linecap:round;fill:none;"/>
<line x1='1342.3' y1='194.7' x2='1344.7' y2='189.1' style="stroke-width:3.0;stroke:rgb(0,0,0);stroke-linecap:round;fill:none;"/>
<text x="1354.1" y="189.9" font-size="20.8px" font-family="CMUBright-Roman" style="text-anchor:start;fill:rgb(0,0,0);" transform="rotate(293.0,1354.1,189.9)">30%</text>
<line x1='1363.8' y1='204.1' x2='1364.6' y2='202.3' style="stroke-width:3.0;stroke:rgb(0,0,0);stroke-linecap:round;fill:none;"/>
<line x1='1385.0' y1='214.2' x2='1385.8' y2='212.4' style="stroke-width:3.0;stroke:rgb(0,0,0);stroke-linecap:round;fill:none;"/>
<line x1='1335.2' y1='329.0' x2='1337.0' y2='325.4' style="stroke-width:3.0;stroke:rgb(0,0,0);stroke-linecap:round;fill:none;"/>
<line x1='1405.9' y1='224.7' x2='1406.8' y2='223.0' style="stroke-width:3.0;stroke:rgb(0,0,0);stroke-linecap:round;fill:none;"/>
<line x1='1426.5' y1='235.9' x2='1427.5' y2='234.2' style="stroke-width:3.0;stroke:rgb(0,0,0);stroke-linecap:round;fill:none;"/>
<line x1='1446.8' y1='247.6' x2='1449.9' y2='242.4' style="stroke-width:3.0;stroke:rgb(0,0,0);stroke-linecap:round;fill:none;"/>
<text x="1459.1" y="244.5" font-size="20.8px" font-family="CMUBright-Roman" style="text-anchor:start;fill:rgb(0,0,0);" transform="rotate(300.7,1459.1,244.5)">40%</text>
<line x1='1395.8' y1='362.9' x2='1397.9' y2='359.5' style="stroke-width:3.0;stroke:rgb(0,0,0);stroke-linecap:round;fill:none;"/>
<text x="1405.9" y="360.9" font-size="20.8px" font-family="CMUBright-Roman" style="text-anchor:start;fill:rgb(0,0,0);" transform="rotate(301.9,1405.9,360.9)">300</text>
<line x1='1466.8' y1='259.8' x2='1467.9' y2='258.2' style="stroke-width:3.0;stroke:rgb(0,0,0);stroke-linecap:round;fill:none;"/>
<line x1='1486.5' y1='272.6' x2='1487.6' y2='271.0' style="stroke-width:3.0;stroke:rgb(0,0,0);stroke-linecap:round;fill:none;"/>
<line x1='1505.8' y1='285.9' x2='1507.0' y2='284.3' style="stroke-width:3.0;stroke:rgb(0,0,0);stroke-linecap:round;fill:none;"/>
<line x1='1524.7' y1='299.7' x2='1525.9' y2='298.1' style="stroke-width:3.0;stroke:rgb(0,0,0);stroke-linecap:round;fill:none;"/>
<line x1='1453.1' y1='402.2' x2='1455.5' y2='399.0' style="stroke-width:3.0;stroke:rgb(0,0,0);stroke-linecap:round;fill:none;"/>
<line x1='1543.3' y1='314.0' x2='1547.0' y2='309.3' style="stroke-width:3.0;stroke:rgb(0,0,0);stroke-linecap:round;fill:none;"/>
<text x="1555.9" y="312.6" font-size="20.8px" font-family="CMUBright-Roman" style="text-anchor:start;fill:rgb(0,0,0);" transform="rotate(308.4,1555.9,312.6)">50%</text>
<line x1='1561.5' y1='328.8' x2='1562.8' y2='327.3' style="stroke-width:3.0;stroke:rgb(0,0,0);stroke-linecap:round;fill:none;"/>
<line x1='1579.3' y1='344.1' x2='1580.6' y2='342.6' style="stroke-width:3.0;stroke:rgb(0,0,0);stroke-linecap:round;fill:none;"/>
<line x1='1506.4' y1='446.7' x2='1509.1' y2='443.8' style="stroke-width:3.0;stroke:rgb(0,0,0);stroke-linecap:round;fill:none;"/>
<text x="1516.7" y="446.6" font-size="20.8px" font-family="CMUBright-Roman" style="text-anchor:start;fill:rgb(0,0,0);" transform="rotate(312.5,1516.7,446.6)">400</text>
<line x1='1596.6' y1='359.9' x2='1598.0' y2='358.4' style="stroke-width:3.0;stroke:rgb(0,0,0);stroke-linecap:round;fill:none;"/>
<line x1='1613.6' y1='376.1' x2='1615.0' y2='374.7' style="stroke-width:3.0;stroke:rgb(0,0,0);stroke-linecap:round;fill:none;"/>
<line x1='1630.1' y1='392.7' x2='1634.4' y2='388.6' style="stroke-width:3.0;stroke:rgb(0,0,0);stroke-linecap:round;fill:none;"/>
<text x="1642.8" y="393.0" font-size="20.8px" font-family="CMUBright-Roman" style="text-anchor:start;fill:rgb(0,0,0);" transform="rotate(316.1,1642.8,393.0)">60%</text>
<line x1='1646.1' y1='409.8' x2='1647.6' y2='408.5' style="stroke-width:3.0;stroke:rgb(0,0,0);stroke-linecap:round;fill:none;"/>
<line x1='1555.5' y1='495.9' x2='1558.4' y2='493.2' style="stroke-width:3.0;stroke:rgb(0,0,0);stroke-linecap:round;fill:none;"/>
<line x1='1661.7' y1='427.4' x2='1663.2' y2='426.1' style="stroke-width:3.0;stroke:rgb(0,0,0);stroke-linecap:round;fill:none;"/>
<line x1='1676.8' y1='445.3' x2='1678.4' y2='444.0' style="stroke-width:3.0;stroke:rgb(0,0,0);stroke-linecap:round;fill:none;"/>
<line x1='1691.4' y1='463.6' x2='1693.0' y2='462.4' style="stroke-width:3.0;stroke:rgb(0,0,0);stroke-linecap:round;fill:none;"/>
<line x1='1599.7' y1='549.5' x2='1604.5' y2='545.9' style="stroke-width:3.0;stroke:rgb(0,0,0);stroke-linecap:round;fill:none;"/>
<text x="1611.4" y="550.1" font-size="20.8px" font-family="CMUBright-Roman" style="text-anchor:start;fill:rgb(0,0,0);" transform="rotate(323.1,1611.4,550.1)">500</text>
<line x1='1705.5' y1='482.4' x2='1710.4' y2='478.8' style="stroke-width:3.0;stroke:rgb(0,0,0);stroke-linecap:round;fill:none;"/>
<text x="1718.1" y="484.3" font-size="20.8px" font-family="CMUBright-Roman" style="text-anchor:start;fill:rgb(0,0,0);" transform="rotate(323.7,1718.1,484.3)">70%</text>
<line x1='1719.2' y1='501.4' x2='1720.8' y2='500.3' style="stroke-width:3.0;stroke:rgb(0,0,0);stroke-linecap:round;fill:none;"/>
<line x1='1732.3' y1='520.9' x2='1733.9' y2='519.8' style="stroke-width:3.0;stroke:rgb(0,0,0);stroke-linecap:round;fill:none;"/>
<line x1='1744.8' y1='540.7' x2='1746.5' y2='539.6' style="stroke-width:3.0;stroke:rgb(0,0,0);stroke-linecap:round;fill:none;"/>
<line x1='1638.8' y1='606.9' x2='1642.2' y2='604.8' style="stroke-width:3.0;stroke:rgb(0,0,0);stroke-linecap:round;fill:none;"/>
<line x1='1756.9' y1='560.8' x2='1758.6' y2='559.8' style="stroke-width:3.0;stroke:rgb(0,0,0);stroke-linecap:round;fill:none;"/>
<line x1='1768.4' y1='581.2' x2='1773.6' y2='578.4' style="stroke-width:3.0;stroke:rgb(0,0,0);stroke-linecap:round;fill:none;"/>
<text x="1780.5" y="584.9" font-size="20.8px" font-family="CMUBright-Roman" style="text-anchor:start;fill:rgb(0,0,0);" transform="rotate(331.4,1780.5,584.9)">80%</text>
<line x1='1779.3' y1='602.0' x2='1781.1' y2='601.1' style="stroke-width:3.0;stroke:rgb(0,0,0);stroke-linecap:round;fill:none;"/>
<line x1='1672.4' y1='667.7' x2='1676.0' y2='665.9' style="stroke-width:3.0;stroke:rgb(0,0,0);stroke-linecap:round;fill:none;"/>
<text x="1682.0" y="671.3" font-size="20.8px" font-family="CMUBright-Roman" style="text-anchor:start;fill:rgb(0,0,0);" transform="rotate(333.7,1682.0,671.3)">600</text>
<line x1='1789.7' y1='623.0' x2='1791.5' y2='622.1' style="stroke-width:3.0;stroke:rgb(0,0,0);stroke-linecap:round;fill:none;"/>
<line x1='1799.5' y1='644.3' x2='1801.3' y2='643.5' style="stroke-width:3.0;stroke:rgb(0,0,0);stroke-linecap:round;fill:none;"/>
<line x1='1808.8' y1='665.8' x2='1810.6' y2='665.1' style="stroke-width:3.0;stroke:rgb(0,0,0);stroke-linecap:round;fill:none;"/>
<line x1='1700.3' y1='731.3' x2='1704.0' y2='729.9' style="stroke-width:3.0;stroke:rgb(0,0,0);stroke-linecap:round;fill:none;"/>
<line x1='1817.4' y1='687.6' x2='1823.0' y2='685.5' style="stroke-width:3.0;stroke:rgb(0,0,0);stroke-linecap:round;fill:none;"/>
<text x="1829.0" y="692.8" font-size="20.8px" font-family="CMUBright-Roman" style="text-anchor:start;fill:rgb(0,0,0);" transform="rotate(339.1,1829.0,692.8)">90%</text>
<line x1='1825.5' y1='709.6' x2='1827.4' y2='709.0' style="stroke-width:3.0;stroke:rgb(0,0,0);stroke-linecap:round;fill:none;"/>
<line x1='1833.0' y1='731.9' x2='1834.9' y2='731.2' style="stroke-width:3.0;stroke:rgb(0,0,0);stroke-linecap:round;fill:none;"/>
<line x1='1839.9' y1='754.3' x2='1841.8' y2='753.7' style="stroke-width:3.0;stroke:rgb(0,0,0);stroke-linecap:round;fill:none;"/>
<line x1='1722.2' y1='797.3' x2='1726.0' y2='796.2' style="stroke-width:3.0;stroke:rgb(0,0,0);stroke-linecap:round;fill:none;"/>
<text x="1730.9" y="802.6" font-size="20.8px" font-family="CMUBright-Roman" style="text-anchor:start;fill:rgb(0,0,0);" transform="rotate(344.3,1730.9,802.6)">700</text>
<line x1='1846.1' y1='776.9' x2='1848.1' y2='776.3' style="stroke-width:3.0;stroke:rgb(0,0,0);stroke-linecap:round;fill:none;"/>
<line x1='1851.8' y1='799.6' x2='1857.7' y2='798.2' style="stroke-width:3.0;stroke:rgb(0,0,0);stroke-linecap:round;fill:none;"/>
<text x="1862.6" y="806.3" font-size="20.8px" font-family="CMUBright-Roman" style="text-anchor:start;fill:rgb(0,0,0);" transform="rotate(346.8,1862.6,806.3)">100%</text>
<g id="highlighttrack_0">
</g>
<g id="highlighttrack_1">
</g>
<g id="highlighttrack_2">
</g>
<g id="highlighttrack_3">
</g>
<g id="highlighttrack_4">
</g>
<path d="M1000.000,285.000 A715.000,715.000 40.000 0,1 1695.999,836.262 L1730.069,828.247 A750.000,750.000 0.000 0,0 1000.000,250.000 Z" style="stroke-width:1.0;stroke:rgb(0,0,0);stroke-linecap:round;fill:none;"/>
<g id="highlighttrack_0">
<path d="M1806.241,850.413 A820.000,820.000 40.000 0,1 1819.830,1016.713 L1834.827,1017.019 A835.000,835.000 0.000 0,0 1820.989,847.677 Z" style="stroke-width:1.0;stroke:rgb(0,0,0);stroke-linecap:round;fill:rgb(230,46,230);"/>
<path d="M1819.830,1016.713 A820.000,820.000 40.000 0,1 1803.634,1163.011 L1818.334,1165.993 A835.000,835.000 0.000 0,0 1834.827,1017.019 Z" style="stroke-width:1.0;stroke:rgb(0,0,0);stroke-linecap:round;fill:rgb(46,168,230);"/>
<path d="M1803.634,1163.011 A820.000,820.000 40.000 0,1 1762.106,1302.645 L1776.047,1308.181 A835.000,835.000 0.000 0,0 1818.334,1165.993 Z" style="stroke-width:1.0;stroke:rgb(0,0,0);stroke-linecap:round;fill:rgb(107,230,46);"/>
<path d="M1762.106,1302.645 A820.000,820.000 40.000 0,1 1728.061,1377.263 L1741.379,1384.164 A835.000,835.000 0.000 0,0 1776.047,1308.181 Z" style="stroke-width:1.0;stroke:rgb(0,0,0);stroke-linecap:round;fill:rgb(230,46,46);"/>
</g>
<g id="highlighttrack_1">
<path d="M1825.905,846.765 A840.000,840.000 40.000 0,1 1838.524,1049.780 L1853.497,1050.669 A855.000,855.000 0.000 0,0 1840.653,844.028 Z" style="stroke-width:1.0;stroke:rgb(0,0,0);stroke-linecap:round;fill:rgb(230,46,230);"/>
<path d="M1838.524,1049.780 A840.000,840.000 40.000 0,1 1816.115,1198.888 L1830.688,1202.439 A855.000,855.000 0.000 0,0 1853.497,1050.669 Z" style="stroke-width:1.0;stroke:rgb(0,0,0);stroke-linecap:round;fill:rgb(46,168,230);"/>
<path d="M1816.115,1198.888 A840.000,840.000 40.000 0,1 1776.013,1321.566 L1789.870,1327.308 A855.000,855.000 0.000 0,0 1830.688,1202.439 Z" style="stroke-width:1.0;stroke:rgb(0,0,0);stroke-linecap:round;fill:rgb(230,46,46);"/>
<path d="M1776.013,1321.566 A840.000,840.000 40.000 0,1 1734.790,1407.043 L1747.911,1414.312 A855.000,855.000 0.000 0,0 1789.870,1327.308 Z" style="stroke-width:1.0;stroke:rgb(0,0,0);stroke-linecap:round;fill:rgb(107,230,46);"/>
</g>
<g id="highlighttrack_2">
<path d="M1845.569,843.116 A860.000,860.000 40.000 0,1 1830.399,1223.690 L1844.883,1227.591 A875.000,875.000 0.000 0,0 1860.318,840.380 Z" style="stroke-width:1.0;stroke:rgb(0,0,0);stroke-linecap:round;fill:rgb(230,46,230);"/>
<path d="M1830.399,1223.690 A860.000,860.000 40.000 0,1 1698.625,1501.521 L1710.810,1510.269 A875.000,875.000 0.000 0,0 1844.883,1227.591 Z" style="stroke-width:1.0;stroke:rgb(0,0,0);stroke-linecap:round;fill:rgb(46,168,230);"/>
<path d="M1698.625,1501.521 A860.000,860.000 40.000 0,1 1525.411,1680.840 L1534.576,1692.715 A875.000,875.000 0.000 0,0 1710.810,1510.269 Z" style="stroke-width:1.0;stroke:rgb(0,0,0);stroke-linecap:round;fill:rgb(107,230,46);"/>
<path d="M1525.411,1680.840 A860.000,860.000 40.000 0,1 1337.580,1790.974 L1343.468,1804.770 A875.000,875.000 0.000 0,0 1534.576,1692.715 Z" style="stroke-width:1.0;stroke:rgb(0,0,0);stroke-linecap:round;fill:rgb(230,46,46);"/>
</g>
<g id="highlighttrack_3">
<path d="M1616.441,1319.425 A694.285,694.285 40.000 0,1 1560.230,1410.090 L1568.299,1415.997 A704.285,704.285 0.000 0,0 1625.320,1324.025 Z" style="stroke-width:1.0;stroke:rgb(0,0,0);stroke-linecap:round;fill:rgb(230,46,46);"/>
<path d="M1560.230,1410.090 A694.285,694.285 40.000 0,1 1510.399,1470.664 L1517.750,1477.443 A704.285,704.285 0.000 0,0 1568.299,1415.997 Z" style="stroke-width:1.0;stroke:rgb(0,0,0);stroke-linecap:round;fill:rgb(107,230,46);"/>
<path d="M1510.399,1470.664 A694.285,694.285 40.000 0,1 1418.032,1554.329 L1424.053,1562.314 A704.285,704.285 0.000 0,0 1517.750,1477.443 Z" style="stroke-width:1.0;stroke:rgb(0,0,0);stroke-linecap:round;fill:rgb(46,168,230);"/>
<path d="M1418.032,1554.329 A694.285,694.285 40.000 0,1 1272.531,1638.560 L1276.457,1647.757 A704.285,704.285 0.000 0,0 1424.053,1562.314 Z" style="stroke-width:1.0;stroke:rgb(0,0,0);stroke-linecap:round;fill:rgb(230,46,230);"/>
</g>
<g id="highlighttrack_4">
<path d="M1692.467,871.522 A704.285,704.285 40.000 0,1 1701.838,941.340 L1711.803,940.507 A714.285,714.285 0.000 0,0 1702.299,869.698 Z" style="stroke-width:1.0;stroke:rgb(0,0,0);stroke-linecap:round;fill:rgb(230,46,46);"/>
<path d="M1701.838,941.340 A704.285,704.285 40.000 0,1 1701.142,1066.459 L1711.098,1067.403 A714.285,714.285 0.000 0,0 1711.803,940.507 Z" style="stroke-width:1.0;stroke:rgb(0,0,0);stroke-linecap:round;fill:rgb(107,230,46);"/>
<path d="M1701.142,1066.459 A704.285,704.285 40.000 0,1 1677.965,1190.737 L1687.591,1193.445 A714.285,714.285 0.000 0,0 1711.098,1067.403 Z" style="stroke-width:1.0;stroke:rgb(0,0,0);stroke-linecap:round;fill:rgb(46,168,230);"/>
<path d="M1677.965,1190.737 A704.285,704.285 40.000 0,1 1625.320,1324.025 L1634.199,1328.626 A714.285,714.285 0.000 0,0 1687.591,1193.445 Z" style="stroke-width:1.0;stroke:rgb(0,0,0);stroke-linecap:round;fill:rgb(230,46,230);"/>
</g>
<path d="M1703.002,869.568 A715.000,715.000 40.000 0,1 1280.663,1657.612 L1294.401,1689.803 A750.000,750.000 0.000 0,0 1737.415,863.183 Z" style="stroke-width:1.0;stroke:rgb(0,0,0);stroke-linecap:round;fill:rgb(46,168,230);"/>
<text x="1864.0" y="1463.0" font-size="31.2px" font-family="CMUBright-Roman" style="text-anchor:middle;fill:rgb(0,0,0);" transform="rotate(-61.8,1864.0,1463.0)">C</text>
<line x1='1737.5' y1='863.2' x2='1743.4' y2='862.1' style="stroke-width:3.0;stroke:rgb(0,0,0);stroke-linecap:round;fill:none;"/>
<text x="1747.7" y="868.9" font-size="20.8px" font-family="CMUBright-Roman" style="text-anchor:start;fill:rgb(0,0,0);" transform="rotate(349.5,1747.7,868.9)">0</text>
<line x1='1860.4' y1='840.4' x2='1866.3' y2='839.3' style="stroke-width:3.0;stroke:rgb(0,0,0);stroke-linecap:round;fill:none;"/>
<text x="1870.8" y="847.6" font-size="20.8px" font-family="CMUBright-Roman" style="text-anchor:start;fill:rgb(0,0,0);" transform="rotate(349.5,1870.8,847.6)">0%</text>
<line x1='1864.4' y1='863.7' x2='1866.4' y2='863.4' style="stroke-width:3.0;stroke:rgb(0,0,0);stroke-linecap:round;fill:none;"/>
<line x1='1867.8' y1='887.1' x2='1869.7' y2='886.8' style="stroke-width:3.0;stroke:rgb(0,0,0);stroke-linecap:round;fill:none;"/>
<line x1='1870.5' y1='910.6' x2='1872.5' y2='910.3' style="stroke-width:3.0;stroke:rgb(0,0,0);stroke-linecap:round;fill:none;"/>
<line x1='1747.0' y1='932.0' x2='1751.0' y2='931.6' style="stroke-width:3.0;stroke:rgb(0,0,0);stroke-linecap:round;fill:none;"/>
<line x1='1872.6' y1='934.1' x2='1874.6' y2='933.9' style="stroke-width:3.0;stroke:rgb(0,0,0);stroke-linecap:round;fill:none;"/>
<line x1='1874.1' y1='957.7' x2='1880.0' y2='957.4' style="stroke-width:3.0;stroke:rgb(0,0,0);stroke-linecap:round;fill:none;"/>
<text x="1883.4" y="966.3" font-size="20.8px" font-family="CMUBright-Roman" style="text-anchor:start;fill:rgb(0,0,0);" transform="rotate(357.2,1883.4,966.3)">10%</text>
<line x1='1874.9' y1='981.3' x2='1876.9' y2='981.3' style="stroke-width:3.0;stroke:rgb(0,0,0);stroke-linecap:round;fill:none;"/>
<line x1='1750.1' y1='1001.4' x2='1754.1' y2='1001.4' style="stroke-width:3.0;stroke:rgb(0,0,0);stroke-linecap:round;fill:none;"/>
<text x="1757.0" y="1008.9" font-size="20.8px" font-family="CMUBright-Roman" style="text-anchor:start;fill:rgb(0,0,0);" transform="rotate(0.1,1757.0,1008.9)">100</text>
<line x1='1875.1' y1='1005.0' x2='1877.1' y2='1005.0' style="stroke-width:3.0;stroke:rgb(0,0,0);stroke-linecap:round;fill:none;"/>
<line x1='1874.6' y1='1028.6' x2='1876.6' y2='1028.7' style="stroke-width:3.0;stroke:rgb(0,0,0);stroke-linecap:round;fill:none;"/>
<line x1='1873.5' y1='1052.2' x2='1875.5' y2='1052.3' style="stroke-width:3.0;stroke:rgb(0,0,0);stroke-linecap:round;fill:none;"/>
<line x1='1871.8' y1='1075.8' x2='1877.8' y2='1076.3' style="stroke-width:3.0;stroke:rgb(0,0,0);stroke-linecap:round;fill:none;"/>
<text x="1879.9" y="1085.5" font-size="20.8px" font-family="CMUBright-Roman" style="text-anchor:start;fill:rgb(0,0,0);" transform="rotate(5.0,1879.9,1085.5)">20%</text>
<line x1='1746.7' y1='1070.8' x2='1750.7' y2='1071.2' style="stroke-width:3.0;stroke:rgb(0,0,0);stroke-linecap:round;fill:none;"/>
<line x1='1869.4' y1='1099.3' x2='1871.4' y2='1099.5' style="stroke-width:3.0;stroke:rgb(0,0,0);stroke-linecap:round;fill:none;"/>
<line x1='1866.4' y1='1122.8' x2='1868.4' y2='1123.0' style="stroke-width:3.0;stroke:rgb(0,0,0);stroke-linecap:round;fill:none;"/>
<line x1='1862.8' y1='1146.1' x2='1864.8' y2='1146.5' style="stroke-width:3.0;stroke:rgb(0,0,0);stroke-linecap:round;fill:none;"/>
<line x1='1737.0' y1='1139.6' x2='1740.9' y2='1140.3' style="stroke-width:3.0;stroke:rgb(0,0,0);stroke-linecap:round;fill:none;"/>
<text x="1742.4" y="1148.2" font-size="20.8px" font-family="CMUBright-Roman" style="text-anchor:start;fill:rgb(0,0,0);" transform="rotate(10.7,1742.4,1148.2)">200</text>
<line x1='1858.5' y1='1169.4' x2='1860.5' y2='1169.8' style="stroke-width:3.0;stroke:rgb(0,0,0);stroke-linecap:round;fill:none;"/>
<line x1='1853.6' y1='1192.5' x2='1859.5' y2='1193.8' style="stroke-width:3.0;stroke:rgb(0,0,0);stroke-linecap:round;fill:none;"/>
<text x="1860.4" y="1203.3" font-size="20.8px" font-family="CMUBright-Roman" style="text-anchor:start;fill:rgb(0,0,0);" transform="rotate(12.7,1860.4,1203.3)">30%</text>
<line x1='1848.1' y1='1215.5' x2='1850.1' y2='1216.0' style="stroke-width:3.0;stroke:rgb(0,0,0);stroke-linecap:round;fill:none;"/>
<line x1='1842.0' y1='1238.3' x2='1843.9' y2='1238.9' style="stroke-width:3.0;stroke:rgb(0,0,0);stroke-linecap:round;fill:none;"/>
<line x1='1720.9' y1='1207.1' x2='1724.7' y2='1208.3' style="stroke-width:3.0;stroke:rgb(0,0,0);stroke-linecap:round;fill:none;"/>
<line x1='1835.2' y1='1261.0' x2='1837.2' y2='1261.6' style="stroke-width:3.0;stroke:rgb(0,0,0);stroke-linecap:round;fill:none;"/>
<line x1='1827.9' y1='1283.5' x2='1829.8' y2='1284.1' style="stroke-width:3.0;stroke:rgb(0,0,0);stroke-linecap:round;fill:none;"/>
<line x1='1819.9' y1='1305.7' x2='1825.6' y2='1307.8' style="stroke-width:3.0;stroke:rgb(0,0,0);stroke-linecap:round;fill:none;"/>
<text x="1825.2" y="1317.3" font-size="20.8px" font-family="CMUBright-Roman" style="text-anchor:start;fill:rgb(0,0,0);" transform="rotate(20.4,1825.2,1317.3)">40%</text>
<line x1='1698.6' y1='1273.0' x2='1702.4' y2='1274.4' style="stroke-width:3.0;stroke:rgb(0,0,0);stroke-linecap:round;fill:none;"/>
<text x="1702.4" y="1282.5" font-size="20.8px" font-family="CMUBright-Roman" style="text-anchor:start;fill:rgb(0,0,0);" transform="rotate(21.3,1702.4,1282.5)">300</text>
<line x1='1811.4' y1='1327.8' x2='1813.2' y2='1328.5' style="stroke-width:3.0;stroke:rgb(0,0,0);stroke-linecap:round;fill:none;"/>
<line x1='1802.2' y1='1349.6' x2='1804.1' y2='1350.4' style="stroke-width:3.0;stroke:rgb(0,0,0);stroke-linecap:round;fill:none;"/>
<line x1='1792.5' y1='1371.1' x2='1794.3' y2='1371.9' style="stroke-width:3.0;stroke:rgb(0,0,0);stroke-linecap:round;fill:none;"/>
<line x1='1782.2' y1='1392.4' x2='1784.0' y2='1393.3' style="stroke-width:3.0;stroke:rgb(0,0,0);stroke-linecap:round;fill:none;"/>
<line x1='1670.4' y1='1336.4' x2='1674.0' y2='1338.2' style="stroke-width:3.0;stroke:rgb(0,0,0);stroke-linecap:round;fill:none;"/>
<line x1='1771.3' y1='1413.4' x2='1776.6' y2='1416.2' style="stroke-width:3.0;stroke:rgb(0,0,0);stroke-linecap:round;fill:none;"/>
<text x="1774.9" y="1425.5" font-size="20.8px" font-family="CMUBright-Roman" style="text-anchor:start;fill:rgb(0,0,0);" transform="rotate(28.2,1774.9,1425.5)">50%</text>
<line x1='1759.8' y1='1434.0' x2='1761.6' y2='1435.0' style="stroke-width:3.0;stroke:rgb(0,0,0);stroke-linecap:round;fill:none;"/>
<line x1='1747.8' y1='1454.4' x2='1749.5' y2='1455.5' style="stroke-width:3.0;stroke:rgb(0,0,0);stroke-linecap:round;fill:none;"/>
<line x1='1636.4' y1='1397.0' x2='1639.8' y2='1399.1' style="stroke-width:3.0;stroke:rgb(0,0,0);stroke-linecap:round;fill:none;"/>
<text x="1638.3" y="1407.1" font-size="20.8px" font-family="CMUBright-Roman" style="text-anchor:start;fill:rgb(0,0,0);" transform="rotate(32.0,1638.3,1407.1)">400</text>
<line x1='1735.3' y1='1474.4' x2='1737.0' y2='1475.5' style="stroke-width:3.0;stroke:rgb(0,0,0);stroke-linecap:round;fill:none;"/>
<line x1='1722.2' y1='1494.1' x2='1723.9' y2='1495.3' style="stroke-width:3.0;stroke:rgb(0,0,0);stroke-linecap:round;fill:none;"/>
<line x1='1708.6' y1='1513.5' x2='1713.5' y2='1517.0' style="stroke-width:3.0;stroke:rgb(0,0,0);stroke-linecap:round;fill:none;"/>
<text x="1710.6" y="1526.0" font-size="20.8px" font-family="CMUBright-Roman" style="text-anchor:start;fill:rgb(0,0,0);" transform="rotate(35.9,1710.6,1526.0)">60%</text>
<line x1='1596.9' y1='1454.2' x2='1600.1' y2='1456.6' style="stroke-width:3.0;stroke:rgb(0,0,0);stroke-linecap:round;fill:none;"/>
<line x1='1694.5' y1='1532.4' x2='1696.1' y2='1533.6' style="stroke-width:3.0;stroke:rgb(0,0,0);stroke-linecap:round;fill:none;"/>
<line x1='1679.8' y1='1551.0' x2='1681.4' y2='1552.2' style="stroke-width:3.0;stroke:rgb(0,0,0);stroke-linecap:round;fill:none;"/>
<line x1='1664.7' y1='1569.2' x2='1666.2' y2='1570.5' style="stroke-width:3.0;stroke:rgb(0,0,0);stroke-linecap:round;fill:none;"/>
<line x1='1649.1' y1='1586.9' x2='1650.6' y2='1588.2' style="stroke-width:3.0;stroke:rgb(0,0,0);stroke-linecap:round;fill:none;"/>
<line x1='1552.4' y1='1507.5' x2='1556.8' y2='1511.5' style="stroke-width:3.0;stroke:rgb(0,0,0);stroke-linecap:round;fill:none;"/>
<text x="1553.9" y="1519.0" font-size="20.8px" font-family="CMUBright-Roman" style="text-anchor:start;fill:rgb(0,0,0);" transform="rotate(42.6,1553.9,1519.0)">500</text>
<line x1='1633.0' y1='1604.2' x2='1637.3' y2='1608.4' style="stroke-width:3.0;stroke:rgb(0,0,0);stroke-linecap:round;fill:none;"/>
<text x="1633.2" y="1616.9" font-size="20.8px" font-family="CMUBright-Roman" style="text-anchor:start;fill:rgb(0,0,0);" transform="rotate(43.7,1633.2,1616.9)">70%</text>
<line x1='1616.4' y1='1621.1' x2='1617.8' y2='1622.5' style="stroke-width:3.0;stroke:rgb(0,0,0);stroke-linecap:round;fill:none;"/>
<line x1='1599.4' y1='1637.5' x2='1600.8' y2='1639.0' style="stroke-width:3.0;stroke:rgb(0,0,0);stroke-linecap:round;fill:none;"/>
<line x1='1503.0' y1='1556.4' x2='1505.7' y2='1559.4' style="stroke-width:3.0;stroke:rgb(0,0,0);stroke-linecap:round;fill:none;"/>
<line x1='1582.0' y1='1653.5' x2='1583.3' y2='1655.0' style="stroke-width:3.0;stroke:rgb(0,0,0);stroke-linecap:round;fill:none;"/>
<line x1='1564.1' y1='1669.0' x2='1565.4' y2='1670.5' style="stroke-width:3.0;stroke:rgb(0,0,0);stroke-linecap:round;fill:none;"/>
<line x1='1545.8' y1='1684.0' x2='1549.6' y2='1688.7' style="stroke-width:3.0;stroke:rgb(0,0,0);stroke-linecap:round;fill:none;"/>
<text x="1544.4" y="1696.6" font-size="20.8px" font-family="CMUBright-Roman" style="text-anchor:start;fill:rgb(0,0,0);" transform="rotate(51.4,1544.4,1696.6)">80%</text>
<line x1='1527.2' y1='1698.5' x2='1528.4' y2='1700.1' style="stroke-width:3.0;stroke:rgb(0,0,0);stroke-linecap:round;fill:none;"/>
<line x1='1449.4' y1='1600.5' x2='1451.8' y2='1603.7' style="stroke-width:3.0;stroke:rgb(0,0,0);stroke-linecap:round;fill:none;"/>
<text x="1447.6" y="1610.6" font-size="20.8px" font-family="CMUBright-Roman" style="text-anchor:start;fill:rgb(0,0,0);" transform="rotate(53.2,1447.6,1610.6)">600</text>
<line x1='1508.1' y1='1712.4' x2='1509.3' y2='1714.1' style="stroke-width:3.0;stroke:rgb(0,0,0);stroke-linecap:round;fill:none;"/>
<line x1='1488.7' y1='1725.9' x2='1489.8' y2='1727.6' style="stroke-width:3.0;stroke:rgb(0,0,0);stroke-linecap:round;fill:none;"/>
<line x1='1468.9' y1='1738.8' x2='1470.0' y2='1740.5' style="stroke-width:3.0;stroke:rgb(0,0,0);stroke-linecap:round;fill:none;"/>
<line x1='1391.9' y1='1639.5' x2='1394.0' y2='1643.0' style="stroke-width:3.0;stroke:rgb(0,0,0);stroke-linecap:round;fill:none;"/>
<line x1='1448.8' y1='1751.2' x2='1451.8' y2='1756.4' style="stroke-width:3.0;stroke:rgb(0,0,0);stroke-linecap:round;fill:none;"/>
<text x="1445.6" y="1763.5" font-size="20.8px" font-family="CMUBright-Roman" style="text-anchor:start;fill:rgb(0,0,0);" transform="rotate(59.1,1445.6,1763.5)">90%</text>
<line x1='1428.3' y1='1763.1' x2='1429.3' y2='1764.8' style="stroke-width:3.0;stroke:rgb(0,0,0);stroke-linecap:round;fill:none;"/>
<line x1='1407.5' y1='1774.4' x2='1408.5' y2='1776.2' style="stroke-width:3.0;stroke:rgb(0,0,0);stroke-linecap:round;fill:none;"/>
<line x1='1386.5' y1='1785.1' x2='1387.3' y2='1786.9' style="stroke-width:3.0;stroke:rgb(0,0,0);stroke-linecap:round;fill:none;"/>
<line x1='1331.1' y1='1673.1' x2='1332.8' y2='1676.7' style="stroke-width:3.0;stroke:rgb(0,0,0);stroke-linecap:round;fill:none;"/>
<text x="1327.4" y="1682.6" font-size="20.8px" font-family="CMUBright-Roman" style="text-anchor:start;fill:rgb(0,0,0);" transform="rotate(63.8,1327.4,1682.6)">700</text>
<line x1='1365.1' y1='1795.3' x2='1365.9' y2='1797.1' style="stroke-width:3.0;stroke:rgb(0,0,0);stroke-linecap:round;fill:none;"/>
<line x1='1343.5' y1='1804.8' x2='1345.9' y2='1810.4' style="stroke-width:3.0;stroke:rgb(0,0,0);stroke-linecap:round;fill:none;"/>
<text x="1338.7" y="1816.6" font-size="20.8px" font-family="CMUBright-Roman" style="text-anchor:start;fill:rgb(0,0,0);" transform="rotate(66.9,1338.7,1816.6)">100%</text>
<g id="highlighttrack_0">
</g>
<g id="highlighttrack_1">
</g>
<g id="highlighttrack_2">
</g>
<g id="highlighttrack_3">
</g>
<g id="highlighttrack_4">
</g>
<path d="M1703.002,869.568 A715.000,715.000 40.000 0,1 1280.663,1657.612 L1294.401,1689.803 A750.000,750.000 0.000 0,0 1737.415,863.183 Z" style="stroke-width:1.0;stroke:rgb(0,0,0);stroke-linecap:round;fill:none;"/>
<g id="highlighttrack_0">
<path d="M1285.625,1768.647 A820.000,820.000 40.000 0,1 1062.239,1817.635 L1063.378,1832.591 A835.000,835.000 0.000 0,0 1290.850,1782.708 Z" style="stroke-width:1.0;stroke:rgb(0,0,0);stroke-linecap:round;fill:rgb(107,230,46);"/>
<path d="M1062.239,1817.635 A820.000,820.000 40.000 0,1 853.402,1806.789 L850.721,1821.548 A835.000,835.000 0.000 0,0 1063.378,1832.591 Z" style="stroke-width:1.0;stroke:rgb(0,0,0);stroke-linecap:round;fill:rgb(230,46,46);"/>
<path d="M853.402,1806.789 A820.000,820.000 40.000 0,1 763.336,1785.105 L759.007,1799.467 A835.000,835.000 0.000 0,0 850.721,1821.548 Z" style="stroke-width:1.0;stroke:rgb(0,0,0);stroke-linecap:round;fill:rgb(46,168,230);"/>
<path d="M763.336,1785.105 A820.000,820.000 40.000 0,1 707.265,1765.968 L701.911,1779.979 A835.000,835.000 0.000 0,0 759.007,1799.467 Z" style="stroke-width:1.0;stroke:rgb(0,0,0);stroke-linecap:round;fill:rgb(230,46,230);"/>
</g>
<g id="highlighttrack_1">
<path d="M1292.592,1787.394 A840.000,840.000 40.000 0,1 1063.757,1837.577 L1064.896,1852.534 A855.000,855.000 0.000 0,0 1297.817,1801.455 Z" style="stroke-width:1.0;stroke:rgb(0,0,0);stroke-linecap:round;fill:rgb(107,230,46);"/>
<path d="M1063.757,1837.577 A840.000,840.000 40.000 0,1 912.990,1835.481 L911.436,1850.401 A855.000,855.000 0.000 0,0 1064.896,1852.534 Z" style="stroke-width:1.0;stroke:rgb(0,0,0);stroke-linecap:round;fill:rgb(230,46,46);"/>
<path d="M912.990,1835.481 A840.000,840.000 40.000 0,1 766.521,1806.900 L762.352,1821.309 A855.000,855.000 0.000 0,0 911.436,1850.401 Z" style="stroke-width:1.0;stroke:rgb(0,0,0);stroke-linecap:round;fill:rgb(46,168,230);"/>
<path d="M766.521,1806.900 A840.000,840.000 40.000 0,1 645.663,1761.607 L639.336,1775.207 A855.000,855.000 0.000 0,0 762.352,1821.309 Z" style="stroke-width:1.0;stroke:rgb(0,0,0);stroke-linecap:round;fill:rgb(230,46,230);"/>
</g>
<g id="highlighttrack_2">
<path d="M1299.558,1806.142 A860.000,860.000 40.000 0,1 825.915,1842.196 L822.878,1856.886 A875.000,875.000 0.000 0,0 1304.783,1820.203 Z" style="stroke-width:1.0;stroke:rgb(0,0,0);stroke-linecap:round;fill:rgb(107,230,46);"/>
<path d="M825.915,1842.196 A860.000,860.000 40.000 0,1 486.898,1690.164 L477.948,1702.202 A875.000,875.000 0.000 0,0 822.878,1856.886 Z" style="stroke-width:1.0;stroke:rgb(0,0,0);stroke-linecap:round;fill:rgb(230,46,46);"/>
<path d="M486.898,1690.164 A860.000,860.000 40.000 0,1 310.493,1513.984 L298.467,1522.949 A875.000,875.000 0.000 0,0 477.948,1702.202 Z" style="stroke-width:1.0;stroke:rgb(0,0,0);stroke-linecap:round;fill:rgb(46,168,230);"/>
<path d="M310.493,1513.984 A860.000,860.000 40.000 0,1 212.828,1346.353 L199.099,1352.394 A875.000,875.000 0.000 0,0 298.467,1522.949 Z" style="stroke-width:1.0;stroke:rgb(0,0,0);stroke-linecap:round;fill:rgb(230,46,230);"/>
</g>
<g id="highlighttrack_3">
<path d="M752.145,1648.536 A694.285,694.285 40.000 0,1 640.194,1593.777 L635.012,1602.330 A704.285,704.285 0.000 0,0 748.575,1657.877 Z" style="stroke-width:1.0;stroke:rgb(0,0,0);stroke-linecap:round;fill:rgb(230,46,46);"/>
<path d="M640.194,1593.777 A694.285,694.285 40.000 0,1 490.203,1471.316 L482.861,1478.105 A704.285,704.285 0.000 0,0 635.012,1602.330 Z" style="stroke-width:1.0;stroke:rgb(0,0,0);stroke-linecap:round;fill:rgb(107,230,46);"/>
<path d="M490.203,1471.316 A694.285,694.285 40.000 0,1 414.847,1373.668 L406.419,1379.050 A704.285,704.285 0.000 0,0 482.861,1478.105 Z" style="stroke-width:1.0;stroke:rgb(0,0,0);stroke-linecap:round;fill:rgb(46,168,230);"/>
<path d="M414.847,1373.668 A694.285,694.285 40.000 0,1 364.510,1279.614 L355.357,1283.641 A704.285,704.285 0.000 0,0 406.419,1379.050 Z" style="stroke-width:1.0;stroke:rgb(0,0,0);stroke-linecap:round;fill:rgb(230,46,230);"/>
</g>
<g id="highlighttrack_4">
<path d="M1245.319,1660.179 A704.285,704.285 40.000 0,1 1070.356,1700.762 L1071.355,1710.712 A714.285,714.285 0.000 0,0 1248.802,1669.552 Z" style="stroke-width:1.0;stroke:rgb(0,0,0);stroke-linecap:round;fill:rgb(230,46,46);"/>
<path d="M1070.356,1700.762 A704.285,704.285 40.000 0,1 874.090,1692.939 L872.302,1702.777 A714.285,714.285 0.000 0,0 1071.355,1710.712 Z" style="stroke-width:1.0;stroke:rgb(0,0,0);stroke-linecap:round;fill:rgb(107,230,46);"/>
<path d="M874.090,1692.939 A704.285,704.285 40.000 0,1 796.733,1674.315 L793.847,1683.889 A714.285,714.285 0.000 0,0 872.302,1702.777 Z" style="stroke-width:1.0;stroke:rgb(0,0,0);stroke-linecap:round;fill:rgb(46,168,230);"/>
<path d="M796.733,1674.315 A704.285,704.285 40.000 0,1 748.575,1657.877 L745.005,1667.219 A714.285,714.285 0.000 0,0 793.847,1683.889 Z" style="stroke-width:1.0;stroke:rgb(0,0,0);stroke-linecap:round;fill:rgb(230,46,230);"/>
</g>
<path d="M1249.051,1670.223 A715.000,715.000 40.000 0,1 345.549,1287.957 L313.513,1302.052 A750.000,750.000 0.000 0,0 1261.243,1703.031 Z" style="stroke-width:1.0;stroke:rgb(0,0,0);stroke-linecap:round;fill:rgb(107,230,46);"/>
<text x="618.4" y="1901.9" font-size="31.2px" font-family="CMUBright-Roman" style="text-anchor:middle;fill:rgb(0,0,0);" transform="rotate(22.9,618.4,1901.9)">B</text>
<line x1='1261.3' y1='1703.1' x2='1263.4' y2='1708.7' style="stroke-width:3.0;stroke:rgb(0,0,0);stroke-linecap:round;fill:none;"/>
<text x="1257.4" y="1714.1" font-size="20.8px" font-family="CMUBright-Roman" style="text-anchor:start;fill:rgb(0,0,0);" transform="rotate(69.6,1257.4,1714.1)">0</text>
<line x1='1304.8' y1='1820.3' x2='1306.9' y2='1825.9' style="stroke-width:3.0;stroke:rgb(0,0,0);stroke-linecap:round;fill:none;"/>
<text x="1299.5" y="1831.8" font-size="20.8px" font-family="CMUBright-Roman" style="text-anchor:start;fill:rgb(0,0,0);" transform="rotate(69.6,1299.5,1831.8)">0%</text>
<line x1='1279.9' y1='1829.1' x2='1280.5' y2='1831.0' style="stroke-width:3.0;stroke:rgb(0,0,0);stroke-linecap:round;fill:none;"/>
<line x1='1254.7' y1='1837.2' x2='1255.3' y2='1839.1' style="stroke-width:3.0;stroke:rgb(0,0,0);stroke-linecap:round;fill:none;"/>
<line x1='1229.2' y1='1844.5' x2='1229.8' y2='1846.4' style="stroke-width:3.0;stroke:rgb(0,0,0);stroke-linecap:round;fill:none;"/>
<line x1='1195.1' y1='1724.3' x2='1196.1' y2='1728.1' style="stroke-width:3.0;stroke:rgb(0,0,0);stroke-linecap:round;fill:none;"/>
<line x1='1203.6' y1='1851.1' x2='1204.1' y2='1853.0' style="stroke-width:3.0;stroke:rgb(0,0,0);stroke-linecap:round;fill:none;"/>
<line x1='1177.8' y1='1856.8' x2='1179.0' y2='1862.7' style="stroke-width:3.0;stroke:rgb(0,0,0);stroke-linecap:round;fill:none;"/>
<text x="1170.8" y="1867.4" font-size="20.8px" font-family="CMUBright-Roman" style="text-anchor:start;fill:rgb(0,0,0);" transform="rotate(78.3,1170.8,1867.4)">10%</text>
<line x1='1151.8' y1='1861.8' x2='1152.1' y2='1863.8' style="stroke-width:3.0;stroke:rgb(0,0,0);stroke-linecap:round;fill:none;"/>
<line x1='1127.3' y1='1739.2' x2='1127.9' y2='1743.1' style="stroke-width:3.0;stroke:rgb(0,0,0);stroke-linecap:round;fill:none;"/>
<text x="1121.0" y="1747.3" font-size="20.8px" font-family="CMUBright-Roman" style="text-anchor:start;fill:rgb(0,0,0);" transform="rotate(80.2,1121.0,1747.3)">100</text>
<line x1='1125.7' y1='1866.0' x2='1125.9' y2='1868.0' style="stroke-width:3.0;stroke:rgb(0,0,0);stroke-linecap:round;fill:none;"/>
<line x1='1099.4' y1='1869.4' x2='1099.6' y2='1871.4' style="stroke-width:3.0;stroke:rgb(0,0,0);stroke-linecap:round;fill:none;"/>
<line x1='1073.1' y1='1872.0' x2='1073.2' y2='1874.0' style="stroke-width:3.0;stroke:rgb(0,0,0);stroke-linecap:round;fill:none;"/>
<line x1='1058.3' y1='1747.8' x2='1058.6' y2='1751.8' style="stroke-width:3.0;stroke:rgb(0,0,0);stroke-linecap:round;fill:none;"/>
<line x1='1046.7' y1='1873.8' x2='1047.0' y2='1879.8' style="stroke-width:3.0;stroke:rgb(0,0,0);stroke-linecap:round;fill:none;"/>
<text x="1038.2" y="1883.3" font-size="20.8px" font-family="CMUBright-Roman" style="text-anchor:start;fill:rgb(0,0,0);" transform="rotate(86.9,1038.2,1883.3)">20%</text>
<line x1='1020.2' y1='1874.8' x2='1020.3' y2='1876.8' style="stroke-width:3.0;stroke:rgb(0,0,0);stroke-linecap:round;fill:none;"/>
<line x1='993.8' y1='1875.1' x2='993.8' y2='1877.1' style="stroke-width:3.0;stroke:rgb(0,0,0);stroke-linecap:round;fill:none;"/>
<line x1='988.9' y1='1750.0' x2='988.8' y2='1754.0' style="stroke-width:3.0;stroke:rgb(0,0,0);stroke-linecap:round;fill:none;"/>
<text x="996.3" y="1757.1" font-size="20.8px" font-family="CMUBright-Roman" style="text-anchor:end;fill:rgb(0,0,0);" transform="rotate(-89.2,996.3,1757.1)">200</text>
<line x1='967.3' y1='1874.5' x2='967.2' y2='1876.5' style="stroke-width:3.0;stroke:rgb(0,0,0);stroke-linecap:round;fill:none;"/>
<line x1='940.9' y1='1873.1' x2='940.8' y2='1875.1' style="stroke-width:3.0;stroke:rgb(0,0,0);stroke-linecap:round;fill:none;"/>
<line x1='914.5' y1='1870.9' x2='913.9' y2='1876.9' style="stroke-width:3.0;stroke:rgb(0,0,0);stroke-linecap:round;fill:none;"/>
<text x="922.6" y="1880.7" font-size="20.8px" font-family="CMUBright-Roman" style="text-anchor:end;fill:rgb(0,0,0);" transform="rotate(-84.4,922.6,1880.7)">30%</text>
<line x1='919.5' y1='1745.7' x2='919.1' y2='1749.7' style="stroke-width:3.0;stroke:rgb(0,0,0);stroke-linecap:round;fill:none;"/>
<line x1='888.2' y1='1867.9' x2='888.0' y2='1869.9' style="stroke-width:3.0;stroke:rgb(0,0,0);stroke-linecap:round;fill:none;"/>
<line x1='862.0' y1='1864.1' x2='861.7' y2='1866.1' style="stroke-width:3.0;stroke:rgb(0,0,0);stroke-linecap:round;fill:none;"/>
<line x1='836.0' y1='1859.6' x2='835.6' y2='1861.5' style="stroke-width:3.0;stroke:rgb(0,0,0);stroke-linecap:round;fill:none;"/>
<line x1='850.9' y1='1735.1' x2='850.1' y2='1739.0' style="stroke-width:3.0;stroke:rgb(0,0,0);stroke-linecap:round;fill:none;"/>
<text x="856.9" y="1743.4" font-size="20.8px" font-family="CMUBright-Roman" style="text-anchor:end;fill:rgb(0,0,0);" transform="rotate(-78.5,856.9,1743.4)">300</text>
<line x1='810.1' y1='1854.2' x2='809.6' y2='1856.2' style="stroke-width:3.0;stroke:rgb(0,0,0);stroke-linecap:round;fill:none;"/>
<line x1='784.3' y1='1848.1' x2='782.8' y2='1853.9' style="stroke-width:3.0;stroke:rgb(0,0,0);stroke-linecap:round;fill:none;"/>
<text x="790.8" y="1859.0" font-size="20.8px" font-family="CMUBright-Roman" style="text-anchor:end;fill:rgb(0,0,0);" transform="rotate(-75.7,790.8,1859.0)">40%</text>
<line x1='758.8' y1='1841.2' x2='758.2' y2='1843.1' style="stroke-width:3.0;stroke:rgb(0,0,0);stroke-linecap:round;fill:none;"/>
<line x1='783.5' y1='1718.2' x2='782.4' y2='1722.0' style="stroke-width:3.0;stroke:rgb(0,0,0);stroke-linecap:round;fill:none;"/>
<line x1='733.4' y1='1833.5' x2='732.8' y2='1835.4' style="stroke-width:3.0;stroke:rgb(0,0,0);stroke-linecap:round;fill:none;"/>
<line x1='708.4' y1='1825.0' x2='707.7' y2='1826.9' style="stroke-width:3.0;stroke:rgb(0,0,0);stroke-linecap:round;fill:none;"/>
<line x1='683.5' y1='1815.9' x2='682.8' y2='1817.7' style="stroke-width:3.0;stroke:rgb(0,0,0);stroke-linecap:round;fill:none;"/>
<line x1='718.0' y1='1695.0' x2='716.5' y2='1698.8' style="stroke-width:3.0;stroke:rgb(0,0,0);stroke-linecap:round;fill:none;"/>
<text x="722.3" y="1704.3" font-size="20.8px" font-family="CMUBright-Roman" style="text-anchor:end;fill:rgb(0,0,0);" transform="rotate(-67.9,722.3,1704.3)">400</text>
<line x1='659.0' y1='1805.9' x2='656.7' y2='1811.4' style="stroke-width:3.0;stroke:rgb(0,0,0);stroke-linecap:round;fill:none;"/>
<text x="663.8" y="1817.7" font-size="20.8px" font-family="CMUBright-Roman" style="text-anchor:end;fill:rgb(0,0,0);" transform="rotate(-67.1,663.8,1817.7)">50%</text>
<line x1='634.8' y1='1795.2' x2='634.0' y2='1797.0' style="stroke-width:3.0;stroke:rgb(0,0,0);stroke-linecap:round;fill:none;"/>
<line x1='610.9' y1='1783.8' x2='610.0' y2='1785.6' style="stroke-width:3.0;stroke:rgb(0,0,0);stroke-linecap:round;fill:none;"/>
<line x1='654.9' y1='1666.0' x2='653.1' y2='1669.5' style="stroke-width:3.0;stroke:rgb(0,0,0);stroke-linecap:round;fill:none;"/>
<line x1='587.4' y1='1771.7' x2='586.5' y2='1773.5' style="stroke-width:3.0;stroke:rgb(0,0,0);stroke-linecap:round;fill:none;"/>
<line x1='564.3' y1='1758.9' x2='563.3' y2='1760.6' style="stroke-width:3.0;stroke:rgb(0,0,0);stroke-linecap:round;fill:none;"/>
<line x1='541.5' y1='1745.4' x2='538.4' y2='1750.5' style="stroke-width:3.0;stroke:rgb(0,0,0);stroke-linecap:round;fill:none;"/>
<text x="544.5" y="1757.7" font-size="20.8px" font-family="CMUBright-Roman" style="text-anchor:end;fill:rgb(0,0,0);" transform="rotate(-58.4,544.5,1757.7)">60%</text>
<line x1='594.8' y1='1631.2' x2='591.5' y2='1636.2' style="stroke-width:3.0;stroke:rgb(0,0,0);stroke-linecap:round;fill:none;"/>
<text x="596.2" y="1642.8" font-size="20.8px" font-family="CMUBright-Roman" style="text-anchor:end;fill:rgb(0,0,0);" transform="rotate(-57.3,596.2,1642.8)">500</text>
<line x1='519.2' y1='1731.1' x2='518.1' y2='1732.8' style="stroke-width:3.0;stroke:rgb(0,0,0);stroke-linecap:round;fill:none;"/>
<line x1='497.3' y1='1716.3' x2='496.2' y2='1717.9' style="stroke-width:3.0;stroke:rgb(0,0,0);stroke-linecap:round;fill:none;"/>
<line x1='475.9' y1='1700.7' x2='474.7' y2='1702.4' style="stroke-width:3.0;stroke:rgb(0,0,0);stroke-linecap:round;fill:none;"/>
<line x1='538.1' y1='1591.0' x2='535.6' y2='1594.1' style="stroke-width:3.0;stroke:rgb(0,0,0);stroke-linecap:round;fill:none;"/>
<line x1='454.9' y1='1684.6' x2='453.7' y2='1686.1' style="stroke-width:3.0;stroke:rgb(0,0,0);stroke-linecap:round;fill:none;"/>
<line x1='434.5' y1='1667.8' x2='430.6' y2='1672.4' style="stroke-width:3.0;stroke:rgb(0,0,0);stroke-linecap:round;fill:none;"/>
<text x="435.6" y="1680.4" font-size="20.8px" font-family="CMUBright-Roman" style="text-anchor:end;fill:rgb(0,0,0);" transform="rotate(-49.7,435.6,1680.4)">70%</text>
<line x1='414.5' y1='1650.4' x2='413.2' y2='1651.9' style="stroke-width:3.0;stroke:rgb(0,0,0);stroke-linecap:round;fill:none;"/>
<line x1='485.4' y1='1545.7' x2='482.7' y2='1548.6' style="stroke-width:3.0;stroke:rgb(0,0,0);stroke-linecap:round;fill:none;"/>
<text x="486.1" y="1555.9" font-size="20.8px" font-family="CMUBright-Roman" style="text-anchor:end;fill:rgb(0,0,0);" transform="rotate(-46.7,486.1,1555.9)">600</text>
<line x1='395.1' y1='1632.4' x2='393.8' y2='1633.8' style="stroke-width:3.0;stroke:rgb(0,0,0);stroke-linecap:round;fill:none;"/>
<line x1='376.3' y1='1613.8' x2='374.9' y2='1615.2' style="stroke-width:3.0;stroke:rgb(0,0,0);stroke-linecap:round;fill:none;"/>
<line x1='358.0' y1='1594.7' x2='356.6' y2='1596.0' style="stroke-width:3.0;stroke:rgb(0,0,0);stroke-linecap:round;fill:none;"/>
<line x1='437.1' y1='1495.8' x2='434.1' y2='1498.4' style="stroke-width:3.0;stroke:rgb(0,0,0);stroke-linecap:round;fill:none;"/>
<line x1='340.3' y1='1575.0' x2='335.8' y2='1578.9' style="stroke-width:3.0;stroke:rgb(0,0,0);stroke-linecap:round;fill:none;"/>
<text x="339.5" y="1587.6" font-size="20.8px" font-family="CMUBright-Roman" style="text-anchor:end;fill:rgb(0,0,0);" transform="rotate(-41.1,339.5,1587.6)">80%</text>
<line x1='323.3' y1='1554.8' x2='321.7' y2='1556.0' style="stroke-width:3.0;stroke:rgb(0,0,0);stroke-linecap:round;fill:none;"/>
<line x1='306.8' y1='1534.1' x2='305.2' y2='1535.3' style="stroke-width:3.0;stroke:rgb(0,0,0);stroke-linecap:round;fill:none;"/>
<line x1='393.7' y1='1441.6' x2='390.4' y2='1443.9' style="stroke-width:3.0;stroke:rgb(0,0,0);stroke-linecap:round;fill:none;"/>
<text x="392.5" y="1451.7" font-size="20.8px" font-family="CMUBright-Roman" style="text-anchor:end;fill:rgb(0,0,0);" transform="rotate(-36.1,392.5,1451.7)">700</text>
<line x1='291.0' y1='1512.9' x2='289.3' y2='1514.0' style="stroke-width:3.0;stroke:rgb(0,0,0);stroke-linecap:round;fill:none;"/>
<line x1='275.8' y1='1491.2' x2='274.1' y2='1492.3' style="stroke-width:3.0;stroke:rgb(0,0,0);stroke-linecap:round;fill:none;"/>
<line x1='261.3' y1='1469.1' x2='256.2' y2='1472.3' style="stroke-width:3.0;stroke:rgb(0,0,0);stroke-linecap:round;fill:none;"/>
<text x="258.5" y="1481.5" font-size="20.8px" font-family="CMUBright-Roman" style="text-anchor:end;fill:rgb(0,0,0);" transform="rotate(-32.4,258.5,1481.5)">90%</text>
<line x1='355.4' y1='1383.6' x2='352.0' y2='1385.6' style="stroke-width:3.0;stroke:rgb(0,0,0);stroke-linecap:round;fill:none;"/>
<line x1='247.4' y1='1446.5' x2='245.7' y2='1447.5' style="stroke-width:3.0;stroke:rgb(0,0,0);stroke-linecap:round;fill:none;"/>
<line x1='234.3' y1='1423.5' x2='232.5' y2='1424.5' style="stroke-width:3.0;stroke:rgb(0,0,0);stroke-linecap:round;fill:none;"/>
<line x1='221.8' y1='1400.2' x2='220.0' y2='1401.1' style="stroke-width:3.0;stroke:rgb(0,0,0);stroke-linecap:round;fill:none;"/>
<line x1='210.1' y1='1376.5' x2='208.2' y2='1377.3' style="stroke-width:3.0;stroke:rgb(0,0,0);stroke-linecap:round;fill:none;"/>
<line x1='322.7' y1='1322.3' x2='319.1' y2='1324.0' style="stroke-width:3.0;stroke:rgb(0,0,0);stroke-linecap:round;fill:none;"/>
<text x="319.6" y="1332.1" font-size="20.8px" font-family="CMUBright-Roman" style="text-anchor:end;fill:rgb(0,0,0);" transform="rotate(-25.4,319.6,1332.1)">800</text>
<line x1='199.0' y1='1352.4' x2='193.5' y2='1354.8' style="stroke-width:3.0;stroke:rgb(0,0,0);stroke-linecap:round;fill:none;"/>
<text x="194.5" y="1364.3" font-size="20.8px" font-family="CMUBright-Roman" style="text-anchor:end;fill:rgb(0,0,0);" transform="rotate(-23.7,194.5,1364.3)">100%</text>
<g id="highlighttrack_0">
</g>
<g id="highlighttrack_1">
</g>
<g id="highlighttrack_2">
</g>
<g id="highlighttrack_3">
</g>
<g id="highlighttrack_4">
</g>
<path d="M1249.051,1670.223 A715.000,715.000 40.000 0,1 345.549,1287.957 L313.513,1302.052 A750.000,750.000 0.000 0,0 1261.243,1703.031 Z" style="stroke-width:1.0;stroke:rgb(0,0,0);stroke-linecap:round;fill:none;"/>
<g id="highlighttrack_0">
<path d="M234.576,1294.153 A820.000,820.000 40.000 0,1 180.681,1033.419 L165.694,1034.031 A835.000,835.000 0.000 0,0 220.574,1299.534 Z" style="stroke-width:1.0;stroke:rgb(0,0,0);stroke-linecap:round;fill:rgb(230,46,46);"/>
<path d="M180.681,1033.419 A820.000,820.000 40.000 0,1 207.439,789.650 L192.941,785.802 A835.000,835.000 0.000 0,0 165.694,1034.031 Z" style="stroke-width:1.0;stroke:rgb(0,0,0);stroke-linecap:round;fill:rgb(230,46,230);"/>
<path d="M207.439,789.650 A820.000,820.000 40.000 0,1 257.813,651.347 L244.237,644.969 A835.000,835.000 0.000 0,0 192.941,785.802 Z" style="stroke-width:1.0;stroke:rgb(0,0,0);stroke-linecap:round;fill:rgb(107,230,46);"/>
<path d="M257.813,651.347 A820.000,820.000 40.000 0,1 319.987,541.762 L307.547,533.380 A835.000,835.000 0.000 0,0 244.237,644.969 Z" style="stroke-width:1.0;stroke:rgb(0,0,0);stroke-linecap:round;fill:rgb(46,168,230);"/>
</g>
<g id="highlighttrack_1">
<path d="M215.907,1301.328 A840.000,840.000 40.000 0,1 160.698,1034.235 L145.710,1034.846 A855.000,855.000 0.000 0,0 201.906,1306.709 Z" style="stroke-width:1.0;stroke:rgb(0,0,0);stroke-linecap:round;fill:rgb(230,46,46);"/>
<path d="M160.698,1034.235 A840.000,840.000 40.000 0,1 179.331,820.828 L164.676,817.628 A855.000,855.000 0.000 0,0 145.710,1034.846 Z" style="stroke-width:1.0;stroke:rgb(0,0,0);stroke-linecap:round;fill:rgb(107,230,46);"/>
<path d="M179.331,820.828 A840.000,840.000 40.000 0,1 248.535,624.633 L235.116,617.930 A855.000,855.000 0.000 0,0 164.676,817.628 Z" style="stroke-width:1.0;stroke:rgb(0,0,0);stroke-linecap:round;fill:rgb(230,46,230);"/>
<path d="M248.535,624.633 A840.000,840.000 40.000 0,1 289.792,551.442 L277.109,543.432 A855.000,855.000 0.000 0,0 235.116,617.930 Z" style="stroke-width:1.0;stroke:rgb(0,0,0);stroke-linecap:round;fill:rgb(46,168,230);"/>
</g>
<g id="highlighttrack_2">
<path d="M197.238,1308.502 A860.000,860.000 40.000 0,1 174.780,757.902 L160.386,753.679 A875.000,875.000 0.000 0,0 183.237,1313.883 Z" style="stroke-width:1.0;stroke:rgb(0,0,0);stroke-linecap:round;fill:rgb(230,46,46);"/>
<path d="M174.780,757.902 A860.000,860.000 40.000 0,1 422.063,363.141 L411.983,352.033 A875.000,875.000 0.000 0,0 160.386,753.679 Z" style="stroke-width:1.0;stroke:rgb(0,0,0);stroke-linecap:round;fill:rgb(230,46,230);"/>
<path d="M422.063,363.141 A860.000,860.000 40.000 0,1 744.645,178.785 L740.192,164.462 A875.000,875.000 0.000 0,0 411.983,352.033 Z" style="stroke-width:1.0;stroke:rgb(0,0,0);stroke-linecap:round;fill:rgb(107,230,46);"/>
<path d="M744.645,178.785 A860.000,860.000 40.000 0,1 959.076,140.974 L958.362,125.991 A875.000,875.000 0.000 0,0 740.192,164.462 Z" style="stroke-width:1.0;stroke:rgb(0,0,0);stroke-linecap:round;fill:rgb(46,168,230);"/>
</g>
<g id="highlighttrack_3">
<path d="M424.240,612.015 A694.285,694.285 40.000 0,1 578.893,448.003 L572.828,440.052 A704.285,704.285 0.000 0,0 415.947,606.427 Z" style="stroke-width:1.0;stroke:rgb(0,0,0);stroke-linecap:round;fill:rgb(230,46,46);"/>
<path d="M578.893,448.003 A694.285,694.285 40.000 0,1 732.209,359.438 L728.352,350.212 A704.285,704.285 0.000 0,0 572.828,440.052 Z" style="stroke-width:1.0;stroke:rgb(0,0,0);stroke-linecap:round;fill:rgb(107,230,46);"/>
<path d="M732.209,359.438 A694.285,694.285 40.000 0,1 797.539,335.891 L794.623,326.325 A704.285,704.285 0.000 0,0 728.352,350.212 Z" style="stroke-width:1.0;stroke:rgb(0,0,0);stroke-linecap:round;fill:rgb(46,168,230);"/>
<path d="M797.539,335.891 A694.285,694.285 40.000 0,1 966.961,306.502 L966.486,296.513 A704.285,704.285 0.000 0,0 794.623,326.325 Z" style="stroke-width:1.0;stroke:rgb(0,0,0);stroke-linecap:round;fill:rgb(230,46,230);"/>
</g>
<g id="highlighttrack_4">
<path d="M342.590,1252.644 A704.285,704.285 40.000 0,1 296.300,1028.703 L286.308,1029.111 A714.285,714.285 0.000 0,0 333.255,1256.231 Z" style="stroke-width:1.0;stroke:rgb(0,0,0);stroke-linecap:round;fill:rgb(230,46,46);"/>
<path d="M296.300,1028.703 A704.285,704.285 40.000 0,1 302.506,902.435 L292.602,901.050 A714.285,714.285 0.000 0,0 286.308,1029.111 Z" style="stroke-width:1.0;stroke:rgb(0,0,0);stroke-linecap:round;fill:rgb(107,230,46);"/>
<path d="M302.506,902.435 A704.285,704.285 40.000 0,1 325.685,796.733 L316.111,793.847 A714.285,714.285 0.000 0,0 292.602,901.050 Z" style="stroke-width:1.0;stroke:rgb(0,0,0);stroke-linecap:round;fill:rgb(46,168,230);"/>
<path d="M325.685,796.733 A704.285,704.285 40.000 0,1 415.947,606.427 L407.654,600.839 A714.285,714.285 0.000 0,0 316.111,793.847 Z" style="stroke-width:1.0;stroke:rgb(0,0,0);stroke-linecap:round;fill:rgb(230,46,230);"/>
</g>
<path d="M332.588,1256.487 A715.000,715.000 40.000 0,1 965.976,285.810 L964.310,250.850 A750.000,750.000 0.000 0,0 299.917,1269.043 Z" style="stroke-width:1.0;stroke:rgb(0,0,0);stroke-linecap:round;fill:rgb(230,46,46);"/>
<text x="199.2" y="477.4" font-size="31.2px" font-family="CMUBright-Roman" style="text-anchor:middle;fill:rgb(0,0,0);" transform="rotate(-56.9,199.2,477.4)">A</text>
<line x1='299.8' y1='1269.1' x2='294.2' y2='1271.2' style="stroke-width:3.0;stroke:rgb(0,0,0);stroke-linecap:round;fill:none;"/>
<text x="294.2" y="1279.3" font-size="20.8px" font-family="CMUBright-Roman" style="text-anchor:end;fill:rgb(0,0,0);" transform="rotate(-21.0,294.2,1279.3)">0</text>
<line x1='183.2' y1='1313.9' x2='177.6' y2='1316.1' style="stroke-width:3.0;stroke:rgb(0,0,0);stroke-linecap:round;fill:none;"/>
<text x="178.0" y="1325.5" font-size="20.8px" font-family="CMUBright-Roman" style="text-anchor:end;fill:rgb(0,0,0);" transform="rotate(-21.0,178.0,1325.5)">0%</text>
<line x1='171.9' y1='1282.8' x2='170.0' y2='1283.5' style="stroke-width:3.0;stroke:rgb(0,0,0);stroke-linecap:round;fill:none;"/>
<line x1='161.8' y1='1251.3' x2='159.9' y2='1251.9' style="stroke-width:3.0;stroke:rgb(0,0,0);stroke-linecap:round;fill:none;"/>
<line x1='278.0' y1='1203.1' x2='274.1' y2='1204.2' style="stroke-width:3.0;stroke:rgb(0,0,0);stroke-linecap:round;fill:none;"/>
<line x1='152.9' y1='1219.5' x2='151.0' y2='1220.0' style="stroke-width:3.0;stroke:rgb(0,0,0);stroke-linecap:round;fill:none;"/>
<line x1='145.2' y1='1187.3' x2='143.2' y2='1187.7' style="stroke-width:3.0;stroke:rgb(0,0,0);stroke-linecap:round;fill:none;"/>
<line x1='262.3' y1='1135.5' x2='258.3' y2='1136.2' style="stroke-width:3.0;stroke:rgb(0,0,0);stroke-linecap:round;fill:none;"/>
<text x="256.8" y="1144.1" font-size="20.8px" font-family="CMUBright-Roman" style="text-anchor:end;fill:rgb(0,0,0);" transform="rotate(-10.4,256.8,1144.1)">100</text>
<line x1='138.7' y1='1154.8' x2='132.8' y2='1155.9' style="stroke-width:3.0;stroke:rgb(0,0,0);stroke-linecap:round;fill:none;"/>
<text x="131.5" y="1165.3" font-size="20.8px" font-family="CMUBright-Roman" style="text-anchor:end;fill:rgb(0,0,0);" transform="rotate(-10.2,131.5,1165.3)">10%</text>
<line x1='133.5' y1='1122.2' x2='131.5' y2='1122.5' style="stroke-width:3.0;stroke:rgb(0,0,0);stroke-linecap:round;fill:none;"/>
<line x1='129.5' y1='1089.4' x2='127.5' y2='1089.6' style="stroke-width:3.0;stroke:rgb(0,0,0);stroke-linecap:round;fill:none;"/>
<line x1='252.9' y1='1066.6' x2='248.9' y2='1067.0' style="stroke-width:3.0;stroke:rgb(0,0,0);stroke-linecap:round;fill:none;"/>
<line x1='126.7' y1='1056.4' x2='124.7' y2='1056.5' style="stroke-width:3.0;stroke:rgb(0,0,0);stroke-linecap:round;fill:none;"/>
<line x1='125.2' y1='1023.3' x2='123.2' y2='1023.4' style="stroke-width:3.0;stroke:rgb(0,0,0);stroke-linecap:round;fill:none;"/>
<line x1='249.9' y1='997.2' x2='245.9' y2='997.2' style="stroke-width:3.0;stroke:rgb(0,0,0);stroke-linecap:round;fill:none;"/>
<text x="242.9" y="1004.7" font-size="20.8px" font-family="CMUBright-Roman" style="text-anchor:end;fill:rgb(0,0,0);" transform="rotate(0.2,242.9,1004.7)">200</text>
<line x1='125.0' y1='990.3' x2='119.0' y2='990.2' style="stroke-width:3.0;stroke:rgb(0,0,0);stroke-linecap:round;fill:none;"/>
<text x="115.9" y="999.2" font-size="20.8px" font-family="CMUBright-Roman" style="text-anchor:end;fill:rgb(0,0,0);" transform="rotate(0.6,115.9,999.2)">20%</text>
<line x1='126.0' y1='957.2' x2='124.0' y2='957.1' style="stroke-width:3.0;stroke:rgb(0,0,0);stroke-linecap:round;fill:none;"/>
<line x1='128.2' y1='924.2' x2='126.2' y2='924.0' style="stroke-width:3.0;stroke:rgb(0,0,0);stroke-linecap:round;fill:none;"/>
<line x1='253.4' y1='927.8' x2='249.4' y2='927.5' style="stroke-width:3.0;stroke:rgb(0,0,0);stroke-linecap:round;fill:none;"/>
<line x1='131.7' y1='891.3' x2='129.7' y2='891.1' style="stroke-width:3.0;stroke:rgb(0,0,0);stroke-linecap:round;fill:none;"/>
<line x1='136.4' y1='858.6' x2='134.5' y2='858.3' style="stroke-width:3.0;stroke:rgb(0,0,0);stroke-linecap:round;fill:none;"/>
<line x1='263.3' y1='859.1' x2='259.4' y2='858.3' style="stroke-width:3.0;stroke:rgb(0,0,0);stroke-linecap:round;fill:none;"/>
<text x="255.0" y="865.1" font-size="20.8px" font-family="CMUBright-Roman" style="text-anchor:end;fill:rgb(0,0,0);" transform="rotate(10.8,255.0,865.1)">300</text>
<line x1='142.4' y1='826.0' x2='136.5' y2='824.8' style="stroke-width:3.0;stroke:rgb(0,0,0);stroke-linecap:round;fill:none;"/>
<text x="131.8" y="833.1" font-size="20.8px" font-family="CMUBright-Roman" style="text-anchor:end;fill:rgb(0,0,0);" transform="rotate(11.5,131.8,833.1)">30%</text>
<line x1='149.6' y1='793.8' x2='147.6' y2='793.3' style="stroke-width:3.0;stroke:rgb(0,0,0);stroke-linecap:round;fill:none;"/>
<line x1='158.0' y1='761.8' x2='156.1' y2='761.2' style="stroke-width:3.0;stroke:rgb(0,0,0);stroke-linecap:round;fill:none;"/>
<line x1='279.5' y1='791.5' x2='275.6' y2='790.4' style="stroke-width:3.0;stroke:rgb(0,0,0);stroke-linecap:round;fill:none;"/>
<line x1='167.6' y1='730.1' x2='165.7' y2='729.5' style="stroke-width:3.0;stroke:rgb(0,0,0);stroke-linecap:round;fill:none;"/>
<line x1='178.4' y1='698.8' x2='176.5' y2='698.2' style="stroke-width:3.0;stroke:rgb(0,0,0);stroke-linecap:round;fill:none;"/>
<line x1='301.9' y1='725.7' x2='298.1' y2='724.3' style="stroke-width:3.0;stroke:rgb(0,0,0);stroke-linecap:round;fill:none;"/>
<text x="292.6" y="730.2" font-size="20.8px" font-family="CMUBright-Roman" style="text-anchor:end;fill:rgb(0,0,0);" transform="rotate(21.4,292.6,730.2)">400</text>
<line x1='190.3' y1='668.0' x2='184.8' y2='665.7' style="stroke-width:3.0;stroke:rgb(0,0,0);stroke-linecap:round;fill:none;"/>
<text x="178.6" y="672.9" font-size="20.8px" font-family="CMUBright-Roman" style="text-anchor:end;fill:rgb(0,0,0);" transform="rotate(22.3,178.6,672.9)">40%</text>
<line x1='203.5' y1='637.6' x2='201.7' y2='636.8' style="stroke-width:3.0;stroke:rgb(0,0,0);stroke-linecap:round;fill:none;"/>
<line x1='217.7' y1='607.8' x2='215.9' y2='606.9' style="stroke-width:3.0;stroke:rgb(0,0,0);stroke-linecap:round;fill:none;"/>
<line x1='330.2' y1='662.3' x2='326.7' y2='660.5' style="stroke-width:3.0;stroke:rgb(0,0,0);stroke-linecap:round;fill:none;"/>
<line x1='233.1' y1='578.5' x2='231.4' y2='577.6' style="stroke-width:3.0;stroke:rgb(0,0,0);stroke-linecap:round;fill:none;"/>
<line x1='249.6' y1='549.8' x2='247.9' y2='548.8' style="stroke-width:3.0;stroke:rgb(0,0,0);stroke-linecap:round;fill:none;"/>
<line x1='364.3' y1='601.8' x2='359.3' y2='598.6' style="stroke-width:3.0;stroke:rgb(0,0,0);stroke-linecap:round;fill:none;"/>
<text x="352.8" y="603.4" font-size="20.8px" font-family="CMUBright-Roman" style="text-anchor:end;fill:rgb(0,0,0);" transform="rotate(32.1,352.8,603.4)">500</text>
<line x1='267.1' y1='521.8' x2='262.1' y2='518.5' style="stroke-width:3.0;stroke:rgb(0,0,0);stroke-linecap:round;fill:none;"/>
<text x="254.7" y="524.4" font-size="20.8px" font-family="CMUBright-Roman" style="text-anchor:end;fill:rgb(0,0,0);" transform="rotate(33.1,254.7,524.4)">50%</text>
<line x1='285.7' y1='494.4' x2='284.1' y2='493.3' style="stroke-width:3.0;stroke:rgb(0,0,0);stroke-linecap:round;fill:none;"/>
<line x1='403.9' y1='544.7' x2='400.7' y2='542.3' style="stroke-width:3.0;stroke:rgb(0,0,0);stroke-linecap:round;fill:none;"/>
<line x1='305.4' y1='467.8' x2='303.8' y2='466.6' style="stroke-width:3.0;stroke:rgb(0,0,0);stroke-linecap:round;fill:none;"/>
<line x1='326.0' y1='441.9' x2='324.4' y2='440.7' style="stroke-width:3.0;stroke:rgb(0,0,0);stroke-linecap:round;fill:none;"/>
<line x1='347.5' y1='416.9' x2='346.0' y2='415.5' style="stroke-width:3.0;stroke:rgb(0,0,0);stroke-linecap:round;fill:none;"/>
<line x1='448.6' y1='491.5' x2='445.6' y2='488.8' style="stroke-width:3.0;stroke:rgb(0,0,0);stroke-linecap:round;fill:none;"/>
<text x="438.4" y="492.3" font-size="20.8px" font-family="CMUBright-Roman" style="text-anchor:end;fill:rgb(0,0,0);" transform="rotate(42.7,438.4,492.3)">600</text>
<line x1='370.0' y1='392.6' x2='365.7' y2='388.5' style="stroke-width:3.0;stroke:rgb(0,0,0);stroke-linecap:round;fill:none;"/>
<text x="357.4" y="392.9" font-size="20.8px" font-family="CMUBright-Roman" style="text-anchor:end;fill:rgb(0,0,0);" transform="rotate(44.0,357.4,392.9)">60%</text>
<line x1='393.4' y1='369.2' x2='392.1' y2='367.8' style="stroke-width:3.0;stroke:rgb(0,0,0);stroke-linecap:round;fill:none;"/>
<line x1='498.0' y1='442.7' x2='495.3' y2='439.7' style="stroke-width:3.0;stroke:rgb(0,0,0);stroke-linecap:round;fill:none;"/>
<line x1='417.7' y1='346.8' x2='416.4' y2='345.3' style="stroke-width:3.0;stroke:rgb(0,0,0);stroke-linecap:round;fill:none;"/>
<line x1='442.8' y1='325.2' x2='441.5' y2='323.7' style="stroke-width:3.0;stroke:rgb(0,0,0);stroke-linecap:round;fill:none;"/>
<line x1='468.7' y1='304.7' x2='467.5' y2='303.1' style="stroke-width:3.0;stroke:rgb(0,0,0);stroke-linecap:round;fill:none;"/>
<line x1='551.7' y1='398.6' x2='549.3' y2='395.4' style="stroke-width:3.0;stroke:rgb(0,0,0);stroke-linecap:round;fill:none;"/>
<text x="541.5" y="397.5" font-size="20.8px" font-family="CMUBright-Roman" style="text-anchor:end;fill:rgb(0,0,0);" transform="rotate(53.3,541.5,397.5)">700</text>
<line x1='495.4' y1='285.1' x2='491.9' y2='280.2' style="stroke-width:3.0;stroke:rgb(0,0,0);stroke-linecap:round;fill:none;"/>
<text x="482.9" y="283.0" font-size="20.8px" font-family="CMUBright-Roman" style="text-anchor:end;fill:rgb(0,0,0);" transform="rotate(54.8,482.9,283.0)">70%</text>
<line x1='522.8' y1='266.5' x2='521.7' y2='264.8' style="stroke-width:3.0;stroke:rgb(0,0,0);stroke-linecap:round;fill:none;"/>
<line x1='609.3' y1='359.7' x2='607.2' y2='356.3' style="stroke-width:3.0;stroke:rgb(0,0,0);stroke-linecap:round;fill:none;"/>
<line x1='550.8' y1='249.0' x2='549.8' y2='247.3' style="stroke-width:3.0;stroke:rgb(0,0,0);stroke-linecap:round;fill:none;"/>
<line x1='579.5' y1='232.6' x2='578.6' y2='230.8' style="stroke-width:3.0;stroke:rgb(0,0,0);stroke-linecap:round;fill:none;"/>
<line x1='608.8' y1='217.2' x2='607.9' y2='215.4' style="stroke-width:3.0;stroke:rgb(0,0,0);stroke-linecap:round;fill:none;"/>
<line x1='670.2' y1='326.3' x2='668.4' y2='322.7' style="stroke-width:3.0;stroke:rgb(0,0,0);stroke-linecap:round;fill:none;"/>
<text x="660.4" y="323.4" font-size="20.8px" font-family="CMUBright-Roman" style="text-anchor:end;fill:rgb(0,0,0);" transform="rotate(63.9,660.4,323.4)">800</text>
<line x1='638.7' y1='203.0' x2='636.2' y2='197.5' style="stroke-width:3.0;stroke:rgb(0,0,0);stroke-linecap:round;fill:none;"/>
<text x="626.8" y="198.6" font-size="20.8px" font-family="CMUBright-Roman" style="text-anchor:end;fill:rgb(0,0,0);" transform="rotate(65.6,626.8,198.6)">80%</text>
<line x1='669.1' y1='189.9' x2='668.3' y2='188.1' style="stroke-width:3.0;stroke:rgb(0,0,0);stroke-linecap:round;fill:none;"/>
<line x1='733.9' y1='298.7' x2='732.5' y2='295.0' style="stroke-width:3.0;stroke:rgb(0,0,0);stroke-linecap:round;fill:none;"/>
<line x1='699.9' y1='178.0' x2='699.2' y2='176.1' style="stroke-width:3.0;stroke:rgb(0,0,0);stroke-linecap:round;fill:none;"/>
<line x1='731.2' y1='167.2' x2='730.6' y2='165.3' style="stroke-width:3.0;stroke:rgb(0,0,0);stroke-linecap:round;fill:none;"/>
<line x1='762.9' y1='157.7' x2='762.3' y2='155.7' style="stroke-width:3.0;stroke:rgb(0,0,0);stroke-linecap:round;fill:none;"/>
<line x1='800.0' y1='277.1' x2='798.9' y2='273.2' style="stroke-width:3.0;stroke:rgb(0,0,0);stroke-linecap:round;fill:none;"/>
<text x="790.9" y="272.4" font-size="20.8px" font-family="CMUBright-Roman" style="text-anchor:end;fill:rgb(0,0,0);" transform="rotate(74.5,790.9,272.4)">900</text>
<line x1='794.9' y1='149.3' x2='793.5' y2='143.5' style="stroke-width:3.0;stroke:rgb(0,0,0);stroke-linecap:round;fill:none;"/>
<text x="784.0" y="142.7" font-size="20.8px" font-family="CMUBright-Roman" style="text-anchor:end;fill:rgb(0,0,0);" transform="rotate(76.4,784.0,142.7)">90%</text>
<line x1='827.2' y1='142.2' x2='826.8' y2='140.2' style="stroke-width:3.0;stroke:rgb(0,0,0);stroke-linecap:round;fill:none;"/>
<line x1='867.7' y1='261.7' x2='867.0' y2='257.7' style="stroke-width:3.0;stroke:rgb(0,0,0);stroke-linecap:round;fill:none;"/>
<line x1='859.7' y1='136.2' x2='859.4' y2='134.3' style="stroke-width:3.0;stroke:rgb(0,0,0);stroke-linecap:round;fill:none;"/>
<line x1='892.5' y1='131.6' x2='892.2' y2='129.6' style="stroke-width:3.0;stroke:rgb(0,0,0);stroke-linecap:round;fill:none;"/>
<line x1='925.4' y1='128.1' x2='925.2' y2='126.1' style="stroke-width:3.0;stroke:rgb(0,0,0);stroke-linecap:round;fill:none;"/>
<line x1='936.6' y1='252.6' x2='936.1' y2='246.6' style="stroke-width:3.0;stroke:rgb(0,0,0);stroke-linecap:round;fill:none;"/>
<text x="928.3" y="244.3" font-size="20.8px" font-family="CMUBright-Roman" style="text-anchor:end;fill:rgb(0,0,0);" transform="rotate(85.1,928.3,244.3)">1000</text>
<line x1='958.4' y1='125.9' x2='958.1' y2='119.9' style="stroke-width:3.0;stroke:rgb(0,0,0);stroke-linecap:round;fill:none;"/>
<text x="948.9" y="117.4" font-size="20.8px" font-family="CMUBright-Roman" style="text-anchor:end;fill:rgb(0,0,0);" transform="rotate(87.3,948.9,117.4)">100%</text>
<g id="highlighttrack_0">
</g>
<g id="highlighttrack_1">
</g>
<g id="highlighttrack_2">
</g>
<g id="highlighttrack_3">
</g>
<g id="highlighttrack_4">
</g>
<path d="M332.588,1256.487 A715.000,715.000 40.000 0,1 965.976,285.810 L964.310,250.850 A750.000,750.000 0.000 0,0 299.917,1269.043 Z" style="stroke-width:1.0;stroke:rgb(0,0,0);stroke-linecap:round;fill:none;"/>
</g>
<g id="flow">
<path d="M 1423.333,437.145 A 704.285,704.285 0.00 0,1 1455.9,463.2 L 1455.9,463.2 1447.4,474.1 1439.5,485.6 1432.3,497.7 1425.9,510.2 1420.3,523.2 1415.5,536.5 1411.5,550.1 1408.3,563.9 1406.0,577.8 1404.6,591.7 1404.1,605.7 1404.4,619.6 1405.7,633.3 1407.8,646.8 1410.7,660.2 1414.6,673.2 1419.2,685.8 1424.7,698.1 1431.1,709.9 1438.2,721.2 1446.0,732.0 1454.6,742.2 1463.9,751.8 1473.8,760.8 1484.4,769.1 1495.5,776.7 1507.1,783.5 1519.2,789.6 1531.7,794.9 1544.6,799.4 1557.8,803.1 1571.2,805.9 1584.8,807.9 1598.4,809.0 1612.1,809.2 1625.7,808.6 1639.1,807.0 1652.3,804.6 1665.2,801.2  A 694.285,694.285 0.00 0,1 1675.8,841.0 L 1675.8,841.0 1662.3,843.6 1648.4,845.1 1634.2,845.6 1619.8,845.1 1605.3,843.5 1590.8,841.0 1576.3,837.4 1561.9,832.9 1547.7,827.5 1533.8,821.2 1520.1,813.9 1506.9,805.9 1494.0,797.0 1481.7,787.4 1469.8,777.0 1458.6,765.9 1448.0,754.1 1438.0,741.7 1428.7,728.8 1420.2,715.3 1412.5,701.3 1405.6,687.0 1399.4,672.2 1394.2,657.1 1389.8,641.8 1386.3,626.3 1383.7,610.6 1382.0,594.9 1381.2,579.1 1381.3,563.4 1382.4,547.9 1384.4,532.5 1387.3,517.4 1391.1,502.7 1395.8,488.4 1401.4,474.6 1407.9,461.4 1415.2,448.9 1423.3,437.1  Z" style="stroke-width: 1.0;  stroke: rgb(0,0,0); fill: rgb(230,46,230); opacity: 0.833;"/>
<path d="M 796.733,1674.315 A 704.285,704.285 0.00 0,1 748.6,1657.9 L 748.6,1657.9 759.5,1630.8 771.6,1603.4 784.8,1575.7 799.1,1547.7 814.4,1519.5 830.7,1491.0 847.8,1462.2 865.7,1433.3 884.4,1404.1 903.7,1374.8 923.8,1345.4 944.4,1315.9 965.5,1286.2 987.1,1256.6 1009.2,1227.0 1031.7,1197.3 1054.5,1167.8 1077.7,1138.4 1101.1,1109.1 1124.8,1079.9 1148.6,1051.1 1172.7,1022.4 1196.9,994.1 1221.2,966.2 1245.6,938.7 1270.0,911.6 1294.5,885.1 1319.0,859.1 1343.5,833.8 1368.0,809.1 1392.5,785.1 1416.9,762.0 1441.2,739.7 1465.5,718.3 1489.8,697.9 1513.9,678.6 1538.0,660.3 1561.9,643.2 1585.8,627.4  A 694.285,694.285 0.00 0,1 1611.2,670.7 L 1611.2,670.7 1587.6,684.1 1563.9,698.9 1540.1,715.2 1516.1,732.6 1492.0,751.3 1467.8,771.2 1443.4,792.1 1419.0,814.0 1394.6,836.8 1370.1,860.5 1345.5,884.9 1321.0,910.1 1296.5,936.0 1272.0,962.5 1247.6,989.5 1223.4,1017.0 1199.2,1045.0 1175.3,1073.3 1151.6,1101.9 1128.1,1130.8 1104.9,1160.0 1082.0,1189.3 1059.6,1218.7 1037.5,1248.3 1016.0,1277.8 994.9,1307.4 974.5,1336.9 954.7,1366.3 935.6,1395.6 917.2,1424.7 899.7,1453.7 883.0,1482.4 867.3,1510.8 852.6,1538.9 839.0,1566.8 826.5,1594.2 815.2,1621.3 805.3,1648.0 796.7,1674.3  Z" style="stroke-width: 1.0;  stroke: rgb(0,0,0); fill: rgb(107,230,46); opacity: 0.833;"/>
<path d="M 1692.467,871.522 A 704.285,704.285 0.00 0,1 1701.8,941.3 L 1701.8,941.3 1679.0,942.4 1655.3,941.9 1630.6,939.9 1605.1,936.5 1578.9,931.8 1552.0,925.8 1524.4,918.5 1496.3,910.1 1467.6,900.6 1438.6,890.1 1409.1,878.6 1379.4,866.2 1349.4,853.0 1319.3,838.9 1289.1,824.1 1258.8,808.6 1228.6,792.4 1198.6,775.7 1168.7,758.4 1139.1,740.6 1109.9,722.3 1081.0,703.7 1052.7,684.6 1024.9,665.3 997.8,645.6 971.4,625.7 945.9,605.6 921.2,585.3 897.5,564.9 874.9,544.4 853.3,523.8 833.0,503.1 814.1,482.4 796.4,461.8 780.3,441.2 765.7,420.6 752.8,400.1 741.6,379.7 732.2,359.4  A 694.285,694.285 0.00 0,1 797.5,335.9 L 797.5,335.9 804.3,355.2 813.0,374.7 823.4,394.4 835.5,414.3 849.3,434.2 864.5,454.2 881.1,474.3 899.2,494.3 918.4,514.3 938.9,534.2 960.5,554.0 983.1,573.6 1006.6,593.1 1031.0,612.2 1056.2,631.1 1082.0,649.6 1108.5,667.8 1135.6,685.5 1163.1,702.8 1191.0,719.5 1219.2,735.7 1247.6,751.2 1276.2,766.1 1304.9,780.3 1333.5,793.7 1362.1,806.3 1390.5,818.1 1418.7,828.9 1446.6,838.7 1474.1,847.6 1501.2,855.3 1527.7,861.9 1553.6,867.3 1578.9,871.5 1603.4,874.3 1627.1,875.8 1649.9,875.9 1671.7,874.5 1692.5,871.5  Z" style="stroke-width: 1.0;  stroke: rgb(0,0,0); fill: rgb(46,168,230); opacity: 0.833;"/>
<path d="M 874.090,1692.939 A 704.285,704.285 0.00 0,1 796.7,1674.3 L 796.7,1674.3 802.5,1657.9 810.0,1641.6 819.2,1625.3 829.9,1609.2 842.0,1593.2 855.5,1577.5 870.4,1562.0 886.5,1546.8 903.7,1532.0 922.1,1517.5 941.4,1503.5 961.7,1490.0 982.8,1477.0 1004.7,1464.5 1027.3,1452.6 1050.4,1441.3 1074.1,1430.6 1098.3,1420.7 1122.8,1411.4 1147.6,1402.9 1172.5,1395.1 1197.6,1388.2 1222.8,1382.0 1247.9,1376.7 1272.8,1372.3 1297.5,1368.7 1322.0,1366.1 1346.0,1364.3 1369.6,1363.5 1392.6,1363.7 1414.9,1364.8 1436.6,1366.9 1457.4,1370.0 1477.3,1374.1 1496.2,1379.3 1514.1,1385.4 1530.7,1392.6 1546.2,1400.8 1560.2,1410.1  A 694.285,694.285 0.00 0,1 1510.4,1470.7 L 1510.4,1470.7 1498.6,1460.8 1485.6,1451.8 1471.4,1443.7 1456.2,1436.5 1440.0,1430.2 1422.9,1424.8 1405.1,1420.4 1386.5,1416.8 1367.3,1414.3 1347.5,1412.6 1327.2,1411.9 1306.6,1412.2 1285.7,1413.3 1264.5,1415.4 1243.1,1418.3 1221.7,1422.2 1200.3,1427.0 1178.9,1432.6 1157.7,1439.0 1136.7,1446.3 1116.1,1454.3 1095.8,1463.1 1075.9,1472.7 1056.5,1483.0 1037.7,1493.9 1019.6,1505.4 1002.2,1517.6 985.6,1530.3 969.9,1543.6 955.0,1557.3 941.2,1571.4 928.4,1585.9 916.8,1600.7 906.3,1615.7 897.1,1631.0 889.3,1646.4 882.7,1661.9 877.7,1677.5 874.1,1692.9  Z" style="stroke-width: 1.0;  stroke: rgb(0,0,0); fill: rgb(107,230,46); opacity: 0.833;"/>
<path d="M 302.506,902.435 A 704.285,704.285 0.00 0,1 325.7,796.7 L 325.7,796.7 358.3,806.7 391.1,817.1 424.0,827.8 457.2,838.9 490.4,850.2 523.9,861.9 557.4,873.8 591.1,885.9 624.9,898.3 658.8,910.8 692.7,923.6 726.7,936.5 760.8,949.5 795.0,962.8 829.1,976.1 863.3,989.5 897.5,1003.1 931.6,1016.7 965.8,1030.4 999.9,1044.3 1033.9,1058.1 1067.9,1072.1 1101.7,1086.1 1135.5,1100.2 1169.1,1114.3 1202.6,1128.5 1235.9,1142.7 1269.1,1157.0 1302.0,1171.3 1334.8,1185.8 1367.3,1200.2 1399.5,1214.8 1431.5,1229.4 1463.2,1244.2 1494.5,1259.0 1525.6,1273.9 1556.2,1288.9 1586.5,1304.1 1616.4,1319.4  A 694.285,694.285 0.00 0,1 1560.2,1410.1 L 1560.2,1410.1 1535.6,1392.6 1510.0,1375.3 1483.4,1358.3 1456.0,1341.5 1427.7,1325.0 1398.7,1308.6 1369.0,1292.4 1338.5,1276.4 1307.5,1260.5 1275.9,1244.8 1243.8,1229.3 1211.2,1213.9 1178.2,1198.6 1144.8,1183.5 1111.0,1168.6 1077.0,1153.8 1042.7,1139.2 1008.1,1124.7 973.5,1110.5 938.7,1096.4 903.8,1082.6 868.8,1069.0 833.9,1055.7 799.0,1042.6 764.1,1029.8 729.4,1017.4 694.8,1005.4 660.4,993.7 626.1,982.5 592.2,971.7 558.5,961.4 525.1,951.7 492.0,942.5 459.3,934.0 427.1,926.2 395.2,919.0 363.8,912.7 332.9,907.1 302.5,902.4  Z" style="stroke-width: 1.0;  stroke: rgb(0,0,0); fill: rgb(230,46,46); opacity: 0.833;"/>
<path d="M 1173.087,317.315 A 704.285,704.285 0.00 0,1 1275.6,351.9 L 1275.6,351.9 1263.6,378.9 1250.4,406.2 1236.1,433.8 1220.8,461.7 1204.6,489.7 1187.4,518.0 1169.4,546.5 1150.7,575.2 1131.2,604.0 1111.1,633.0 1090.3,662.0 1069.0,691.2 1047.2,720.4 1024.9,749.7 1002.2,778.9 979.1,808.1 955.7,837.3 931.9,866.3 908.0,895.2 883.8,923.9 859.4,952.4 834.8,980.6 810.2,1008.5 785.4,1036.1 760.5,1063.3 735.7,1090.1 710.7,1116.3 685.8,1142.1 660.9,1167.2 636.0,1191.7 611.1,1215.5 586.3,1238.5 561.6,1260.7 536.9,1282.1 512.3,1302.5 487.8,1322.0 463.4,1340.3 439.1,1357.6 414.8,1373.7  A 694.285,694.285 0.00 0,1 364.5,1279.6 L 364.5,1279.6 387.9,1268.6 411.4,1256.0 435.2,1241.9 459.2,1226.4 483.4,1209.6 507.7,1191.6 532.2,1172.3 556.9,1152.0 581.6,1130.7 606.4,1108.4 631.2,1085.2 656.1,1061.2 680.9,1036.5 705.7,1011.1 730.4,985.1 755.0,958.5 779.4,931.4 803.7,903.9 827.7,876.1 851.4,847.9 874.7,819.4 897.7,790.8 920.2,762.0 942.3,733.1 963.8,704.2 984.7,675.2 1005.0,646.3 1024.5,617.4 1043.3,588.7 1061.2,560.2 1078.2,531.9 1094.3,503.8 1109.3,476.0 1123.1,448.6 1135.8,421.5 1147.2,394.8 1157.3,368.5 1165.9,342.7 1173.1,317.3  Z" style="stroke-width: 1.0;  stroke: rgb(0,0,0); fill: rgb(230,46,230); opacity: 0.833;"/>
<path d="M 1701.838,941.340 A 704.285,704.285 0.00 0,1 1701.1,1066.5 L 1701.1,1066.5 1674.2,1064.6 1646.3,1063.8 1617.5,1064.2 1587.8,1065.7 1557.4,1068.1 1526.3,1071.5 1494.5,1075.8 1462.1,1080.9 1429.1,1086.8 1395.7,1093.4 1361.8,1100.7 1327.5,1108.6 1292.9,1117.1 1258.0,1126.2 1222.9,1135.8 1187.7,1145.9 1152.4,1156.5 1117.1,1167.4 1081.8,1178.8 1046.6,1190.6 1011.7,1202.7 976.9,1215.2 942.5,1228.0 908.4,1241.1 874.8,1254.4 841.7,1268.1 809.2,1282.1 777.3,1296.3 746.1,1310.7 715.8,1325.5 686.3,1340.5 657.7,1355.8 630.1,1371.4 603.7,1387.2 578.3,1403.4 554.3,1419.8 531.5,1436.6 510.1,1453.8 490.2,1471.3  A 694.285,694.285 0.00 0,1 414.8,1373.7 L 414.8,1373.7 440.6,1357.7 467.4,1342.0 495.0,1326.7 523.5,1311.6 552.7,1296.8 582.8,1282.2 613.5,1267.9 644.8,1253.7 676.8,1239.8 709.3,1226.0 742.3,1212.4 775.8,1199.0 809.7,1185.8 844.0,1172.7 878.6,1159.8 913.4,1147.1 948.5,1134.6 983.8,1122.2 1019.3,1110.1 1054.9,1098.1 1090.5,1086.4 1126.2,1074.9 1161.9,1063.6 1197.5,1052.7 1233.0,1042.0 1268.5,1031.6 1303.7,1021.6 1338.8,1012.0 1373.6,1002.8 1408.2,994.0 1442.4,985.7 1476.4,977.9 1509.9,970.7 1543.1,964.0 1575.8,958.0 1608.1,952.7 1639.9,948.1 1671.1,944.3 1701.8,941.3  Z" style="stroke-width: 1.0;  stroke: rgb(0,0,0); fill: rgb(46,168,230); opacity: 0.833;"/>
<path d="M 296.300,1028.703 A 704.285,704.285 0.00 0,1 302.5,902.4 L 302.5,902.4 320.4,905.8 338.6,910.9 357.0,917.7 375.6,926.1 394.4,936.0 413.2,947.4 432.0,960.2 450.9,974.2 469.6,989.6 488.2,1006.0 506.6,1023.6 524.7,1042.2 542.6,1061.7 560.1,1082.1 577.2,1103.3 593.9,1125.2 610.1,1147.8 625.7,1170.9 640.7,1194.5 655.2,1218.5 668.9,1242.9 681.9,1267.5 694.1,1292.3 705.6,1317.2 716.1,1342.1 725.8,1366.9 734.6,1391.7 742.3,1416.2 749.1,1440.4 754.8,1464.2 759.3,1487.6 762.8,1510.5 765.1,1532.7 766.2,1554.2 766.0,1575.0 764.5,1594.9 761.8,1613.8 757.6,1631.7 752.1,1648.5  A 694.285,694.285 0.00 0,1 640.2,1593.8 L 640.2,1593.8 647.5,1580.4 653.6,1565.9 658.7,1550.6 662.7,1534.4 665.7,1517.5 667.5,1499.9 668.3,1481.8 668.1,1463.1 666.8,1444.0 664.4,1424.6 661.1,1404.9 656.8,1385.1 651.5,1365.1 645.2,1345.2 638.1,1325.2 630.0,1305.4 621.1,1285.8 611.4,1266.4 600.9,1247.3 589.6,1228.7 577.6,1210.4 564.9,1192.8 551.6,1175.6 537.7,1159.2 523.2,1143.4 508.3,1128.5 492.9,1114.3 477.2,1101.0 461.1,1088.7 444.8,1077.4 428.2,1067.1 411.5,1057.9 394.7,1049.9 377.9,1043.1 361.2,1037.5 344.6,1033.3 328.2,1030.3 312.1,1028.8 296.3,1028.7  Z" style="stroke-width: 1.0;  stroke: rgb(0,0,0); fill: rgb(230,46,46); opacity: 0.833;"/>
<path d="M 1701.142,1066.459 A 704.285,704.285 0.00 0,1 1678.0,1190.7 L 1678.0,1190.7 1664.9,1187.5 1651.6,1185.0 1638.1,1183.2 1624.7,1182.3 1611.2,1182.0 1597.9,1182.6 1584.8,1183.9 1571.9,1185.9 1559.4,1188.7 1547.2,1192.1 1535.6,1196.3 1524.4,1201.2 1513.8,1206.7 1503.8,1212.9 1494.4,1219.7 1485.7,1227.1 1477.8,1235.1 1470.6,1243.6 1464.2,1252.6 1458.6,1262.1 1453.9,1272.0 1450.0,1282.3 1446.9,1293.0 1444.7,1304.0 1443.4,1315.2 1443.0,1326.7 1443.5,1338.3 1444.8,1350.1 1446.9,1361.9 1449.9,1373.8 1453.8,1385.6 1458.4,1397.3 1463.8,1408.8 1469.9,1420.1 1476.7,1431.1 1484.3,1441.7 1492.4,1451.9 1501.1,1461.6 1510.4,1470.7  A 694.285,694.285 0.00 0,1 1418.0,1554.3 L 1418.0,1554.3 1409.9,1542.4 1402.6,1529.6 1396.3,1515.9 1391.0,1501.5 1386.5,1486.4 1383.1,1470.7 1380.6,1454.5 1379.1,1437.9 1378.5,1420.9 1378.9,1403.6 1380.3,1386.1 1382.7,1368.4 1385.9,1350.8 1390.1,1333.1 1395.3,1315.5 1401.3,1298.0 1408.2,1280.7 1415.9,1263.7 1424.5,1247.1 1433.8,1230.8 1444.0,1215.0 1454.8,1199.7 1466.3,1185.0 1478.5,1170.9 1491.2,1157.5 1504.5,1144.7 1518.4,1132.8 1532.6,1121.7 1547.3,1111.5 1562.2,1102.2 1577.5,1093.8 1593.0,1086.5 1608.6,1080.2 1624.3,1075.0 1639.9,1070.9 1655.6,1067.9 1671.0,1066.2 1686.2,1065.7 1701.1,1066.5  Z" style="stroke-width: 1.0;  stroke: rgb(0,0,0); fill: rgb(46,168,230); opacity: 0.833;"/>
<path d="M 1677.965,1190.737 A 704.285,704.285 0.00 0,1 1625.3,1324.0 L 1625.3,1324.0 1611.7,1316.2 1598.6,1306.9 1585.8,1296.3 1573.6,1284.4 1561.9,1271.4 1550.8,1257.3 1540.3,1242.1 1530.4,1226.0 1521.2,1209.0 1512.7,1191.2 1505.0,1172.7 1498.0,1153.5 1491.8,1133.8 1486.4,1113.6 1481.8,1093.0 1478.0,1072.0 1475.0,1050.8 1472.9,1029.4 1471.7,1007.9 1471.3,986.3 1471.7,964.8 1473.0,943.4 1475.2,922.2 1478.2,901.2 1482.0,880.6 1486.6,860.4 1492.1,840.7 1498.3,821.6 1505.3,803.2 1513.1,785.4 1521.5,768.5 1530.7,752.4 1540.5,737.3 1550.9,723.2 1561.9,710.2 1573.5,698.3 1585.6,687.8 1598.2,678.5 1611.2,670.7  A 694.285,694.285 0.00 0,1 1665.2,801.2 L 1665.2,801.2 1652.6,805.5 1640.3,810.7 1628.2,816.7 1616.5,823.5 1605.3,831.1 1594.5,839.4 1584.3,848.4 1574.7,858.0 1565.8,868.1 1557.5,878.8 1550.0,889.9 1543.3,901.4 1537.4,913.4 1532.3,925.6 1528.1,938.1 1524.8,950.8 1522.4,963.7 1520.9,976.7 1520.3,989.8 1520.7,1002.9 1521.9,1016.0 1524.1,1029.0 1527.2,1041.8 1531.3,1054.5 1536.2,1067.0 1541.9,1079.2 1548.5,1091.1 1555.9,1102.6 1564.1,1113.7 1573.0,1124.3 1582.6,1134.4 1592.8,1144.0 1603.7,1152.9 1615.1,1161.2 1627.0,1168.7 1639.2,1175.5 1651.9,1181.4 1664.8,1186.5 1678.0,1190.7  Z" style="stroke-width: 1.0;  stroke: rgb(0,0,0); fill: rgb(46,168,230); opacity: 0.833;"/>
<path d="M 1275.628,351.890 A 704.285,704.285 0.00 0,1 1423.3,437.1 L 1423.3,437.1 1410.5,455.6 1398.5,475.8 1387.2,497.5 1376.8,520.6 1367.1,545.1 1358.2,570.9 1350.0,597.8 1342.4,625.9 1335.6,654.9 1329.4,684.9 1323.9,715.7 1319.0,747.2 1314.7,779.4 1311.0,812.2 1307.9,845.4 1305.5,879.0 1303.6,912.9 1302.3,947.0 1301.6,981.2 1301.4,1015.4 1301.9,1049.6 1302.9,1083.6 1304.5,1117.4 1306.7,1150.9 1309.5,1184.0 1312.9,1216.5 1317.0,1248.5 1321.6,1279.8 1326.9,1310.3 1332.8,1340.0 1339.4,1368.7 1346.6,1396.4 1354.6,1423.0 1363.2,1448.4 1372.6,1472.5 1382.8,1495.3 1393.7,1516.5 1405.5,1536.3 1418.0,1554.3  A 694.285,694.285 0.00 0,1 1272.5,1638.6 L 1272.5,1638.6 1262.6,1613.6 1253.4,1587.4 1245.0,1560.0 1237.3,1531.5 1230.3,1502.0 1223.9,1471.5 1218.2,1440.2 1213.0,1407.9 1208.4,1374.9 1204.2,1341.2 1200.6,1306.9 1197.4,1271.9 1194.7,1236.5 1192.5,1200.6 1190.6,1164.3 1189.1,1127.8 1188.1,1090.9 1187.4,1053.9 1187.1,1016.7 1187.1,979.6 1187.6,942.4 1188.4,905.3 1189.7,868.3 1191.3,831.6 1193.3,795.1 1195.7,759.0 1198.6,723.4 1201.9,688.1 1205.7,653.5 1210.0,619.4 1214.8,586.1 1220.1,553.5 1226.1,521.7 1232.6,490.8 1239.7,460.8 1247.6,431.9 1256.2,404.0 1265.5,377.4 1275.6,351.9  Z" style="stroke-width: 1.0;  stroke: rgb(0,0,0); fill: rgb(230,46,230); opacity: 0.833;"/>
<path d="M 1000.000,295.715 A 704.285,704.285 0.00 0,1 1173.1,317.3 L 1173.1,317.3 1169.3,330.5 1164.6,343.5 1159.0,356.2 1152.7,368.6 1145.6,380.6 1137.8,392.1 1129.4,403.1 1120.4,413.5 1110.8,423.3 1100.7,432.4 1090.1,440.7 1079.1,448.3 1067.7,455.1 1056.1,461.1 1044.1,466.2 1031.9,470.4 1019.5,473.7 1007.0,476.1 994.4,477.6 981.8,478.1 969.1,477.7 956.5,476.4 944.1,474.2 931.7,471.1 919.6,467.0 907.7,462.1 896.1,456.4 884.9,449.8 874.0,442.5 863.6,434.4 853.7,425.6 844.3,416.1 835.4,406.0 827.3,395.3 819.8,384.2 813.0,372.6 807.0,360.6 801.8,348.4 797.5,335.9  A 694.285,694.285 0.00 0,1 967.0,306.5 L 967.0,306.5 967.6,318.8 968.3,330.9 969.1,342.9 969.9,354.6 970.8,366.0 971.8,376.9 972.8,387.3 973.8,397.1 974.9,406.4 976.0,414.9 977.2,422.7 978.3,429.7 979.5,435.9 980.6,441.2 981.8,445.6 983.0,449.1 984.2,451.7 985.3,453.4 986.5,454.0 987.6,453.8 988.7,452.5 989.8,450.3 990.8,447.2 991.8,443.1 992.8,438.1 993.7,432.2 994.6,425.4 995.4,417.9 996.1,409.5 996.8,400.4 997.5,390.7 998.0,380.3 998.5,369.3 999.0,357.9 999.3,346.0 999.6,333.7 999.8,321.2 1000.0,308.5 1000.0,295.7  Z" style="stroke-width: 1.0;  stroke: rgb(0,0,0); fill: rgb(230,46,230); opacity: 0.833;"/>
<path d="M 1245.319,1660.179 A 704.285,704.285 0.00 0,1 1070.4,1700.8 L 1070.4,1700.8 1066.9,1670.8 1062.5,1640.3 1057.2,1609.3 1051.0,1577.7 1044.1,1545.6 1036.5,1513.1 1028.2,1480.2 1019.2,1446.9 1009.7,1413.2 999.6,1379.2 989.0,1344.9 977.9,1310.4 966.4,1275.7 954.5,1240.8 942.2,1205.9 929.6,1170.8 916.7,1135.7 903.5,1100.6 890.0,1065.5 876.3,1030.6 862.4,995.7 848.2,961.1 833.8,926.7 819.3,892.5 804.5,858.7 789.6,825.3 774.5,792.3 759.3,759.7 743.9,727.7 728.3,696.2 712.5,665.4 696.6,635.3 680.5,605.9 664.1,577.3 647.6,549.5 630.8,522.6 613.8,496.7 596.5,471.8 578.9,448.0  A 694.285,694.285 0.00 0,1 732.2,359.4 L 732.2,359.4 745.7,391.9 759.2,424.4 772.7,457.0 786.1,489.7 799.5,522.5 812.9,555.4 826.2,588.4 839.6,621.4 852.9,654.5 866.2,687.6 879.5,720.8 892.8,754.1 906.1,787.4 919.4,820.8 932.7,854.2 945.9,887.7 959.2,921.2 972.5,954.7 985.7,988.2 999.0,1021.8 1012.2,1055.4 1025.4,1089.1 1038.7,1122.7 1051.9,1156.4 1065.0,1190.0 1078.2,1223.7 1091.3,1257.3 1104.4,1291.0 1117.5,1324.7 1130.5,1358.3 1143.5,1392.0 1156.5,1425.6 1169.4,1459.2 1182.2,1492.8 1195.0,1526.3 1207.7,1559.8 1220.3,1593.3 1232.9,1626.8 1245.3,1660.2  Z" style="stroke-width: 1.0;  stroke: rgb(0,0,0); fill: rgb(107,230,46); opacity: 0.833;"/>
<path d="M 1070.356,1700.762 A 704.285,704.285 0.00 0,1 874.1,1692.9 L 874.1,1692.9 876.1,1679.9 877.6,1666.8 878.4,1653.6 878.6,1640.6 878.2,1627.8 877.1,1615.2 875.5,1603.0 873.3,1591.1 870.5,1579.7 867.2,1568.9 863.3,1558.6 858.8,1549.0 853.9,1540.0 848.4,1531.8 842.5,1524.3 836.1,1517.6 829.3,1511.7 822.1,1506.7 814.5,1502.5 806.6,1499.2 798.3,1496.8 789.8,1495.4 781.0,1494.8 772.0,1495.1 762.8,1496.3 753.4,1498.4 744.0,1501.4 734.5,1505.2 725.0,1509.9 715.6,1515.4 706.2,1521.6 696.9,1528.5 687.9,1536.2 679.0,1544.5 670.5,1553.4 662.2,1562.8 654.4,1572.7 647.0,1583.1 640.2,1593.8  A 694.285,694.285 0.00 0,1 490.2,1471.3 L 490.2,1471.3 501.6,1461.7 514.2,1453.0 527.8,1445.1 542.3,1438.1 557.8,1432.0 574.0,1426.8 591.0,1422.6 608.6,1419.3 626.7,1416.9 645.3,1415.4 664.3,1414.9 683.7,1415.3 703.2,1416.7 723.0,1419.0 742.8,1422.2 762.7,1426.3 782.5,1431.3 802.1,1437.2 821.6,1443.9 840.9,1451.4 859.7,1459.7 878.2,1468.8 896.3,1478.7 913.8,1489.2 930.6,1500.4 946.9,1512.2 962.4,1524.7 977.1,1537.6 991.0,1551.1 1004.0,1565.0 1016.0,1579.3 1026.9,1593.9 1036.8,1608.9 1045.6,1624.0 1053.1,1639.3 1059.5,1654.7 1064.5,1670.1 1068.1,1685.5 1070.4,1700.8  Z" style="stroke-width: 1.0;  stroke: rgb(0,0,0); fill: rgb(107,230,46); opacity: 0.833;"/>
<path d="M 325.685,796.733 A 704.285,704.285 0.00 0,1 415.9,606.4 L 415.9,606.4 433.8,617.4 453.3,627.4 474.2,636.4 496.5,644.5 520.1,651.6 544.9,657.8 570.8,663.2 597.8,667.6 625.7,671.3 654.4,674.2 683.9,676.2 714.1,677.5 744.8,678.0 776.0,677.8 807.6,676.9 839.6,675.3 871.7,673.0 904.0,670.0 936.2,666.4 968.5,662.1 1000.6,657.3 1032.4,651.7 1063.9,645.6 1095.0,638.9 1125.6,631.6 1155.6,623.7 1184.9,615.3 1213.4,606.2 1241.1,596.7 1267.7,586.5 1293.4,575.8 1317.8,564.6 1341.1,552.8 1363.0,540.5 1383.5,527.7 1402.5,514.3 1419.9,500.3 1435.6,485.9 1449.5,470.8  A 694.285,694.285 0.00 0,1 1585.8,627.4 L 1585.8,627.4 1563.3,641.0 1539.3,653.9 1514.0,666.2 1487.5,678.0 1459.8,689.2 1431.0,699.8 1401.2,710.0 1370.4,719.7 1338.8,729.0 1306.3,737.9 1273.1,746.3 1239.2,754.3 1204.8,761.9 1169.8,769.1 1134.3,776.0 1098.5,782.5 1062.3,788.6 1025.9,794.3 989.4,799.6 952.7,804.6 916.0,809.1 879.3,813.2 842.7,816.9 806.3,820.2 770.1,823.0 734.2,825.3 698.7,827.1 663.6,828.4 629.0,829.1 595.0,829.2 561.7,828.6 529.0,827.4 497.1,825.5 466.1,822.9 435.9,819.4 406.8,815.1 378.6,810.0 351.6,803.8 325.7,796.7  Z" style="stroke-width: 1.0;  stroke: rgb(0,0,0); fill: rgb(230,46,46); opacity: 0.833;"/>
<path d="M 342.590,1252.644 A 704.285,704.285 0.00 0,1 296.3,1028.7 L 296.3,1028.7 310.3,1027.6 324.3,1025.5 338.4,1022.3 352.2,1018.2 365.9,1013.2 379.3,1007.3 392.4,1000.5 405.1,992.9 417.3,984.5 429.0,975.4 440.1,965.6 450.6,955.1 460.4,944.1 469.5,932.4 477.9,920.3 485.5,907.7 492.3,894.6 498.2,881.2 503.3,867.5 507.6,853.5 510.9,839.3 513.3,824.9 514.8,810.4 515.4,795.8 515.1,781.3 513.9,766.8 511.8,752.4 508.8,738.2 504.9,724.3 500.2,710.6 494.6,697.4 488.3,684.5 481.1,672.1 473.2,660.3 464.7,649.1 455.4,638.6 445.6,628.9 435.2,620.0 424.2,612.0  A 694.285,694.285 0.00 0,1 578.9,448.0 L 578.9,448.0 588.7,462.2 597.4,477.8 605.2,494.8 611.9,513.0 617.6,532.3 622.4,552.6 626.2,574.0 629.0,596.2 630.9,619.2 631.8,642.9 631.8,667.3 630.8,692.1 629.0,717.5 626.3,743.1 622.7,769.1 618.3,795.2 613.1,821.4 607.0,847.6 600.2,873.8 592.6,899.8 584.3,925.6 575.3,951.0 565.6,976.1 555.2,1000.6 544.2,1024.6 532.6,1047.8 520.5,1070.4 507.8,1092.1 494.6,1112.9 480.9,1132.7 466.8,1151.5 452.3,1169.0 437.4,1185.4 422.2,1200.4 406.7,1214.0 390.9,1226.1 375.0,1236.6 358.8,1245.5 342.6,1252.6  Z" style="stroke-width: 1.0;  stroke: rgb(0,0,0); fill: rgb(230,46,46); opacity: 0.833;"/>
</g>
</svg>
