debuggroup summary 0.21s welcome to circos v0.63 25 Jun 2012
debuggroup summary 0.21s loading configuration from file /home/martink/www/htdocs/tableviewer/tmp/fhhyoajrand/etc/circos.conf
debuggroup summary 0.21s found conf file /home/martink/www/htdocs/tableviewer/tmp/fhhyoajrand/etc/circos.conf
debuggroup summary 0.57s debug will appear for these features: summary
debuggroup summary 0.58s parsing karyotype and organizing ideograms
debuggroup summary 0.58s applying global and local scaling
debuggroup summary 0.59s allocating image, colors and brushes
debuggroup summary 1.46s drawing highlights and ideograms
debuggroup summary 1.46s found conf file /home/martink/work/circos/svn-tags/circos-0.63-pre9/bin/../etc/tracks/highlight.bg.conf
debuggroup summary 1.47s reading data and processing highlight track id track_0 from /home/martink/www/htdocs/tableviewer/tmp/fhhyoajrand/data/row.txt
debuggroup summary 1.47s reading data and processing highlight track id track_1 from /home/martink/www/htdocs/tableviewer/tmp/fhhyoajrand/data/col.txt
debuggroup summary 1.48s reading data and processing highlight track id track_2 from /home/martink/www/htdocs/tableviewer/tmp/fhhyoajrand/data/all.txt
debuggroup summary 1.48s reading data and processing highlight track id track_3 from /home/martink/www/htdocs/tableviewer/tmp/fhhyoajrand/data/cap.col.txt
debuggroup summary 1.49s reading data and processing highlight track id track_4 from /home/martink/www/htdocs/tableviewer/tmp/fhhyoajrand/data/cap.row.txt
debuggroup summary 2.05s found conf file /home/martink/work/circos/svn-tags/circos-0.63-pre9/bin/../etc/tracks/link.conf
debuggroup summary 2.05s reading data and processing link id flow track from /home/martink/www/htdocs/tableviewer/tmp/fhhyoajrand/data/cells.txt
debuggroup summary 2.06s drawing links flow z 0
debuggroup summary 2.16s found conf file /home/martink/work/circos/svn-tags/circos-0.63-pre9/bin/../etc/tracks/text.conf
debuggroup summary,output 2.17s generating output
debuggroup summary,output 2.44s created PNG image results/circos-table-fhhyoajrand-large.png (559 kb)
debuggroup summary,output 2.44s created SVG image results/circos-table-fhhyoajrand-large.svg (91 kb)
